Lab5/simulation/qsim/g07_lab5.msim.vcd
$comment
	File created using the following command:
		vcd file g07_lab5.msim.vcd -direction
$end
$date
	Wed Nov 29 16:11:13 2017
$end
$version
	ModelSim Version 10.1d
$end
$timescale
	1ps
$end
$scope module g07_computer_FSM_vlg_vec_tst $end
$var reg 1 ! clk $end
$var reg 6 " dealer_sum [5:0] $end
$var reg 1 # dealer_turn $end
$var reg 1 $ reset_all $end
$var wire 1 % dealer_bust $end
$var wire 1 & dealer_done $end
$var wire 1 ' request_card $end
$var wire 1 ( sampler $end
$scope module i1 $end
$var wire 1 ) gnd $end
$var wire 1 * vcc $end
$var wire 1 + unknown $end
$var tri1 1 , devclrn $end
$var tri1 1 - devpor $end
$var tri1 1 . devoe $end
$var wire 1 / LessThan0~0_combout $end
$var wire 1 0 clk~combout $end
$var wire 1 1 clk~clkctrl_outclk $end
$var wire 1 2 dealer_turn~combout $end
$var wire 1 3 Selector0~0_combout $end
$var wire 1 4 reset_all~combout $end
$var wire 1 5 reset_all~clkctrl_outclk $end
$var wire 1 6 state.WAIT_TURN~regout $end
$var wire 1 7 Selector2~0_combout $end
$var wire 1 8 state.END_TURN~regout $end
$var wire 1 9 dealer_bust~0_combout $end
$var wire 1 : dealer_bust~1_combout $end
$var wire 1 ; Selector1~0_combout $end
$var wire 1 < state.DRAW~regout $end
$var wire 1 = dealer_sum~combout [5] $end
$var wire 1 > dealer_sum~combout [4] $end
$var wire 1 ? dealer_sum~combout [3] $end
$var wire 1 @ dealer_sum~combout [2] $end
$var wire 1 A dealer_sum~combout [1] $end
$var wire 1 B dealer_sum~combout [0] $end
$upscope $end
$upscope $end
$enddefinitions $end
#0
$dumpvars
0!
b1000 "
0#
0$
x%
x&
x'
x(
0)
1*
x+
1,
1-
1.
x/
00
x1
02
x3
04
x5
x6
x7
x8
x9
x:
x;
x<
0B
0A
0@
1?
0>
z=
$end
#232
05
#238
01
#243
0<
06
08
#930
0;
#967
07
#1181
0:
#4006
0&
#4399
0'
#4867
0%
#5570
09
#5678
0/
#5784
03
#10000
1!
0(
#11026
10
#11264
11
#20000
0!
1(
#21026
00
#21264
01
#30000
1!
0(
#31026
10
#31264
11
#40000
b1001 "
0!
1(
#40843
1B
#41026
00
#41264
01
#50000
1#
1!
0(
#50833
12
#51026
10
#51264
11
#56617
13
#60000
0!
1(
#61026
00
#61264
01
#70000
1!
0(
#71026
10
#71264
11
#73140
16
#73827
1;
#80000
b1011 "
b1010 "
0!
1(
#80843
0B
#80863
1A
#81026
00
#81264
01
#90000
1!
0(
#91026
10
#91264
11
#93140
1<
#97296
1'
#100000
0#
0!
1(
#100833
02
#101026
00
#101264
01
#110000
1!
0(
#111026
10
#111264
11
#120000
b1011 "
0!
1(
#120843
1B
#121026
00
#121264
01
#130000
1!
0(
#131026
10
#131264
11
#140000
0!
1(
#141026
00
#141264
01
#150000
1!
0(
#151026
10
#151264
11
#160000
b1111 "
b1101 "
b1100 "
0!
1(
#160843
0B
#160863
1@
0A
#161026
00
#161264
01
#170000
1!
0(
#171026
10
#171264
11
#180000
0!
1(
#181026
00
#181264
01
#190000
1!
0(
#191026
10
#191264
11
#200000
b1101 "
0!
1(
#200843
1B
#201026
00
#201264
01
#210000
1$
1!
0(
#211026
10
14
#211258
15
#211264
11
#213104
0<
06
#213462
03
#213791
0;
#217260
0'
#220000
0!
1(
#221026
00
#221264
01
#230000
1!
0(
#231026
10
#231264
11
#240000
b1111 "
b1110 "
0!
1(
#240843
0B
#240863
1A
#241026
00
#241264
01
#250000
1!
0(
#251026
10
#251264
11
#260000
0!
1(
#261026
00
#261264
01
#270000
1!
0(
#271026
10
#271264
11
#280000
b1111 "
0!
1(
#280843
1B
#281026
00
#281264
01
#290000
1!
0(
#291026
10
#291264
11
#300000
0$
0!
1(
#301026
00
04
#301258
05
#301264
01
#310000
1!
0(
#311026
10
#311264
11
#320000
b11111 "
b10111 "
b10011 "
b10001 "
b10000 "
0!
1(
#320843
1>
0B
#320863
0?
0@
0A
#321026
00
#321264
01
#326549
1/
#330000
1!
0(
#331026
10
#331264
11
#340000
0!
1(
#341026
00
#341264
01
#350000
1!
0(
#351026
10
#351264
11
#360000
b10001 "
0!
1(
#360843
1B
#361026
00
#361264
01
#366348
0/
#370000
1!
0(
#371026
10
#371264
11
#380000
0!
1(
#381026
00
#381264
01
#390000
1!
0(
#391026
10
#391264
11
#400000
b10011 "
b10010 "
0!
1(
#400843
0B
#400863
1A
#401026
00
#401264
01
#410000
1!
0(
#411026
10
#411264
11
#420000
1#
0!
1(
#420833
12
#421026
00
#421264
01
#426617
13
#430000
1!
0(
#431026
10
#431264
11
#433140
16
#433864
17
#440000
b10011 "
0!
1(
#440843
1B
#441026
00
#441264
01
#450000
1!
0(
#451026
10
#451264
11
#453140
18
#453498
07
#453700
03
#456903
1&
#460000
0#
0!
1(
#460833
02
#461026
00
#461264
01
#470000
1!
0(
#471026
10
#471264
11
#473140
06
08
#473498
17
#473864
07
#476903
0&
#480000
b10111 "
b10101 "
b10100 "
0!
1(
#480843
0B
#480863
1@
0A
#481026
00
#481264
01
#490000
1!
0(
#491026
10
#491264
11
#500000
0!
1(
#501026
00
#501264
01
#510000
1!
0(
#511026
10
#511264
11
#520000
b10101 "
0!
1(
#520843
1B
#521026
00
#521264
01
#530000
1!
0(
#531026
10
#531264
11
#540000
0!
1(
#541026
00
#541264
01
#550000
1!
0(
#551026
10
#551264
11
#560000
b10111 "
b10110 "
0!
1(
#560843
0B
#560863
1A
#561026
00
#561264
01
#566678
19
#570000
1!
0(
#571026
10
#571264
11
#580000
0!
1(
#581026
00
#581264
01
#590000
1!
0(
#591026
10
#591264
11
#600000
1#
b10111 "
0!
1(
#600833
12
#600843
1B
#601026
00
#601264
01
#606617
13
#610000
1!
0(
#611026
10
#611264
11
#613140
16
#613864
17
#620000
0!
1(
#621026
00
#621264
01
#630000
1!
0(
#631026
10
#631264
11
#633140
18
#633498
07
#633700
03
#634078
1:
#636903
1&
#637764
1%
#640000
b11111 "
b11011 "
b11001 "
b11000 "
0!
1(
#640843
0B
#640863
1?
0@
0A
#641026
00
#641264
01
#650000
0#
1!
0(
#650833
02
#651026
10
#651264
11
#653140
06
08
#653498
17
#653700
13
#653864
07
#654078
0:
#656617
03
#656903
0&
#657764
0%
#660000
0!
1(
#661026
00
#661264
01
#670000
1!
0(
#671026
10
#671264
11
#680000
b11001 "
0!
1(
#680843
1B
#681026
00
#681264
01
#690000
1!
0(
#691026
10
#691264
11
#700000
0!
1(
#701026
00
#701264
01
#710000
1!
0(
#711026
10
#711264
11
#720000
b11011 "
b11010 "
0!
1(
#720843
0B
#720863
1A
#721026
00
#721264
01
#730000
1!
0(
#731026
10
#731264
11
#740000
0!
1(
#741026
00
#741264
01
#750000
1!
0(
#751026
10
#751264
11
#760000
b11011 "
0!
1(
#760843
1B
#761026
00
#761264
01
#770000
1!
0(
#771026
10
#771264
11
#780000
0!
1(
#781026
00
#781264
01
#790000
1!
0(
#791026
10
#791264
11
#800000
b11111 "
b11101 "
b11100 "
0!
1(
#800843
0B
#800863
1@
0A
#801026
00
#801264
01
#810000
1!
0(
#811026
10
#811264
11
#820000
0!
1(
#821026
00
#821264
01
#830000
1!
0(
#831026
10
#831264
11
#840000
b11101 "
0!
1(
#840843
1B
#841026
00
#841264
01
#850000
1!
0(
#851026
10
#851264
11
#860000
0!
1(
#861026
00
#861264
01
#870000
1!
0(
#871026
10
#871264
11
#880000
b11111 "
b11110 "
0!
1(
#880843
0B
#880863
1A
#881026
00
#881264
01
#890000
1!
0(
#891026
10
#891264
11
#900000
0!
1(
#901026
00
#901264
01
#910000
1!
0(
#911026
10
#911264
11
#920000
b11111 "
0!
1(
#920843
1B
#921026
00
#921264
01
#930000
1!
0(
#931026
10
#931264
11
#940000
0!
1(
#941026
00
#941264
01
#950000
1!
0(
#951026
10
#951264
11
#960000
b111111 "
b101111 "
b100111 "
b100011 "
b100001 "
b100000 "
0!
1(
#960843
0>
0B
#960863
0?
0@
0A
#961026
00
#961264
01
#966413
09
#966549
1/
#970000
1!
0(
#971026
10
#971264
11
#980000
0!
1(
#981026
00
#981264
01
#990000
1!
0(
#991026
10
