Lab5/simulation/qsim/g07_lab5.msim.vcd
$comment
	File created using the following command:
		vcd file g07_lab5.msim.vcd -direction
$end
$date
	Fri Dec 01 14:29:13 2017
$end
$version
	ModelSim Version 10.1d
$end
$timescale
	1ps
$end
$scope module g07_computer_FSM_vlg_vec_tst $end
$var reg 1 ! clk $end
$var reg 6 " dealer_sum [5:0] $end
$var reg 1 # dealer_turn $end
$var reg 1 $ reset_all $end
$var wire 1 % dealer_done $end
$var wire 1 & request_card $end
$var wire 1 ' sampler $end
$scope module i1 $end
$var wire 1 ( gnd $end
$var wire 1 ) vcc $end
$var wire 1 * unknown $end
$var tri1 1 + devclrn $end
$var tri1 1 , devpor $end
$var tri1 1 - devoe $end
$var wire 1 . clk~combout $end
$var wire 1 / dealer_turn~combout $end
$var wire 1 0 clk~clkctrl_outclk $end
$var wire 1 1 LessThan0~0_combout $end
$var wire 1 2 Selector2~0_combout $end
$var wire 1 3 reset_all~combout $end
$var wire 1 4 old_sum_last[1]~feeder_combout $end
$var wire 1 5 Equal0~0_combout $end
$var wire 1 6 old_sum_last[3]~feeder_combout $end
$var wire 1 7 Equal0~1_combout $end
$var wire 1 8 Equal0~2_combout $end
$var wire 1 9 Selector2~1_combout $end
$var wire 1 : reset_all~clkctrl_outclk $end
$var wire 1 ; state.DRAW~regout $end
$var wire 1 < Selector0~0_combout $end
$var wire 1 = state.WAIT_TURN~regout $end
$var wire 1 > Selector1~0_combout $end
$var wire 1 ? state.CP_TURN~regout $end
$var wire 1 @ Selector3~0_combout $end
$var wire 1 A state.END_TURN~regout $end
$var wire 1 B dealer_done~0_combout $end
$var wire 1 C dealer_sum~combout [5] $end
$var wire 1 D dealer_sum~combout [4] $end
$var wire 1 E dealer_sum~combout [3] $end
$var wire 1 F dealer_sum~combout [2] $end
$var wire 1 G dealer_sum~combout [1] $end
$var wire 1 H dealer_sum~combout [0] $end
$var wire 1 I old_sum_last [4] $end
$var wire 1 J old_sum_last [3] $end
$var wire 1 K old_sum_last [2] $end
$var wire 1 L old_sum_last [1] $end
$var wire 1 M old_sum_last [0] $end
$upscope $end
$upscope $end
$enddefinitions $end
#0
$dumpvars
0!
b1010 "
0#
0$
x%
x&
x'
0(
1)
x*
1+
1,
1-
0.
0/
x0
x1
x2
03
x4
x5
x6
x7
x8
x9
x:
x;
x<
x=
x>
x?
x@
xA
xB
0H
1G
0F
1E
0D
zC
0M
0L
0K
0J
0I
$end
#238
00
0:
#243
0;
0=
0?
0A
#937
02
#940
0@
#944
1B
#1767
09
#4017
0&
#4307
1%
#5035
01
#5039
14
#5329
05
#5357
0<
#5360
0>
#5405
16
#5965
07
#6110
08
#10000
1!
0'
#11026
1.
#11264
10
#13137
1L
1J
#13672
15
#13673
17
#14153
18
#20000
0!
1'
#21026
0.
#21264
00
#30000
1!
0'
#31026
1.
#31264
10
#40000
1#
0!
1'
#40834
1/
#41026
0.
#41264
00
#46191
1<
#46194
1>
#50000
b1011 "
1!
0'
#50864
1H
#51026
1.
#51264
10
#53137
1=
1?
#53831
12
#53838
0B
#53839
0>
#54661
19
#56622
05
#57201
0%
#57403
08
#60000
0!
1'
#61026
0.
#61264
00
#70000
1!
0'
#71026
1.
#71264
10
#73137
1M
1;
0?
#73495
15
#73831
02
#74027
1>
#74276
18
#74763
0>
#76911
1&
#80000
0!
1'
#81026
0.
#81264
00
#90000
1!
0'
#91026
1.
#91264
10
#100000
b1111 "
b1101 "
b1100 "
0!
1'
#100834
1F
0G
#100864
0H
#101026
0.
#101264
00
#105873
04
#106163
05
#106551
07
#106944
08
#107430
09
#107431
1>
#110000
0#
1!
0'
#110834
0/
#111026
1.
#111264
10
#113137
1K
0M
0L
0;
1?
#113495
17
#113672
15
#113831
12
#114027
0>
#114453
18
#114661
19
#116911
0&
#120000
0!
1'
#121026
0.
#121264
00
#130000
1!
0'
#131026
1.
#131264
10
#133137
1;
0?
#133831
02
#136911
1&
#140000
0!
1'
#141026
0.
#141264
00
#150000
b1101 "
1!
0'
#150864
1H
#151026
1.
#151264
10
#156622
05
#157403
08
#157889
09
#157890
1>
#160000
0!
1'
#161026
0.
#161264
00
#170000
1!
0'
#171026
1.
#171264
10
#173137
1M
0;
1?
#173495
15
#173831
12
#174027
0>
#174276
18
#174661
19
#176911
0&
#180000
0!
1'
#181026
0.
#181264
00
#190000
1!
0'
#191026
1.
#191264
10
#193137
1;
0?
#193831
02
#196911
1&
#200000
b1111 "
b1110 "
0!
1'
#200834
1G
#200864
0H
#201026
0.
#201264
00
#205873
14
#206163
05
#206944
08
#207430
09
#207431
1>
#210000
1!
0'
#211026
1.
#211264
10
#213137
0M
1L
0;
1?
#213672
15
#213831
12
#214027
0>
#214453
18
#214661
19
#216911
0&
#220000
0!
1'
#221026
0.
#221264
00
#230000
1!
0'
#231026
1.
#231264
10
#233137
1;
0?
#233831
02
#236911
1&
#240000
0!
1'
#241026
0.
#241264
00
#250000
b1111 "
1!
0'
#250864
1H
#251026
1.
#251264
10
#256622
05
#257403
08
#257889
09
#257890
1>
#260000
0!
1'
#261026
0.
#261264
00
#270000
1!
0'
#271026
1.
#271264
10
#273137
1M
0;
1?
#273495
15
#273831
12
#274027
0>
#274276
18
#274661
19
#276911
0&
#280000
0!
1'
#281026
0.
#281264
00
#290000
1!
0'
#291026
1.
#291264
10
#293137
1;
0?
#293831
02
#296911
1&
#300000
b11111 "
b10111 "
b10011 "
b10001 "
b10000 "
0!
1'
#300834
0F
0G
#300854
0E
#300864
1D
0H
#301026
0.
#301264
00
#305873
04
#306163
05
#306259
06
#306283
08
#306551
07
#306557
11
#306769
09
#306770
1>
#310000
1!
0'
#311026
1.
#311264
10
#313137
0K
1I
0M
0L
0J
0;
1?
#313672
15
#313673
17
#313831
12
#314027
0>
#314153
18
#314661
19
#316911
0&
#320000
0!
1'
#321026
0.
#321264
00
#330000
1!
0'
#331026
1.
#331264
10
#333137
1;
0?
#333831
02
#336911
1&
#340000
0!
1'
#341026
0.
#341264
00
#350000
b10001 "
1!
0'
#350864
1H
#351026
1.
#351264
10
#356382
01
#356622
05
#357403
08
#357889
09
#357890
1>
#360000
0!
1'
#361026
0.
#361264
00
#370000
1!
0'
#371026
1.
#371264
10
#373137
1M
0;
1?
#373495
15
#373834
1@
#374027
0>
#374276
18
#376911
0&
#380000
0!
1'
#381026
0.
#381264
00
#390000
1!
0'
#391026
1.
#391264
10
#393137
0?
1A
#393834
0@
#393971
0<
#394035
1B
#397398
1%
#400000
1#
b10011 "
b10010 "
0!
1'
#400834
1G
1/
#400864
0H
#401026
0.
#401264
00
#405873
14
#406163
05
#406944
08
#410000
1!
0'
#411026
1.
#411264
10
#413137
0M
1L
0=
0A
#413672
15
#413839
1>
#413971
1<
#414453
18
#420000
0!
1'
#421026
0.
#421264
00
#430000
0#
1!
0'
#430834
0/
#431026
1.
#431264
10
#433137
1=
1?
#433834
1@
#433838
0B
#433839
0>
#437201
0%
#440000
0!
1'
#441026
0.
#441264
00
#450000
b10011 "
1!
0'
#450864
1H
#451026
1.
#451264
10
#453137
0?
1A
#453834
0@
#453971
0<
#454035
1B
#456622
05
#457398
1%
#457403
08
#460000
0!
1'
#461026
0.
#461264
00
#470000
1!
0'
#471026
1.
#471264
10
#473137
1M
0=
0A
#473495
15
#474276
18
#480000
0!
1'
#481026
0.
#481264
00
#490000
1!
0'
#491026
1.
#491264
10
#500000
b10111 "
b10101 "
b10100 "
0!
1'
#500834
1F
0G
#500864
0H
#501026
0.
#501264
00
#505873
04
#506163
05
#506551
07
#506944
08
#510000
1!
0'
#511026
1.
#511264
10
#513137
1K
0M
0L
#513495
17
#513672
15
#514453
18
#520000
0!
1'
#521026
0.
#521264
00
#530000
1!
0'
#531026
1.
#531264
10
#540000
0!
1'
#541026
0.
#541264
00
#550000
b10101 "
1!
0'
#550864
1H
#551026
1.
#551264
10
#556622
05
#557403
08
#560000
0!
1'
#561026
0.
#561264
00
#570000
1!
0'
#571026
1.
#571264
10
#573137
1M
#573495
15
#574276
18
#580000
0!
1'
#581026
0.
#581264
00
#590000
1!
0'
#591026
1.
#591264
10
#600000
b10111 "
b10110 "
0!
1'
#600834
1G
#600864
0H
#601026
0.
#601264
00
#605873
14
#606163
05
#606944
08
#610000
1!
0'
#611026
1.
#611264
10
#613137
0M
1L
#613672
15
#614453
18
#620000
0!
1'
#621026
0.
#621264
00
#630000
1!
0'
#631026
1.
#631264
10
#640000
0!
1'
#641026
0.
#641264
00
#650000
b10111 "
1!
0'
#650864
1H
#651026
1.
#651264
10
#656622
05
#657403
08
#660000
0!
1'
#661026
0.
#661264
00
#670000
1!
0'
#671026
1.
#671264
10
#673137
1M
#673495
15
#674276
18
#680000
0!
1'
#681026
0.
#681264
00
#690000
1!
0'
#691026
1.
#691264
10
#700000
b11111 "
b11011 "
b11001 "
b11000 "
0!
1'
#700834
0F
0G
#700854
1E
#700864
0H
#701026
0.
#701264
00
#705873
04
#706163
05
#706259
16
#706551
07
#706944
08
#710000
1!
0'
#711026
1.
#711264
10
#713137
0K
0M
0L
1J
#713672
15
#713673
17
#714153
18
#720000
0!
1'
#721026
0.
#721264
00
#730000
1!
0'
#731026
1.
#731264
10
#740000
0!
1'
#741026
0.
#741264
00
#750000
b11001 "
1!
0'
#750864
1H
#751026
1.
#751264
10
#756622
05
#757403
08
#760000
0!
1'
#761026
0.
#761264
00
#770000
1!
0'
#771026
1.
#771264
10
#773137
1M
#773495
15
#774276
18
#780000
0!
1'
#781026
0.
#781264
00
#790000
1!
0'
#791026
1.
#791264
10
#800000
b11011 "
b11010 "
0!
1'
#800834
1G
#800864
0H
#801026
0.
#801264
00
#805873
14
#806163
05
#806944
08
#810000
1!
0'
#811026
1.
#811264
10
#813137
0M
1L
#813672
15
#814453
18
#820000
0!
1'
#821026
0.
#821264
00
#830000
1!
0'
#831026
1.
#831264
10
#840000
0!
1'
#841026
0.
#841264
00
#850000
b11011 "
1!
0'
#850864
1H
#851026
1.
#851264
10
#856622
05
#857403
08
#860000
0!
1'
#861026
0.
#861264
00
#870000
1!
0'
#871026
1.
#871264
10
#873137
1M
#873495
15
#874276
18
#880000
0!
1'
#881026
0.
#881264
00
#890000
1!
0'
#891026
1.
#891264
10
#900000
b11111 "
b11101 "
b11100 "
0!
1'
#900834
1F
0G
#900864
0H
#901026
0.
#901264
00
#905873
04
#906163
05
#906551
07
#906944
08
#910000
1!
0'
#911026
1.
#911264
10
#913137
1K
0M
0L
#913495
17
#913672
15
#914453
18
#920000
0!
1'
#921026
0.
#921264
00
#930000
1!
0'
#931026
1.
#931264
10
#940000
0!
1'
#941026
0.
#941264
00
#950000
b11101 "
1!
0'
#950864
1H
#951026
1.
#951264
10
#956622
05
#957403
08
#960000
0!
1'
#961026
0.
#961264
00
#970000
1!
0'
#971026
1.
#971264
10
#973137
1M
#973495
15
#974276
18
#980000
0!
1'
#981026
0.
#981264
00
#990000
1!
0'
#991026
1.
