Lab5/simulation/qsim/g07_lab5.msim.vcd
$comment
	File created using the following command:
		vcd file g07_lab5.msim.vcd -direction
$end
$date
	Wed Dec 06 21:18:02 2017
$end
$version
	ModelSim Version 10.1d
$end
$timescale
	1ps
$end
$scope module g07_computer_FSM_vlg_vec_tst $end
$var reg 1 ! clk $end
$var reg 6 " dealer_sum [5:0] $end
$var reg 1 # dealer_turn $end
$var reg 6 $ new_card [5:0] $end
$var reg 1 % reset_all $end
$var wire 1 & add_card_to_hand $end
$var wire 1 ' dealer_done $end
$var wire 1 ( request_card $end
$var wire 1 ) sampler $end
$scope module i1 $end
$var wire 1 * gnd $end
$var wire 1 + vcc $end
$var wire 1 , unknown $end
$var tri1 1 - devclrn $end
$var tri1 1 . devpor $end
$var tri1 1 / devoe $end
$var wire 1 0 Selector5~3_combout $end
$var wire 1 1 Selector5~9_combout $end
$var wire 1 2 Selector5~10_combout $end
$var wire 1 3 old_sum_last[4]~feeder_combout $end
$var wire 1 4 last_card[4]~feeder_combout $end
$var wire 1 5 clk~combout $end
$var wire 1 6 clk~clkctrl_outclk $end
$var wire 1 7 reset_all~combout $end
$var wire 1 8 reset_all~clkctrl_outclk $end
$var wire 1 9 state.DRAW~regout $end
$var wire 1 : Selector5~5_combout $end
$var wire 1 ; Selector5~6_combout $end
$var wire 1 < Selector5~7_combout $end
$var wire 1 = Selector5~8_combout $end
$var wire 1 > last_card[0]~feeder_combout $end
$var wire 1 ? Selector5~1_combout $end
$var wire 1 @ LessThan0~0_combout $end
$var wire 1 A dealer_turn~combout $end
$var wire 1 B Selector0~0_combout $end
$var wire 1 C state.WAIT_TURN~regout $end
$var wire 1 D Selector4~0_combout $end
$var wire 1 E Selector4~1_combout $end
$var wire 1 F state.LOAD_CARD~regout $end
$var wire 1 G Selector5~0_combout $end
$var wire 1 H last_card[2]~feeder_combout $end
$var wire 1 I Selector5~2_combout $end
$var wire 1 J Selector5~4_combout $end
$var wire 1 K Selector5~11_combout $end
$var wire 1 L vec_changed~regout $end
$var wire 1 M state.DRAW~0_combout $end
$var wire 1 N Selector1~1_combout $end
$var wire 1 O Selector1~2_combout $end
$var wire 1 P state.CP_TURN~regout $end
$var wire 1 Q old_sum_int[4]~feeder_combout $end
$var wire 1 R Selector3~0_combout $end
$var wire 1 S state.END_TURN~regout $end
$var wire 1 T dealer_sum~combout [5] $end
$var wire 1 U dealer_sum~combout [4] $end
$var wire 1 V dealer_sum~combout [3] $end
$var wire 1 W dealer_sum~combout [2] $end
$var wire 1 X dealer_sum~combout [1] $end
$var wire 1 Y dealer_sum~combout [0] $end
$var wire 1 Z new_card~combout [5] $end
$var wire 1 [ new_card~combout [4] $end
$var wire 1 \ new_card~combout [3] $end
$var wire 1 ] new_card~combout [2] $end
$var wire 1 ^ new_card~combout [1] $end
$var wire 1 _ new_card~combout [0] $end
$var wire 1 ` old_sum_last [5] $end
$var wire 1 a old_sum_last [4] $end
$var wire 1 b old_sum_last [3] $end
$var wire 1 c old_sum_last [2] $end
$var wire 1 d old_sum_last [1] $end
$var wire 1 e old_sum_last [0] $end
$var wire 1 f old_sum_int [4] $end
$var wire 1 g old_sum_int [3] $end
$var wire 1 h old_sum_int [2] $end
$var wire 1 i old_sum_int [1] $end
$var wire 1 j old_sum_int [0] $end
$var wire 1 k last_card [5] $end
$var wire 1 l last_card [4] $end
$var wire 1 m last_card [3] $end
$var wire 1 n last_card [2] $end
$var wire 1 o last_card [1] $end
$var wire 1 p last_card [0] $end
$upscope $end
$upscope $end
$enddefinitions $end
#0
$dumpvars
0!
b1010 "
0#
b1010 $
0%
x&
x'
x(
x)
0*
1+
x,
1-
1.
1/
x0
x1
x2
x3
x4
05
x6
07
x8
x9
x:
x;
x<
x=
x>
x?
x@
0A
xB
xC
xD
xE
xF
xG
xH
xI
xJ
xK
0L
xM
xN
xO
xP
xQ
xR
xS
0Y
1X
0W
1V
0U
0T
0_
1^
0]
1\
0[
0Z
xe
xd
xc
xb
xa
x`
0j
0i
0h
0g
0f
0p
0o
0n
0m
0l
0k
$end
#238
06
08
#243
0c
0b
0e
0d
0`
0a
09
0C
0F
0P
0S
#833
1@
#913
0R
#933
0G
#980
0D
#1060
0:
#1061
0<
#1143
0M
#1373
02
#1525
0=
#1529
0;
#1549
0J
#1675
0E
#2269
0K
#4250
0&
#4273
0'
#4281
0(
#5406
0H
#5417
0Q
#5421
03
#5673
0>
#5692
04
#5706
0B
#5810
1?
#6030
1I
#6037
01
#6057
00
#6093
1N
#6566
0O
#10000
1!
0)
#11026
15
#11264
16
#13142
1i
1b
1d
1g
#13143
1m
1o
#13500
0@
#13501
0?
0I
#20000
0!
1)
#21026
05
#21264
06
#30000
1!
0)
#31026
15
#31264
16
#40000
1#
0!
1)
#40873
1A
#41026
05
#41264
06
#46579
1B
#46966
0N
#47439
1O
#50000
1!
0)
#51026
15
#51264
16
#53143
1C
1P
#53842
1N
#54315
0O
#54555
1E
#60000
0!
1)
#61026
05
#61264
06
#70000
1!
0)
#71026
15
#71264
16
#73143
1F
0P
#73833
1G
#73880
1D
#77181
1(
#80000
0!
1)
#81026
05
#81264
06
#90000
1!
0)
#91026
15
#91264
16
#100000
0!
1)
#101026
05
#101264
06
#110000
0#
1!
0)
#110873
0A
#111026
15
#111264
16
#120000
0!
1)
#121026
05
#121264
06
#130000
b10 $
b110 $
b100 $
b101 $
1!
0)
#130833
0^
#130843
0\
1]
1_
#131026
15
#131264
16
#136249
1H
#136516
1>
#136643
1?
#136873
1I
#137469
1J
#138189
1K
#140000
0!
1)
#141026
05
#141264
06
#150000
1%
1!
0)
#151026
15
17
#151264
18
16
#153112
0b
0d
#153113
0C
0F
#153142
1L
#153143
0m
0o
1p
1n
#153471
0B
#153671
0?
#153678
0I
#153803
0G
#153850
0D
#154265
12
#154497
0J
#154545
0E
#157151
0(
#160000
0!
1)
#161026
05
#161264
06
#170000
1!
0)
#171026
15
#171264
16
#180000
0!
1)
#181026
05
#181264
06
#190000
1#
1!
0)
#190873
1A
#191026
15
#191264
16
#196579
1B
#196966
0N
#197439
1O
#200000
b11010 "
b10010 "
b10000 "
0!
1)
#200833
0V
0X
#200863
1U
#201026
05
#201264
06
#206280
1Q
#206284
13
#206670
11
#210000
0%
1!
0)
#211026
15
07
#211264
08
16
#220000
0!
1)
#221026
05
#221264
06
#230000
1!
0)
#231026
15
#231264
16
#233142
0i
1a
0g
1f
#233143
1C
1P
#233669
01
#233674
1@
#233842
1N
#234315
0O
#234537
1E
#240000
0!
1)
#241026
05
#241264
06
#250000
1!
0)
#251026
15
#251264
16
#253143
1F
0P
#253833
1G
#253880
1M
#254018
02
#254555
0E
#254876
0K
#257181
1(
#260000
0#
0!
1)
#260873
0A
#261026
05
#261264
06
#270000
b111 $
b110 $
1!
0)
#270833
1^
#270843
0_
#271026
15
#271264
16
#273142
0L
#273143
19
0F
#273833
0G
#274017
0N
#276516
0>
#276643
1?
#277150
1&
#277181
0(
#280000
0!
1)
#281026
05
#281264
06
#290000
1!
0)
#291026
15
#291264
16
#293143
1o
0p
#293671
0?
#300000
0!
1)
#301026
05
#301264
06
#310000
b10100 "
b10101 "
b10111 "
1!
0)
#310833
1W
1X
1Y
#311026
15
#311264
16
#316620
1;
#316622
1:
#316836
1<
#317300
1=
#317435
1K
#320000
0!
1)
#321026
05
#321264
06
#330000
1!
0)
#331026
15
#331264
16
#333142
1i
1c
1e
1d
1h
1j
1L
#333500
0:
0<
0@
#333964
0=
#333969
0;
#334018
0M
#334653
1O
#334784
0K
#340000
0!
1)
#341026
05
#341264
06
#350000
1!
0)
#351026
15
#351264
16
#353142
0L
#353143
09
1P
#354017
1N
#354490
0O
#354552
1R
#357150
0&
#360000
0!
1)
#361026
05
#361264
06
#370000
1!
0)
#371026
15
#371264
16
#373143
0P
1S
#374205
0B
#374552
0R
#377173
1'
#380000
0!
1)
#381026
05
#381264
06
#390000
1!
0)
#391026
15
#391264
16
#393143
0C
0S
#397173
0'
#400000
0!
1)
#401026
05
#401264
06
#410000
1!
0)
#411026
15
#411264
16
#420000
0!
1)
#421026
05
#421264
06
#430000
1!
0)
#431026
15
#431264
16
#440000
0!
1)
#441026
05
#441264
06
#450000
1!
0)
#451026
15
#451264
16
#460000
0!
1)
#461026
05
#461264
06
#470000
1!
0)
#471026
15
#471264
16
#480000
0!
1)
#481026
05
#481264
06
#490000
1!
0)
#491026
15
#491264
16
#500000
0!
1)
#501026
05
#501264
06
#510000
b111 "
b1111 "
b1011 "
b1010 "
1!
0)
#510833
1V
0W
0Y
#510863
0U
#511026
15
#511264
16
#516280
0Q
#516284
03
#516670
11
#520000
0!
1)
#521026
05
#521264
06
#530000
1!
0)
#531026
15
#531264
16
#533142
0c
1b
0e
0h
0a
0j
1g
0f
#533669
01
#540000
0!
1)
#541026
05
#541264
06
#550000
1!
0)
#551026
15
#551264
16
#560000
0!
1)
#561026
05
#561264
06
#570000
1!
0)
#571026
15
#571264
16
#580000
0!
1)
#581026
05
#581264
06
#590000
1!
0)
#591026
15
#591264
16
#600000
b1110 $
b1100 $
b1101 $
0!
1)
#600833
0^
#600843
1\
1_
#601026
05
#601264
06
#606516
1>
#606643
1?
#606873
1I
#610000
1!
0)
#611026
15
#611264
16
#613143
1m
0o
1p
#613501
0I
#613671
0?
#620000
0!
1)
#621026
05
#621264
06
#630000
1!
0)
#631026
15
#631264
16
#640000
0!
1)
#641026
05
#641264
06
#650000
1!
0)
#651026
15
#651264
16
#660000
0!
1)
#661026
05
#661264
06
#670000
1!
0)
#671026
15
#671264
16
#680000
0!
1)
#681026
05
#681264
06
#690000
1!
0)
#691026
15
#691264
16
#700000
0!
1)
#701026
05
#701264
06
#710000
1!
0)
#711026
15
#711264
16
#720000
0!
1)
#721026
05
#721264
06
#730000
1!
0)
#731026
15
#731264
16
#740000
0!
1)
#741026
05
#741264
06
#750000
1!
0)
#751026
15
#751264
16
#760000
0!
1)
#761026
05
#761264
06
#770000
1!
0)
#771026
15
#771264
16
#780000
0!
1)
#781026
05
#781264
06
#790000
1!
0)
#791026
15
#791264
16
#800000
b1111 $
b1110 $
0!
1)
#800833
1^
#800843
0_
#801026
05
#801264
06
#806516
0>
#806643
1?
#810000
1!
0)
#811026
15
#811264
16
#813143
1o
0p
#813671
0?
#820000
0!
1)
#821026
05
#821264
06
#830000
1!
0)
#831026
15
#831264
16
#840000
0!
1)
#841026
05
#841264
06
#850000
1!
0)
#851026
15
#851264
16
#860000
0!
1)
#861026
05
#861264
06
#870000
1!
0)
#871026
15
#871264
16
#880000
0!
1)
#881026
05
#881264
06
#890000
1!
0)
#891026
15
#891264
16
#900000
0!
1)
#901026
05
#901264
06
#910000
1!
0)
#911026
15
#911264
16
#920000
0!
1)
#921026
05
#921264
06
#930000
1!
0)
#931026
15
#931264
16
#940000
0!
1)
#941026
05
#941264
06
#950000
1!
0)
#951026
15
#951264
16
#960000
0!
1)
#961026
05
#961264
06
#970000
1!
0)
#971026
15
#971264
16
#980000
0!
1)
#981026
05
#981264
06
#990000
1!
0)
#991026
15
