Lab2/simulation/qsim/g07_lab2.msim.vcd
$comment
	File created using the following command:
		vcd file g07_lab2.msim.vcd -direction
$end
$date
	Fri Oct 06 14:58:56 2017
$end
$version
	ModelSim Version 10.1d
$end
$timescale
	1ps
$end
$scope module g07_lab2_vlg_vec_tst $end
$var reg 1 ! clock $end
$var reg 4 " code [3:0] $end
$var reg 1 # mode $end
$var reg 6 $ N [5:0] $end
$var wire 1 % P_EN [51] $end
$var wire 1 & P_EN [50] $end
$var wire 1 ' P_EN [49] $end
$var wire 1 ( P_EN [48] $end
$var wire 1 ) P_EN [47] $end
$var wire 1 * P_EN [46] $end
$var wire 1 + P_EN [45] $end
$var wire 1 , P_EN [44] $end
$var wire 1 - P_EN [43] $end
$var wire 1 . P_EN [42] $end
$var wire 1 / P_EN [41] $end
$var wire 1 0 P_EN [40] $end
$var wire 1 1 P_EN [39] $end
$var wire 1 2 P_EN [38] $end
$var wire 1 3 P_EN [37] $end
$var wire 1 4 P_EN [36] $end
$var wire 1 5 P_EN [35] $end
$var wire 1 6 P_EN [34] $end
$var wire 1 7 P_EN [33] $end
$var wire 1 8 P_EN [32] $end
$var wire 1 9 P_EN [31] $end
$var wire 1 : P_EN [30] $end
$var wire 1 ; P_EN [29] $end
$var wire 1 < P_EN [28] $end
$var wire 1 = P_EN [27] $end
$var wire 1 > P_EN [26] $end
$var wire 1 ? P_EN [25] $end
$var wire 1 @ P_EN [24] $end
$var wire 1 A P_EN [23] $end
$var wire 1 B P_EN [22] $end
$var wire 1 C P_EN [21] $end
$var wire 1 D P_EN [20] $end
$var wire 1 E P_EN [19] $end
$var wire 1 F P_EN [18] $end
$var wire 1 G P_EN [17] $end
$var wire 1 H P_EN [16] $end
$var wire 1 I P_EN [15] $end
$var wire 1 J P_EN [14] $end
$var wire 1 K P_EN [13] $end
$var wire 1 L P_EN [12] $end
$var wire 1 M P_EN [11] $end
$var wire 1 N P_EN [10] $end
$var wire 1 O P_EN [9] $end
$var wire 1 P P_EN [8] $end
$var wire 1 Q P_EN [7] $end
$var wire 1 R P_EN [6] $end
$var wire 1 S P_EN [5] $end
$var wire 1 T P_EN [4] $end
$var wire 1 U P_EN [3] $end
$var wire 1 V P_EN [2] $end
$var wire 1 W P_EN [1] $end
$var wire 1 X P_EN [0] $end
$var wire 1 Y segment [6] $end
$var wire 1 Z segment [5] $end
$var wire 1 [ segment [4] $end
$var wire 1 \ segment [3] $end
$var wire 1 ] segment [2] $end
$var wire 1 ^ segment [1] $end
$var wire 1 _ segment [0] $end
$var wire 1 ` sampler $end
$scope module i1 $end
$var wire 1 a gnd $end
$var wire 1 b vcc $end
$var wire 1 c unknown $end
$var tri1 1 d devclrn $end
$var tri1 1 e devpor $end
$var tri1 1 f devoe $end
$var wire 1 g clock~combout $end
$var wire 1 h clock~clkctrl_outclk $end
$var wire 1 i mode~combout $end
$var wire 1 j inst|Mux0~0_combout $end
$var wire 1 k inst|Mux0~1_combout $end
$var wire 1 l inst|Mux0~2_combout $end
$var wire 1 m inst|Mux1~0_combout $end
$var wire 1 n inst|Mux1~1_combout $end
$var wire 1 o inst|Mux2~1_combout $end
$var wire 1 p inst|Mux2~0_combout $end
$var wire 1 q inst|Mux2~2_combout $end
$var wire 1 r inst|Mux3~1_combout $end
$var wire 1 s inst|Mux3~0_combout $end
$var wire 1 t inst|Mux3~2_combout $end
$var wire 1 u inst|Mux4~0_combout $end
$var wire 1 v inst|Mux4~1_combout $end
$var wire 1 w inst|Mux5~0_combout $end
$var wire 1 x inst|Mux5~1_combout $end
$var wire 1 y inst|Mux6~1_combout $end
$var wire 1 z inst|Mux6~0_combout $end
$var wire 1 { inst|Mux6~2_combout $end
$var wire 1 | inst1|lut1|altsyncram_component|auto_generated|q_a [51] $end
$var wire 1 } inst1|lut1|altsyncram_component|auto_generated|q_a [50] $end
$var wire 1 ~ inst1|lut1|altsyncram_component|auto_generated|q_a [49] $end
$var wire 1 !! inst1|lut1|altsyncram_component|auto_generated|q_a [48] $end
$var wire 1 "! inst1|lut1|altsyncram_component|auto_generated|q_a [47] $end
$var wire 1 #! inst1|lut1|altsyncram_component|auto_generated|q_a [46] $end
$var wire 1 $! inst1|lut1|altsyncram_component|auto_generated|q_a [45] $end
$var wire 1 %! inst1|lut1|altsyncram_component|auto_generated|q_a [44] $end
$var wire 1 &! inst1|lut1|altsyncram_component|auto_generated|q_a [43] $end
$var wire 1 '! inst1|lut1|altsyncram_component|auto_generated|q_a [42] $end
$var wire 1 (! inst1|lut1|altsyncram_component|auto_generated|q_a [41] $end
$var wire 1 )! inst1|lut1|altsyncram_component|auto_generated|q_a [40] $end
$var wire 1 *! inst1|lut1|altsyncram_component|auto_generated|q_a [39] $end
$var wire 1 +! inst1|lut1|altsyncram_component|auto_generated|q_a [38] $end
$var wire 1 ,! inst1|lut1|altsyncram_component|auto_generated|q_a [37] $end
$var wire 1 -! inst1|lut1|altsyncram_component|auto_generated|q_a [36] $end
$var wire 1 .! inst1|lut1|altsyncram_component|auto_generated|q_a [35] $end
$var wire 1 /! inst1|lut1|altsyncram_component|auto_generated|q_a [34] $end
$var wire 1 0! inst1|lut1|altsyncram_component|auto_generated|q_a [33] $end
$var wire 1 1! inst1|lut1|altsyncram_component|auto_generated|q_a [32] $end
$var wire 1 2! inst1|lut1|altsyncram_component|auto_generated|q_a [31] $end
$var wire 1 3! inst1|lut1|altsyncram_component|auto_generated|q_a [30] $end
$var wire 1 4! inst1|lut1|altsyncram_component|auto_generated|q_a [29] $end
$var wire 1 5! inst1|lut1|altsyncram_component|auto_generated|q_a [28] $end
$var wire 1 6! inst1|lut1|altsyncram_component|auto_generated|q_a [27] $end
$var wire 1 7! inst1|lut1|altsyncram_component|auto_generated|q_a [26] $end
$var wire 1 8! inst1|lut1|altsyncram_component|auto_generated|q_a [25] $end
$var wire 1 9! inst1|lut1|altsyncram_component|auto_generated|q_a [24] $end
$var wire 1 :! inst1|lut1|altsyncram_component|auto_generated|q_a [23] $end
$var wire 1 ;! inst1|lut1|altsyncram_component|auto_generated|q_a [22] $end
$var wire 1 <! inst1|lut1|altsyncram_component|auto_generated|q_a [21] $end
$var wire 1 =! inst1|lut1|altsyncram_component|auto_generated|q_a [20] $end
$var wire 1 >! inst1|lut1|altsyncram_component|auto_generated|q_a [19] $end
$var wire 1 ?! inst1|lut1|altsyncram_component|auto_generated|q_a [18] $end
$var wire 1 @! inst1|lut1|altsyncram_component|auto_generated|q_a [17] $end
$var wire 1 A! inst1|lut1|altsyncram_component|auto_generated|q_a [16] $end
$var wire 1 B! inst1|lut1|altsyncram_component|auto_generated|q_a [15] $end
$var wire 1 C! inst1|lut1|altsyncram_component|auto_generated|q_a [14] $end
$var wire 1 D! inst1|lut1|altsyncram_component|auto_generated|q_a [13] $end
$var wire 1 E! inst1|lut1|altsyncram_component|auto_generated|q_a [12] $end
$var wire 1 F! inst1|lut1|altsyncram_component|auto_generated|q_a [11] $end
$var wire 1 G! inst1|lut1|altsyncram_component|auto_generated|q_a [10] $end
$var wire 1 H! inst1|lut1|altsyncram_component|auto_generated|q_a [9] $end
$var wire 1 I! inst1|lut1|altsyncram_component|auto_generated|q_a [8] $end
$var wire 1 J! inst1|lut1|altsyncram_component|auto_generated|q_a [7] $end
$var wire 1 K! inst1|lut1|altsyncram_component|auto_generated|q_a [6] $end
$var wire 1 L! inst1|lut1|altsyncram_component|auto_generated|q_a [5] $end
$var wire 1 M! inst1|lut1|altsyncram_component|auto_generated|q_a [4] $end
$var wire 1 N! inst1|lut1|altsyncram_component|auto_generated|q_a [3] $end
$var wire 1 O! inst1|lut1|altsyncram_component|auto_generated|q_a [2] $end
$var wire 1 P! inst1|lut1|altsyncram_component|auto_generated|q_a [1] $end
$var wire 1 Q! inst1|lut1|altsyncram_component|auto_generated|q_a [0] $end
$var wire 1 R! N~combout [5] $end
$var wire 1 S! N~combout [4] $end
$var wire 1 T! N~combout [3] $end
$var wire 1 U! N~combout [2] $end
$var wire 1 V! N~combout [1] $end
$var wire 1 W! N~combout [0] $end
$var wire 1 X! code~combout [3] $end
$var wire 1 Y! code~combout [2] $end
$var wire 1 Z! code~combout [1] $end
$var wire 1 [! code~combout [0] $end
$var wire 1 \! inst1|lut1|altsyncram_component|auto_generated|ram_block1a16_PORTADATAOUT_bus [35] $end
$var wire 1 ]! inst1|lut1|altsyncram_component|auto_generated|ram_block1a16_PORTADATAOUT_bus [34] $end
$var wire 1 ^! inst1|lut1|altsyncram_component|auto_generated|ram_block1a16_PORTADATAOUT_bus [33] $end
$var wire 1 _! inst1|lut1|altsyncram_component|auto_generated|ram_block1a16_PORTADATAOUT_bus [32] $end
$var wire 1 `! inst1|lut1|altsyncram_component|auto_generated|ram_block1a16_PORTADATAOUT_bus [31] $end
$var wire 1 a! inst1|lut1|altsyncram_component|auto_generated|ram_block1a16_PORTADATAOUT_bus [30] $end
$var wire 1 b! inst1|lut1|altsyncram_component|auto_generated|ram_block1a16_PORTADATAOUT_bus [29] $end
$var wire 1 c! inst1|lut1|altsyncram_component|auto_generated|ram_block1a16_PORTADATAOUT_bus [28] $end
$var wire 1 d! inst1|lut1|altsyncram_component|auto_generated|ram_block1a16_PORTADATAOUT_bus [27] $end
$var wire 1 e! inst1|lut1|altsyncram_component|auto_generated|ram_block1a16_PORTADATAOUT_bus [26] $end
$var wire 1 f! inst1|lut1|altsyncram_component|auto_generated|ram_block1a16_PORTADATAOUT_bus [25] $end
$var wire 1 g! inst1|lut1|altsyncram_component|auto_generated|ram_block1a16_PORTADATAOUT_bus [24] $end
$var wire 1 h! inst1|lut1|altsyncram_component|auto_generated|ram_block1a16_PORTADATAOUT_bus [23] $end
$var wire 1 i! inst1|lut1|altsyncram_component|auto_generated|ram_block1a16_PORTADATAOUT_bus [22] $end
$var wire 1 j! inst1|lut1|altsyncram_component|auto_generated|ram_block1a16_PORTADATAOUT_bus [21] $end
$var wire 1 k! inst1|lut1|altsyncram_component|auto_generated|ram_block1a16_PORTADATAOUT_bus [20] $end
$var wire 1 l! inst1|lut1|altsyncram_component|auto_generated|ram_block1a16_PORTADATAOUT_bus [19] $end
$var wire 1 m! inst1|lut1|altsyncram_component|auto_generated|ram_block1a16_PORTADATAOUT_bus [18] $end
$var wire 1 n! inst1|lut1|altsyncram_component|auto_generated|ram_block1a16_PORTADATAOUT_bus [17] $end
$var wire 1 o! inst1|lut1|altsyncram_component|auto_generated|ram_block1a16_PORTADATAOUT_bus [16] $end
$var wire 1 p! inst1|lut1|altsyncram_component|auto_generated|ram_block1a16_PORTADATAOUT_bus [15] $end
$var wire 1 q! inst1|lut1|altsyncram_component|auto_generated|ram_block1a16_PORTADATAOUT_bus [14] $end
$var wire 1 r! inst1|lut1|altsyncram_component|auto_generated|ram_block1a16_PORTADATAOUT_bus [13] $end
$var wire 1 s! inst1|lut1|altsyncram_component|auto_generated|ram_block1a16_PORTADATAOUT_bus [12] $end
$var wire 1 t! inst1|lut1|altsyncram_component|auto_generated|ram_block1a16_PORTADATAOUT_bus [11] $end
$var wire 1 u! inst1|lut1|altsyncram_component|auto_generated|ram_block1a16_PORTADATAOUT_bus [10] $end
$var wire 1 v! inst1|lut1|altsyncram_component|auto_generated|ram_block1a16_PORTADATAOUT_bus [9] $end
$var wire 1 w! inst1|lut1|altsyncram_component|auto_generated|ram_block1a16_PORTADATAOUT_bus [8] $end
$var wire 1 x! inst1|lut1|altsyncram_component|auto_generated|ram_block1a16_PORTADATAOUT_bus [7] $end
$var wire 1 y! inst1|lut1|altsyncram_component|auto_generated|ram_block1a16_PORTADATAOUT_bus [6] $end
$var wire 1 z! inst1|lut1|altsyncram_component|auto_generated|ram_block1a16_PORTADATAOUT_bus [5] $end
$var wire 1 {! inst1|lut1|altsyncram_component|auto_generated|ram_block1a16_PORTADATAOUT_bus [4] $end
$var wire 1 |! inst1|lut1|altsyncram_component|auto_generated|ram_block1a16_PORTADATAOUT_bus [3] $end
$var wire 1 }! inst1|lut1|altsyncram_component|auto_generated|ram_block1a16_PORTADATAOUT_bus [2] $end
$var wire 1 ~! inst1|lut1|altsyncram_component|auto_generated|ram_block1a16_PORTADATAOUT_bus [1] $end
$var wire 1 !" inst1|lut1|altsyncram_component|auto_generated|ram_block1a16_PORTADATAOUT_bus [0] $end
$var wire 1 "" inst1|lut1|altsyncram_component|auto_generated|ram_block1a0_PORTADATAOUT_bus [15] $end
$var wire 1 #" inst1|lut1|altsyncram_component|auto_generated|ram_block1a0_PORTADATAOUT_bus [14] $end
$var wire 1 $" inst1|lut1|altsyncram_component|auto_generated|ram_block1a0_PORTADATAOUT_bus [13] $end
$var wire 1 %" inst1|lut1|altsyncram_component|auto_generated|ram_block1a0_PORTADATAOUT_bus [12] $end
$var wire 1 &" inst1|lut1|altsyncram_component|auto_generated|ram_block1a0_PORTADATAOUT_bus [11] $end
$var wire 1 '" inst1|lut1|altsyncram_component|auto_generated|ram_block1a0_PORTADATAOUT_bus [10] $end
$var wire 1 (" inst1|lut1|altsyncram_component|auto_generated|ram_block1a0_PORTADATAOUT_bus [9] $end
$var wire 1 )" inst1|lut1|altsyncram_component|auto_generated|ram_block1a0_PORTADATAOUT_bus [8] $end
$var wire 1 *" inst1|lut1|altsyncram_component|auto_generated|ram_block1a0_PORTADATAOUT_bus [7] $end
$var wire 1 +" inst1|lut1|altsyncram_component|auto_generated|ram_block1a0_PORTADATAOUT_bus [6] $end
$var wire 1 ," inst1|lut1|altsyncram_component|auto_generated|ram_block1a0_PORTADATAOUT_bus [5] $end
$var wire 1 -" inst1|lut1|altsyncram_component|auto_generated|ram_block1a0_PORTADATAOUT_bus [4] $end
$var wire 1 ." inst1|lut1|altsyncram_component|auto_generated|ram_block1a0_PORTADATAOUT_bus [3] $end
$var wire 1 /" inst1|lut1|altsyncram_component|auto_generated|ram_block1a0_PORTADATAOUT_bus [2] $end
$var wire 1 0" inst1|lut1|altsyncram_component|auto_generated|ram_block1a0_PORTADATAOUT_bus [1] $end
$var wire 1 1" inst1|lut1|altsyncram_component|auto_generated|ram_block1a0_PORTADATAOUT_bus [0] $end
$upscope $end
$upscope $end
$enddefinitions $end
#0
$dumpvars
0!
bx "
x#
b0 $
0X
0W
0V
0U
0T
0S
0R
0Q
0P
0O
0N
0M
0L
0K
0J
0I
0H
0G
0F
0E
0D
0C
0B
0A
0@
0?
0>
0=
0<
0;
0:
09
08
07
06
05
04
03
02
01
00
0/
0.
0-
0,
0+
0*
0)
0(
0'
0&
0%
x_
x^
x]
x\
x[
xZ
xY
x`
0a
1b
xc
1d
1e
1f
0g
0h
xi
xj
xk
xl
xm
xn
xo
xp
xq
xr
xs
xt
xu
xv
xw
xx
xy
xz
x{
0Q!
0P!
0O!
0N!
0M!
0L!
0K!
0J!
0I!
0H!
0G!
0F!
0E!
0D!
0C!
0B!
0A!
0@!
0?!
0>!
0=!
0<!
0;!
0:!
09!
08!
07!
06!
05!
04!
03!
02!
01!
00!
0/!
0.!
0-!
0,!
0+!
0*!
0)!
0(!
0'!
0&!
0%!
0$!
0#!
0"!
0!!
0~
0}
0|
0W!
0V!
0U!
0T!
0S!
0R!
x[!
xZ!
xY!
xX!
0!"
0~!
0}!
0|!
0{!
0z!
0y!
0x!
0w!
0v!
0u!
0t!
0s!
0r!
0q!
0p!
0o!
0n!
0m!
0l!
0k!
0j!
0i!
0h!
0g!
0f!
0e!
0d!
0c!
0b!
0a!
0`!
0_!
0^!
0]!
0\!
01"
00"
0/"
0."
0-"
0,"
0+"
0*"
0)"
0("
0'"
0&"
0%"
0$"
0#"
0""
$end
#1000
1!
1g
1h
0`
#1001
11"
10"
1/"
1."
1-"
1,"
1+"
1*"
1)"
1("
1'"
1&"
1%"
1$"
1#"
1""
1!"
1~!
1}!
1|!
1{!
1z!
1y!
1x!
1w!
1v!
1u!
1t!
1s!
1r!
1q!
1p!
1o!
1n!
1m!
1l!
1k!
1j!
1i!
1h!
1g!
1f!
1e!
1d!
1c!
1b!
1a!
1`!
1_!
1^!
1]!
1\!
1Q!
1P!
1O!
1N!
1M!
1L!
1K!
1J!
1I!
1H!
1G!
1F!
1E!
1D!
1C!
1B!
1A!
1@!
1?!
1>!
1=!
1<!
1;!
1:!
19!
18!
17!
16!
15!
14!
13!
12!
11!
10!
1/!
1.!
1-!
1,!
1+!
1*!
1)!
1(!
1'!
1&!
1%!
1$!
1#!
1"!
1!!
1~
1}
1|
1X
1W
1V
1U
1T
1S
1R
1Q
1P
1O
1N
1M
1L
1K
1J
1I
1H
1G
1F
1E
1D
1C
1B
1A
1@
1?
1>
1=
1<
1;
1:
19
18
17
16
15
14
13
12
11
10
1/
1.
1-
1,
1+
1*
1)
1(
1'
1&
1%
#2000
0!
0g
0h
1`
#3000
1!
1g
1h
0`
#4000
0!
0g
0h
1`
#5000
1!
1g
1h
0`
#6000
0!
0g
0h
1`
#7000
1!
1g
1h
0`
#8000
0!
0g
0h
1`
#9000
1!
1g
1h
0`
#10000
b1 $
0!
1W!
0g
0h
1`
#11000
1!
1g
1h
0`
#11001
01"
0Q!
0X
#12000
0!
0g
0h
1`
#13000
1!
1g
1h
0`
#14000
0!
0g
0h
1`
#15000
1!
1g
1h
0`
#16000
0!
0g
0h
1`
#17000
1!
1g
1h
0`
#18000
0!
0g
0h
1`
#19000
1!
1g
1h
0`
#20000
b11 $
b10 $
0!
0W!
1V!
0g
0h
1`
#21000
1!
1g
1h
0`
#21001
00"
0P!
0W
#22000
0!
0g
0h
1`
#23000
1!
1g
1h
0`
#24000
0!
0g
0h
1`
#25000
1!
1g
1h
0`
#26000
0!
0g
0h
1`
#27000
1!
1g
1h
0`
#28000
0!
0g
0h
1`
#29000
1!
1g
1h
0`
#30000
b11 $
0!
1W!
0g
0h
1`
#31000
1!
1g
1h
0`
#31001
0/"
0O!
0V
#32000
0!
0g
0h
1`
#33000
1!
1g
1h
0`
#34000
0!
0g
0h
1`
#35000
1!
1g
1h
0`
#36000
0!
0g
0h
1`
#37000
1!
1g
1h
0`
#38000
0!
0g
0h
1`
#39000
1!
1g
1h
0`
#40000
b111 $
b101 $
b100 $
0!
0W!
0V!
1U!
0g
0h
1`
#41000
1!
1g
1h
0`
#41001
0."
0N!
0U
#42000
0!
0g
0h
1`
#43000
1!
1g
1h
0`
#44000
0!
0g
0h
1`
#45000
1!
1g
1h
0`
#46000
0!
0g
0h
1`
#47000
1!
1g
1h
0`
#48000
0!
0g
0h
1`
#49000
1!
1g
1h
0`
#50000
b101 $
0!
1W!
0g
0h
1`
#51000
1!
1g
1h
0`
#51001
0-"
0M!
0T
#52000
0!
0g
0h
1`
#53000
1!
1g
1h
0`
#54000
0!
0g
0h
1`
#55000
1!
1g
1h
0`
#56000
0!
0g
0h
1`
#57000
1!
1g
1h
0`
#58000
0!
0g
0h
1`
#59000
1!
1g
1h
0`
#60000
b111 $
b110 $
0!
0W!
1V!
0g
0h
1`
#61000
1!
1g
1h
0`
#61001
0,"
0L!
0S
#62000
0!
0g
0h
1`
#63000
1!
1g
1h
0`
#64000
0!
0g
0h
1`
#65000
1!
1g
1h
0`
#66000
0!
0g
0h
1`
#67000
1!
1g
1h
0`
#68000
0!
0g
0h
1`
#69000
1!
1g
1h
0`
#70000
b111 $
0!
1W!
0g
0h
1`
#71000
1!
1g
1h
0`
#71001
0+"
0K!
0R
#72000
0!
0g
0h
1`
#73000
1!
1g
1h
0`
#74000
0!
0g
0h
1`
#75000
1!
1g
1h
0`
#76000
0!
0g
0h
1`
#77000
1!
1g
1h
0`
#78000
0!
0g
0h
1`
#79000
1!
1g
1h
0`
#80000
b1111 $
b1011 $
b1001 $
b1000 $
0!
0W!
0V!
0U!
1T!
0g
0h
1`
#81000
1!
1g
1h
0`
#81001
0*"
0J!
0Q
#82000
0!
0g
0h
1`
#83000
1!
1g
1h
0`
#84000
0!
0g
0h
1`
#85000
1!
1g
1h
0`
#86000
0!
0g
0h
1`
#87000
1!
1g
1h
0`
#88000
0!
0g
0h
1`
#89000
1!
1g
1h
0`
#90000
b1001 $
0!
1W!
0g
0h
1`
#91000
1!
1g
1h
0`
#91001
0)"
0I!
0P
#92000
0!
0g
0h
1`
#93000
1!
1g
1h
0`
#94000
0!
0g
0h
1`
#95000
1!
1g
1h
0`
#96000
0!
0g
0h
1`
#97000
1!
1g
1h
0`
#98000
0!
0g
0h
1`
#99000
1!
1g
1h
0`
#100000
b1011 $
b1010 $
0!
0W!
1V!
0g
0h
1`
#101000
1!
1g
1h
0`
#101001
0("
0H!
0O
#102000
0!
0g
0h
1`
#103000
1!
1g
1h
0`
#104000
0!
0g
0h
1`
#105000
1!
1g
1h
0`
#106000
0!
0g
0h
1`
#107000
1!
1g
1h
0`
#108000
0!
0g
0h
1`
#109000
1!
1g
1h
0`
#110000
b1011 $
0!
1W!
0g
0h
1`
#111000
1!
1g
1h
0`
#111001
0'"
0G!
0N
#112000
0!
0g
0h
1`
#113000
1!
1g
1h
0`
#114000
0!
0g
0h
1`
#115000
1!
1g
1h
0`
#116000
0!
0g
0h
1`
#117000
1!
1g
1h
0`
#118000
0!
0g
0h
1`
#119000
1!
1g
1h
0`
#120000
b1111 $
b1101 $
b1100 $
0!
0W!
0V!
1U!
0g
0h
1`
#121000
1!
1g
1h
0`
#121001
0&"
0F!
0M
#122000
0!
0g
0h
1`
#123000
1!
1g
1h
0`
#124000
0!
0g
0h
1`
#125000
1!
1g
1h
0`
#126000
0!
0g
0h
1`
#127000
1!
1g
1h
0`
#128000
0!
0g
0h
1`
#129000
1!
1g
1h
0`
#130000
b1101 $
0!
1W!
0g
0h
1`
#131000
1!
1g
1h
0`
#131001
0%"
0E!
0L
#132000
0!
0g
0h
1`
#133000
1!
1g
1h
0`
#134000
0!
0g
0h
1`
#135000
1!
1g
1h
0`
#136000
0!
0g
0h
1`
#137000
1!
1g
1h
0`
#138000
0!
0g
0h
1`
#139000
1!
1g
1h
0`
#140000
b1111 $
b1110 $
0!
0W!
1V!
0g
0h
1`
#141000
1!
1g
1h
0`
#141001
0$"
0D!
0K
#142000
0!
0g
0h
1`
#143000
1!
1g
1h
0`
#144000
0!
0g
0h
1`
#145000
1!
1g
1h
0`
#146000
0!
0g
0h
1`
#147000
1!
1g
1h
0`
#148000
0!
0g
0h
1`
#149000
1!
1g
1h
0`
#150000
b1111 $
0!
1W!
0g
0h
1`
#151000
1!
1g
1h
0`
#151001
0#"
0C!
0J
#152000
0!
0g
0h
1`
#153000
1!
1g
1h
0`
#154000
0!
0g
0h
1`
#155000
1!
1g
1h
0`
#156000
0!
0g
0h
1`
#157000
1!
1g
1h
0`
#158000
0!
0g
0h
1`
#159000
1!
1g
1h
0`
#160000
b11111 $
b10111 $
b10011 $
b10001 $
b10000 $
0!
0W!
0V!
0U!
0T!
1S!
0g
0h
1`
#161000
1!
1g
1h
0`
#161001
0""
0B!
0I
#162000
0!
0g
0h
1`
#163000
1!
1g
1h
0`
#164000
0!
0g
0h
1`
#165000
1!
1g
1h
0`
#166000
0!
0g
0h
1`
#167000
1!
1g
1h
0`
#168000
0!
0g
0h
1`
#169000
1!
1g
1h
0`
#170000
b10001 $
0!
1W!
0g
0h
1`
#171000
1!
1g
1h
0`
#171001
0!"
0A!
0H
#172000
0!
0g
0h
1`
#173000
1!
1g
1h
0`
#174000
0!
0g
0h
1`
#175000
1!
1g
1h
0`
#176000
0!
0g
0h
1`
#177000
1!
1g
1h
0`
#178000
0!
0g
0h
1`
#179000
1!
1g
1h
0`
#180000
b10011 $
b10010 $
0!
0W!
1V!
0g
0h
1`
#181000
1!
1g
1h
0`
#181001
0~!
0@!
0G
#182000
0!
0g
0h
1`
#183000
1!
1g
1h
0`
#184000
0!
0g
0h
1`
#185000
1!
1g
1h
0`
#186000
0!
0g
0h
1`
#187000
1!
1g
1h
0`
#188000
0!
0g
0h
1`
#189000
1!
1g
1h
0`
#190000
b10011 $
0!
1W!
0g
0h
1`
#191000
1!
1g
1h
0`
#191001
0}!
0?!
0F
#192000
0!
0g
0h
1`
#193000
1!
1g
1h
0`
#194000
0!
0g
0h
1`
#195000
1!
1g
1h
0`
#196000
0!
0g
0h
1`
#197000
1!
1g
1h
0`
#198000
0!
0g
0h
1`
#199000
1!
1g
1h
0`
#200000
b10111 $
b10101 $
b10100 $
0!
0W!
0V!
1U!
0g
0h
1`
#201000
1!
1g
1h
0`
#201001
0|!
0>!
0E
#202000
0!
0g
0h
1`
#203000
1!
1g
1h
0`
#204000
0!
0g
0h
1`
#205000
1!
1g
1h
0`
#206000
0!
0g
0h
1`
#207000
1!
1g
1h
0`
#208000
0!
0g
0h
1`
#209000
1!
1g
1h
0`
#210000
b10101 $
0!
1W!
0g
0h
1`
#211000
1!
1g
1h
0`
#211001
0{!
0=!
0D
#212000
0!
0g
0h
1`
#213000
1!
1g
1h
0`
#214000
0!
0g
0h
1`
#215000
1!
1g
1h
0`
#216000
0!
0g
0h
1`
#217000
1!
1g
1h
0`
#218000
0!
0g
0h
1`
#219000
1!
1g
1h
0`
#220000
b10111 $
b10110 $
0!
0W!
1V!
0g
0h
1`
#221000
1!
1g
1h
0`
#221001
0z!
0<!
0C
#222000
0!
0g
0h
1`
#223000
1!
1g
1h
0`
#224000
0!
0g
0h
1`
#225000
1!
1g
1h
0`
#226000
0!
0g
0h
1`
#227000
1!
1g
1h
0`
#228000
0!
0g
0h
1`
#229000
1!
1g
1h
0`
#230000
b10111 $
0!
1W!
0g
0h
1`
#231000
1!
1g
1h
0`
#231001
0y!
0;!
0B
#232000
0!
0g
0h
1`
#233000
1!
1g
1h
0`
#234000
0!
0g
0h
1`
#235000
1!
1g
1h
0`
#236000
0!
0g
0h
1`
#237000
1!
1g
1h
0`
#238000
0!
0g
0h
1`
#239000
1!
1g
1h
0`
#240000
b11111 $
b11011 $
b11001 $
b11000 $
0!
0W!
0V!
0U!
1T!
0g
0h
1`
#241000
1!
1g
1h
0`
#241001
0x!
0:!
0A
#242000
0!
0g
0h
1`
#243000
1!
1g
1h
0`
#244000
0!
0g
0h
1`
#245000
1!
1g
1h
0`
#246000
0!
0g
0h
1`
#247000
1!
1g
1h
0`
#248000
0!
0g
0h
1`
#249000
1!
1g
1h
0`
#250000
b11001 $
0!
1W!
0g
0h
1`
#251000
1!
1g
1h
0`
#251001
0w!
09!
0@
#252000
0!
0g
0h
1`
#253000
1!
1g
1h
0`
#254000
0!
0g
0h
1`
#255000
1!
1g
1h
0`
#256000
0!
0g
0h
1`
#257000
1!
1g
1h
0`
#258000
0!
0g
0h
1`
#259000
1!
1g
1h
0`
#260000
b11011 $
b11010 $
0!
0W!
1V!
0g
0h
1`
#261000
1!
1g
1h
0`
#261001
0v!
08!
0?
#262000
0!
0g
0h
1`
#263000
1!
1g
1h
0`
#264000
0!
0g
0h
1`
#265000
1!
1g
1h
0`
#266000
0!
0g
0h
1`
#267000
1!
1g
1h
0`
#268000
0!
0g
0h
1`
#269000
1!
1g
1h
0`
#270000
b11011 $
0!
1W!
0g
0h
1`
#271000
1!
1g
1h
0`
#271001
0u!
07!
0>
#272000
0!
0g
0h
1`
#273000
1!
1g
1h
0`
#274000
0!
0g
0h
1`
#275000
1!
1g
1h
0`
#276000
0!
0g
0h
1`
#277000
1!
1g
1h
0`
#278000
0!
0g
0h
1`
#279000
1!
1g
1h
0`
#280000
b11111 $
b11101 $
b11100 $
0!
0W!
0V!
1U!
0g
0h
1`
#281000
1!
1g
1h
0`
#281001
0t!
06!
0=
#282000
0!
0g
0h
1`
#283000
1!
1g
1h
0`
#284000
0!
0g
0h
1`
#285000
1!
1g
1h
0`
#286000
0!
0g
0h
1`
#287000
1!
1g
1h
0`
#288000
0!
0g
0h
1`
#289000
1!
1g
1h
0`
#290000
b11101 $
0!
1W!
0g
0h
1`
#291000
1!
1g
1h
0`
#291001
0s!
05!
0<
#292000
0!
0g
0h
1`
#293000
1!
1g
1h
0`
#294000
0!
0g
0h
1`
#295000
1!
1g
1h
0`
#296000
0!
0g
0h
1`
#297000
1!
1g
1h
0`
#298000
0!
0g
0h
1`
#299000
1!
1g
1h
0`
#300000
b11111 $
b11110 $
0!
0W!
1V!
0g
0h
1`
#301000
1!
1g
1h
0`
#301001
0r!
04!
0;
#302000
0!
0g
0h
1`
#303000
1!
1g
1h
0`
#304000
0!
0g
0h
1`
#305000
1!
1g
1h
0`
#306000
0!
0g
0h
1`
#307000
1!
1g
1h
0`
#308000
0!
0g
0h
1`
#309000
1!
1g
1h
0`
#310000
b11111 $
0!
1W!
0g
0h
1`
#311000
1!
1g
1h
0`
#311001
0q!
03!
0:
#312000
0!
0g
0h
1`
#313000
1!
1g
1h
0`
#314000
0!
0g
0h
1`
#315000
1!
1g
1h
0`
#316000
0!
0g
0h
1`
#317000
1!
1g
1h
0`
#318000
0!
0g
0h
1`
#319000
1!
1g
1h
0`
#320000
b111111 $
b101111 $
b100111 $
b100011 $
b100001 $
b100000 $
0!
0W!
0V!
0U!
0T!
0S!
1R!
0g
0h
1`
#321000
1!
1g
1h
0`
#321001
0p!
02!
09
#322000
0!
0g
0h
1`
#323000
1!
1g
1h
0`
#324000
0!
0g
0h
1`
#325000
1!
1g
1h
0`
#326000
0!
0g
0h
1`
#327000
1!
1g
1h
0`
#328000
0!
0g
0h
1`
#329000
1!
1g
1h
0`
#330000
b100001 $
0!
1W!
0g
0h
1`
#331000
1!
1g
1h
0`
#331001
0o!
01!
08
#332000
0!
0g
0h
1`
#333000
1!
1g
1h
0`
#334000
0!
0g
0h
1`
#335000
1!
1g
1h
0`
#336000
0!
0g
0h
1`
#337000
1!
1g
1h
0`
#338000
0!
0g
0h
1`
#339000
1!
1g
1h
0`
#340000
b100011 $
b100010 $
0!
0W!
1V!
0g
0h
1`
#341000
1!
1g
1h
0`
#341001
0n!
00!
07
