Lab2/simulation/qsim/g07_lab2.msim.vcd
$comment
	File created using the following command:
		vcd file g07_lab2.msim.vcd -direction
$end
$date
	Thu Oct 26 15:29:22 2017
$end
$version
	ModelSim Version 10.1d
$end
$timescale
	1ps
$end
$scope module g07_7_segment_decoder_vlg_vec_tst $end
$var reg 4 ! code [3:0] $end
$var reg 1 " mode $end
$var wire 1 # segments_out [6] $end
$var wire 1 $ segments_out [5] $end
$var wire 1 % segments_out [4] $end
$var wire 1 & segments_out [3] $end
$var wire 1 ' segments_out [2] $end
$var wire 1 ( segments_out [1] $end
$var wire 1 ) segments_out [0] $end
$var wire 1 * sampler $end
$scope module i1 $end
$var wire 1 + gnd $end
$var wire 1 , vcc $end
$var wire 1 - unknown $end
$var tri1 1 . devclrn $end
$var tri1 1 / devpor $end
$var tri1 1 0 devoe $end
$var wire 1 1 mode~combout $end
$var wire 1 2 Mux6~0_combout $end
$var wire 1 3 Mux6~1_combout $end
$var wire 1 4 Mux6~2_combout $end
$var wire 1 5 Mux5~0_combout $end
$var wire 1 6 Mux5~1_combout $end
$var wire 1 7 Mux4~0_combout $end
$var wire 1 8 Mux4~1_combout $end
$var wire 1 9 Mux3~0_combout $end
$var wire 1 : Mux3~1_combout $end
$var wire 1 ; Mux3~2_combout $end
$var wire 1 < Mux2~0_combout $end
$var wire 1 = Mux2~1_combout $end
$var wire 1 > Mux2~2_combout $end
$var wire 1 ? Mux1~0_combout $end
$var wire 1 @ Mux1~1_combout $end
$var wire 1 A Mux0~0_combout $end
$var wire 1 B Mux0~1_combout $end
$var wire 1 C Mux0~2_combout $end
$var wire 1 D code~combout [3] $end
$var wire 1 E code~combout [2] $end
$var wire 1 F code~combout [1] $end
$var wire 1 G code~combout [0] $end
$upscope $end
$upscope $end
$enddefinitions $end
#0
$dumpvars
b0 !
0"
0)
0(
0'
0&
0%
0$
1#
x*
0+
1,
x-
1.
1/
10
01
02
03
04
05
06
07
08
09
0:
0;
0<
0=
0>
0?
0@
0A
0B
1C
0G
0F
0E
0D
$end
#10000
b1 !
1G
0*
1?
1=
1<
1:
19
15
13
1@
1>
1;
14
1$
1%
1&
1)
#20000
b11 !
b10 !
0G
1F
1*
1B
0=
0<
09
17
03
0C
0>
0;
18
04
0#
0%
0&
1'
0)
#30000
b11 !
1G
0*
1=
0:
07
16
05
12
1>
08
06
1(
1%
0'
0(
#40000
b111 !
b101 !
b100 !
0G
0F
1E
1*
0?
13
02
1;
0@
14
1&
0$
1)
#50000
b101 !
1G
0*
1:
19
15
03
12
0;
16
04
0&
1(
0)
#60000
b111 !
b110 !
0G
1F
1*
1A
0=
09
17
02
0>
0%
#70000
b111 !
1G
0*
0B
0A
1?
1=
0:
07
05
1C
1@
1>
1;
06
1#
1$
1%
1&
0(
#80000
b1111 !
b1011 !
b1001 !
b1000 !
0G
0F
0E
1D
1*
1B
0@
0?
0=
1:
15
0;
0>
0C
0$
0&
0%
0#
#90000
b1001 !
1G
0*
1A
1@
1?
1=
1<
17
05
13
0@
1>
1$
0$
1%
#100000
b1011 !
b1010 !
0G
1F
1*
0=
0<
19
07
15
03
0>
1;
0%
1&
#110000
b1011 !
1G
0*
0A
1=
0:
09
16
12
0;
14
1(
0&
1)
#120000
b1111 !
b1101 !
b1100 !
0G
0F
1E
1*
0B
0?
1:
13
02
1;
18
1C
0;
04
1&
1'
1#
0&
0)
#130000
b1101 !
1G
0*
1B
1@
17
05
03
12
0C
08
06
14
1$
0#
0'
0(
1)
#140000
b1111 !
b1110 !
0G
1F
1*
0@
0=
19
07
15
02
18
16
04
0$
1'
1(
0)
#150000
b1111 !
1G
0*
1@
1?
1=
0:
09
0@
1;
1$
0$
1&
#160000
1"
b111 !
b11 !
b1 !
b0 !
11
0G
0F
0E
0D
1*
1@
0?
0=
1<
1:
19
0B
06
0;
08
1>
0@
0>
1;
1$
0(
0&
0'
1%
0$
0%
1&
#170000
b1 !
1G
0*
1?
0<
09
17
1@
0;
18
1$
0&
1'
#180000
b11 !
b10 !
0G
1F
1*
1B
1=
0:
07
05
12
1>
08
1%
0'
#190000
b11 !
1G
0*
0?
1:
19
13
0@
1;
14
0$
1&
1)
#200000
b111 !
b101 !
b100 !
0G
0F
1E
1*
15
03
0;
16
04
0&
1(
0)
#210000
b101 !
1G
0*
0=
1<
09
17
0>
0%
#220000
b111 !
b110 !
0G
1F
1*
1A
1?
1=
0:
07
05
1C
1@
1>
1;
06
1#
1$
1%
1&
0(
#230000
b111 !
1G
0*
0B
0A
0?
0=
1:
19
0C
0@
0>
0;
0#
0$
0%
0&
#240000
b1111 !
b1011 !
b1001 !
b1000 !
0G
0F
0E
1D
1*
1B
0:
09
17
02
1;
1>
14
0;
04
1&
1%
1)
0&
0)
#250000
b1001 !
1G
0*
1A
1@
1?
0<
07
15
1C
0@
0>
1$
1#
0$
0%
#260000
b1011 !
b1010 !
0G
1F
1*
1@
1=
12
14
1$
1)
#270000
b1011 !
1G
0*
0A
0@
0?
16
13
0C
1@
0$
1(
0#
1$
#280000
b1111 !
b1101 !
b1100 !
0G
0F
1E
1*
0B
0@
17
05
03
1;
18
08
06
0$
1&
1'
0'
0(
#290000
b1101 !
1G
0*
1B
1@
0=
1<
07
15
1>
18
16
1$
1%
1'
1(
#300000
b1111 !
b1110 !
0G
1F
1*
0@
1?
1=
1@
0$
1$
#310000
b1111 !
1G
0*
0@
0?
0=
1@
0$
1$
