Lab3/simulation/qsim/g07_lab3.msim.vcd
$comment
	File created using the following command:
		vcd file g07_lab3.msim.vcd -direction
$end
$date
	Thu Oct 26 19:48:15 2017
$end
$version
	ModelSim Version 10.1d
$end
$timescale
	1ps
$end
$scope module g07_debouncer_vlg_vec_tst $end
$var reg 1 ! btnPshd $end
$var reg 1 " clk $end
$var wire 1 # sig $end
$var wire 1 $ sampler $end
$scope module i1 $end
$var wire 1 % gnd $end
$var wire 1 & vcc $end
$var wire 1 ' unknown $end
$var tri1 1 ( devclrn $end
$var tri1 1 ) devpor $end
$var tri1 1 * devoe $end
$var wire 1 + inst6|LPM_COUNTER_component|auto_generated|counter_comb_bita4~combout $end
$var wire 1 , inst6|LPM_COUNTER_component|auto_generated|counter_comb_bita5~combout $end
$var wire 1 - inst6|LPM_COUNTER_component|auto_generated|counter_comb_bita6~combout $end
$var wire 1 . inst6|LPM_COUNTER_component|auto_generated|counter_comb_bita7~combout $end
$var wire 1 / inst6|LPM_COUNTER_component|auto_generated|counter_comb_bita8~combout $end
$var wire 1 0 inst6|LPM_COUNTER_component|auto_generated|counter_comb_bita9~combout $end
$var wire 1 1 inst6|LPM_COUNTER_component|auto_generated|counter_comb_bita10~combout $end
$var wire 1 2 inst6|LPM_COUNTER_component|auto_generated|counter_comb_bita11~combout $end
$var wire 1 3 inst6|LPM_COUNTER_component|auto_generated|counter_comb_bita12~combout $end
$var wire 1 4 inst6|LPM_COUNTER_component|auto_generated|counter_comb_bita13~combout $end
$var wire 1 5 inst6|LPM_COUNTER_component|auto_generated|counter_comb_bita14~combout $end
$var wire 1 6 inst6|LPM_COUNTER_component|auto_generated|counter_comb_bita15~combout $end
$var wire 1 7 inst6|LPM_COUNTER_component|auto_generated|counter_comb_bita16~combout $end
$var wire 1 8 inst6|LPM_COUNTER_component|auto_generated|counter_comb_bita17~combout $end
$var wire 1 9 inst6|LPM_COUNTER_component|auto_generated|counter_comb_bita18~combout $end
$var wire 1 : inst6|LPM_COUNTER_component|auto_generated|counter_comb_bita19~combout $end
$var wire 1 ; inst6|LPM_COUNTER_component|auto_generated|counter_comb_bita20~combout $end
$var wire 1 < inst6|LPM_COUNTER_component|auto_generated|cmpr2|aneb_result_wire[0]~0_combout $end
$var wire 1 = inst6|LPM_COUNTER_component|auto_generated|cmpr2|aneb_result_wire[0]~1_combout $end
$var wire 1 > inst6|LPM_COUNTER_component|auto_generated|cmpr2|aneb_result_wire[0]~2_combout $end
$var wire 1 ? inst6|LPM_COUNTER_component|auto_generated|cmpr2|aneb_result_wire[0]~3_combout $end
$var wire 1 @ inst6|LPM_COUNTER_component|auto_generated|cmpr2|aneb_result_wire[0]~4_combout $end
$var wire 1 A clk~combout $end
$var wire 1 B btnPshd~combout $end
$var wire 1 C inst6|LPM_COUNTER_component|auto_generated|counter_comb_bita0~COUT $end
$var wire 1 D inst6|LPM_COUNTER_component|auto_generated|counter_comb_bita1~combout $end
$var wire 1 E ~GND~combout $end
$var wire 1 F inst6|LPM_COUNTER_component|auto_generated|counter_comb_bita1~COUT $end
$var wire 1 G inst6|LPM_COUNTER_component|auto_generated|counter_comb_bita2~COUT $end
$var wire 1 H inst6|LPM_COUNTER_component|auto_generated|counter_comb_bita3~COUT $end
$var wire 1 I inst6|LPM_COUNTER_component|auto_generated|counter_comb_bita4~COUT $end
$var wire 1 J inst6|LPM_COUNTER_component|auto_generated|counter_comb_bita5~COUT $end
$var wire 1 K inst6|LPM_COUNTER_component|auto_generated|counter_comb_bita6~COUT $end
$var wire 1 L inst6|LPM_COUNTER_component|auto_generated|counter_comb_bita7~COUT $end
$var wire 1 M inst6|LPM_COUNTER_component|auto_generated|counter_comb_bita8~COUT $end
$var wire 1 N inst6|LPM_COUNTER_component|auto_generated|counter_comb_bita9~COUT $end
$var wire 1 O inst6|LPM_COUNTER_component|auto_generated|counter_comb_bita10~COUT $end
$var wire 1 P inst6|LPM_COUNTER_component|auto_generated|counter_comb_bita11~COUT $end
$var wire 1 Q inst6|LPM_COUNTER_component|auto_generated|counter_comb_bita12~COUT $end
$var wire 1 R inst6|LPM_COUNTER_component|auto_generated|counter_comb_bita13~COUT $end
$var wire 1 S inst6|LPM_COUNTER_component|auto_generated|counter_comb_bita14~COUT $end
$var wire 1 T inst6|LPM_COUNTER_component|auto_generated|counter_comb_bita15~COUT $end
$var wire 1 U inst6|LPM_COUNTER_component|auto_generated|counter_comb_bita16~COUT $end
$var wire 1 V inst6|LPM_COUNTER_component|auto_generated|counter_comb_bita17~COUT $end
$var wire 1 W inst6|LPM_COUNTER_component|auto_generated|counter_comb_bita18~COUT $end
$var wire 1 X inst6|LPM_COUNTER_component|auto_generated|counter_comb_bita19~COUT $end
$var wire 1 Y inst6|LPM_COUNTER_component|auto_generated|counter_comb_bita20~COUT $end
$var wire 1 Z inst6|LPM_COUNTER_component|auto_generated|counter_comb_bita20~0_combout $end
$var wire 1 [ inst6|LPM_COUNTER_component|auto_generated|counter_comb_bita3~combout $end
$var wire 1 \ inst6|LPM_COUNTER_component|auto_generated|_~0_combout $end
$var wire 1 ] inst6|LPM_COUNTER_component|auto_generated|counter_comb_bita2~combout $end
$var wire 1 ^ inst6|LPM_COUNTER_component|auto_generated|cmpr2|aneb_result_wire[0]~5_combout $end
$var wire 1 _ inst6|LPM_COUNTER_component|auto_generated|counter_comb_bita0~combout $end
$var wire 1 ` inst6|LPM_COUNTER_component|auto_generated|cmpr2|aneb_result_wire[0]~6_combout $end
$var wire 1 a inst6|LPM_COUNTER_component|auto_generated|counter_reg_bit1a[20]~0_combout $end
$var wire 1 b inst~regout $end
$var wire 1 c inst1|LPM_COMPARE_component|auto_generated|aneb_result_wire [0] $end
$var wire 1 d inst6|LPM_COUNTER_component|auto_generated|safe_q [20] $end
$var wire 1 e inst6|LPM_COUNTER_component|auto_generated|safe_q [19] $end
$var wire 1 f inst6|LPM_COUNTER_component|auto_generated|safe_q [18] $end
$var wire 1 g inst6|LPM_COUNTER_component|auto_generated|safe_q [17] $end
$var wire 1 h inst6|LPM_COUNTER_component|auto_generated|safe_q [16] $end
$var wire 1 i inst6|LPM_COUNTER_component|auto_generated|safe_q [15] $end
$var wire 1 j inst6|LPM_COUNTER_component|auto_generated|safe_q [14] $end
$var wire 1 k inst6|LPM_COUNTER_component|auto_generated|safe_q [13] $end
$var wire 1 l inst6|LPM_COUNTER_component|auto_generated|safe_q [12] $end
$var wire 1 m inst6|LPM_COUNTER_component|auto_generated|safe_q [11] $end
$var wire 1 n inst6|LPM_COUNTER_component|auto_generated|safe_q [10] $end
$var wire 1 o inst6|LPM_COUNTER_component|auto_generated|safe_q [9] $end
$var wire 1 p inst6|LPM_COUNTER_component|auto_generated|safe_q [8] $end
$var wire 1 q inst6|LPM_COUNTER_component|auto_generated|safe_q [7] $end
$var wire 1 r inst6|LPM_COUNTER_component|auto_generated|safe_q [6] $end
$var wire 1 s inst6|LPM_COUNTER_component|auto_generated|safe_q [5] $end
$var wire 1 t inst6|LPM_COUNTER_component|auto_generated|safe_q [4] $end
$var wire 1 u inst6|LPM_COUNTER_component|auto_generated|safe_q [3] $end
$var wire 1 v inst6|LPM_COUNTER_component|auto_generated|safe_q [2] $end
$var wire 1 w inst6|LPM_COUNTER_component|auto_generated|safe_q [1] $end
$var wire 1 x inst6|LPM_COUNTER_component|auto_generated|safe_q [0] $end
$upscope $end
$upscope $end
$enddefinitions $end
#0
$dumpvars
0!
0"
0#
x$
0%
1&
x'
1(
1)
1*
0+
0,
0-
0.
0/
00
01
02
03
04
05
06
07
08
09
0:
0;
1<
1=
1>
1?
1@
0A
0B
0C
0D
0E
1F
0G
1H
0I
1J
0K
1L
0M
1N
0O
1P
0Q
1R
0S
1T
0U
1V
0W
1X
0Y
0Z
0[
0\
0]
1^
1_
0`
0a
0b
0c
0x
0w
0v
0u
0t
0s
0r
0q
0p
0o
0n
0m
0l
0k
0j
0i
0h
0g
0f
0e
0d
$end
#10000
1"
1A
0$
#20000
0"
0A
1$
#25000
1!
1B
0$
#30000
1"
1A
1$
1b
1a
1\
1#
#40000
0"
0A
0$
#50000
0!
1"
0B
1A
1$
0b
1x
0a
0\
1c
1C
0_
0#
1\
1D
#60000
0"
0A
0$
#70000
1"
1A
1$
1w
0x
0F
0D
0C
1_
1]
1F
1D
0]
#75000
1!
1B
0$
#80000
0"
0A
1$
#90000
1"
1A
0$
1x
1C
0_
0F
0D
1]
#100000
0!
0"
0B
0A
1$
#110000
1"
1A
0$
0w
0x
1v
0c
1F
1D
0C
1_
0^
1G
0]
0\
0G
1]
0D
1c
1[
0[
1\
#120000
0"
0A
1$
#125000
1!
1B
0$
#130000
1"
1A
1$
1x
1C
0_
1D
#140000
0"
0A
0$
#150000
0!
1"
0B
1A
1$
1w
0x
0F
0D
0C
1_
1G
0]
1F
1D
1[
0G
1]
0[
#160000
0"
0A
0$
#170000
1"
1A
1$
1x
1C
0_
0F
0D
1G
0]
1[
#175000
1!
1B
0$
#180000
0"
0A
1$
#190000
1"
1A
0$
0w
0x
0v
1u
1F
1D
0C
1_
0G
1]
0H
0[
0]
0D
1H
1[
1+
0+
#200000
0!
0"
0B
0A
1$
#210000
1"
1A
0$
1x
1C
0_
1D
#220000
0"
0A
1$
#225000
1!
1B
0$
#230000
1"
1A
1$
1w
0x
0F
0D
0C
1_
1]
1F
1D
0]
#240000
0"
0A
0$
#250000
0!
1"
0B
1A
1$
1x
1C
0_
0F
0D
1]
#260000
0"
0A
0$
#270000
1"
1A
1$
0w
0x
1v
1F
1D
0C
1_
1G
0]
0G
1]
0D
0H
0[
1H
1[
1+
0+
#275000
1!
1B
0$
#280000
0"
0A
1$
#290000
1"
1A
0$
1x
1C
0_
1D
#300000
0!
0"
0B
0A
1$
#310000
1"
1A
0$
1w
0x
0F
0D
0C
1_
1G
0]
1F
1D
0H
0[
0G
1]
1+
1H
1[
0+
#320000
0"
0A
1$
#325000
1!
1B
0$
#330000
1"
1A
1$
1x
1C
0_
0F
0D
1G
0]
0H
0[
1+
#340000
0"
0A
0$
#350000
0!
1"
0B
1A
1$
0w
0x
0v
0u
1t
1F
1D
0C
1_
1^
0G
1]
1H
1[
1I
0+
0]
0D
0[
0I
1+
1,
0,
#360000
0"
0A
0$
#370000
1"
1A
1$
1x
1C
0_
1D
#375000
1!
1B
0$
#380000
0"
0A
1$
#390000
1"
1A
0$
1w
0x
0F
0D
0C
1_
1]
1F
1D
0]
#400000
0!
0"
0B
0A
1$
#410000
1"
1A
0$
1x
1`
1C
0_
1a
0F
0D
1]
#420000
0"
0A
1$
#425000
1!
1B
0$
#430000
1"
1A
1$
0w
0x
0t
0c
0`
1F
1D
0C
1_
0+
0\
0a
0]
0D
#440000
0"
0A
0$
#450000
0!
1"
0B
1A
1$
#460000
0"
0A
0$
#470000
1"
1A
1$
#475000
1!
1B
0$
#480000
0"
0A
1$
#490000
1"
1A
0$
1b
1a
1\
1#
#500000
0!
0"
0B
0A
1$
#510000
1"
1A
0$
0b
1x
0a
0\
1c
1C
0_
0#
1\
1D
#520000
0"
0A
1$
#525000
1!
1B
0$
#530000
1"
1A
1$
1w
0x
0F
0D
0C
1_
1]
1F
1D
0]
#540000
0"
0A
0$
#550000
0!
1"
0B
1A
1$
1x
1C
0_
0F
0D
1]
#560000
0"
0A
0$
#570000
1"
1A
1$
0w
0x
1v
0c
1F
1D
0C
1_
0^
1G
0]
0\
0G
1]
0D
1c
1[
0[
1\
#575000
1!
1B
0$
#580000
0"
0A
1$
#590000
1"
1A
0$
1x
1C
0_
1D
#600000
0!
0"
0B
0A
1$
#610000
1"
1A
0$
1w
0x
0F
0D
0C
1_
1G
0]
1F
1D
1[
0G
1]
0[
#620000
0"
0A
1$
#625000
1!
1B
0$
#630000
1"
1A
1$
1x
1C
0_
0F
0D
1G
0]
1[
#640000
0"
0A
0$
#650000
0!
1"
0B
1A
1$
0w
0x
0v
1u
1F
1D
0C
1_
0G
1]
0H
0[
0]
0D
1H
1[
1+
0+
#660000
0"
0A
0$
#670000
1"
1A
1$
1x
1C
0_
1D
#675000
1!
1B
0$
#680000
0"
0A
1$
#690000
1"
1A
0$
1w
0x
0F
0D
0C
1_
1]
1F
1D
0]
#700000
0!
0"
0B
0A
1$
#710000
1"
1A
0$
1x
1C
0_
0F
0D
1]
#720000
0"
0A
1$
#725000
1!
1B
0$
#730000
1"
1A
1$
0w
0x
1v
1F
1D
0C
1_
1G
0]
0G
1]
0D
0H
0[
1H
1[
1+
0+
#740000
0"
0A
0$
#750000
0!
1"
0B
1A
1$
1x
1C
0_
1D
#760000
0"
0A
0$
#770000
1"
1A
1$
1w
0x
0F
0D
0C
1_
1G
0]
1F
1D
0H
0[
0G
1]
1+
1H
1[
0+
#775000
1!
1B
0$
#780000
0"
0A
1$
#790000
1"
1A
0$
1x
1C
0_
0F
0D
1G
0]
0H
0[
1+
#800000
0!
0"
0B
0A
1$
#810000
1"
1A
0$
0w
0x
0v
0u
1t
1F
1D
0C
1_
1^
0G
1]
1H
1[
1I
0+
0]
0D
0[
0I
1+
1,
0,
#820000
0"
0A
1$
#825000
1!
1B
0$
#830000
1"
1A
1$
1x
1C
0_
1D
#840000
0"
0A
0$
#850000
0!
1"
0B
1A
1$
1w
0x
0F
0D
0C
1_
1]
1F
1D
0]
#860000
0"
0A
0$
#870000
1"
1A
1$
1x
1`
1C
0_
1a
0F
0D
1]
#875000
1!
1B
0$
#880000
0"
0A
1$
#890000
1"
1A
0$
0w
0x
0t
0c
0`
1F
1D
0C
1_
0+
0\
0a
0]
0D
#900000
0!
0"
0B
0A
1$
#910000
1"
1A
0$
#920000
0"
0A
1$
#925000
1!
1B
0$
#930000
1"
1A
1$
1b
1a
1\
1#
#940000
0"
0A
0$
#950000
0!
1"
0B
1A
1$
0b
1x
0a
0\
1c
1C
0_
0#
1\
1D
#960000
0"
0A
0$
#970000
1"
1A
1$
1w
0x
0F
0D
0C
1_
1]
1F
1D
0]
#975000
1!
1B
0$
#980000
0"
0A
1$
#990000
1"
1A
0$
1x
1C
0_
0F
0D
1]
