Lab4_fix/simulation/qsim/g07_Lab4.msim.vcd
$comment
	File created using the following command:
		vcd file g07_Lab4.msim.vcd -direction
$end
$date
	Thu Nov 16 21:21:46 2017
$end
$version
	ModelSim Version 10.1d
$end
$timescale
	1ps
$end
$scope module g07_testing_vlg_vec_tst $end
$var reg 6 ! new_card [5:0] $end
$var reg 6 " old_sum [5:0] $end
$var wire 1 # legal_play $end
$var wire 1 $ new_sum [5] $end
$var wire 1 % new_sum [4] $end
$var wire 1 & new_sum [3] $end
$var wire 1 ' new_sum [2] $end
$var wire 1 ( new_sum [1] $end
$var wire 1 ) new_sum [0] $end
$var wire 1 * sampler $end
$scope module i1 $end
$var wire 1 + gnd $end
$var wire 1 , vcc $end
$var wire 1 - unknown $end
$var tri1 1 . devclrn $end
$var tri1 1 / devpor $end
$var tri1 1 0 devoe $end
$var wire 1 1 inst1|Add0~2_combout $end
$var wire 1 2 inst1|u1|inst3|inst2|inst1~0_combout $end
$var wire 1 3 inst1|u1|inst5|inst2|inst1~combout $end
$var wire 1 4 inst1|u1|inst5|inst2|inst4~0_combout $end
$var wire 1 5 inst1|Add0~5_combout $end
$var wire 1 6 inst1|Add0~6_combout $end
$var wire 1 7 inst1|new_card_value_int[3]~0_combout $end
$var wire 1 8 inst1|new_card_value_int[2]~1_combout $end
$var wire 1 9 inst1|new_card_value_int[1]~2_combout $end
$var wire 1 : inst1|new_card_value_int[0]~3_combout $end
$var wire 1 ; inst1|test_new_sum_int[0]~1 $end
$var wire 1 < inst1|test_new_sum_int[1]~3 $end
$var wire 1 = inst1|test_new_sum_int[2]~5 $end
$var wire 1 > inst1|test_new_sum_int[3]~7 $end
$var wire 1 ? inst1|test_new_sum_int[4]~8_combout $end
$var wire 1 @ inst1|test_new_sum_int[4]~9 $end
$var wire 1 A inst1|Add1~0_combout $end
$var wire 1 B inst1|test_new_sum_int[2]~4_combout $end
$var wire 1 C inst1|test_new_sum_int[3]~6_combout $end
$var wire 1 D inst1|LessThan1~1_combout $end
$var wire 1 E inst1|u1|inst|inst5|inst4~0_combout $end
$var wire 1 F inst1|u1|inst|inst5|inst4~1_combout $end
$var wire 1 G inst1|u1|inst|inst5|inst4~2_combout $end
$var wire 1 H inst1|u1|inst|inst6|inst1~combout $end
$var wire 1 I inst1|u1|inst5|inst1|inst4~0_combout $end
$var wire 1 J inst1|u1|inst4|inst1|inst2~combout $end
$var wire 1 K inst1|Add0~7_combout $end
$var wire 1 L inst1|Add0~3_combout $end
$var wire 1 M inst1|u1|inst|inst7|inst1~0_combout $end
$var wire 1 N inst1|Add0~4_combout $end
$var wire 1 O inst1|u1|inst5|inst|inst~combout $end
$var wire 1 P inst1|Equal1~0_combout $end
$var wire 1 Q inst1|sum[4]~4_combout $end
$var wire 1 R inst1|legal_play~4_combout $end
$var wire 1 S inst1|LessThan1~0_combout $end
$var wire 1 T inst1|sum[5]~5_combout $end
$var wire 1 U inst1|Add2~0_combout $end
$var wire 1 V inst1|sum[4]~6_combout $end
$var wire 1 W inst1|sum[4]~12_combout $end
$var wire 1 X inst1|test_new_sum_int[1]~2_combout $end
$var wire 1 Y inst1|sum[3]~7_combout $end
$var wire 1 Z inst1|sum[3]~8_combout $end
$var wire 1 [ inst1|sum[2]~13_combout $end
$var wire 1 \ inst1|sum[2]~9_combout $end
$var wire 1 ] inst1|sum[1]~10_combout $end
$var wire 1 ^ inst1|test_new_sum_int[0]~0_combout $end
$var wire 1 _ inst1|sum[0]~11_combout $end
$var wire 1 ` old_sum~combout [5] $end
$var wire 1 a old_sum~combout [4] $end
$var wire 1 b old_sum~combout [3] $end
$var wire 1 c old_sum~combout [2] $end
$var wire 1 d old_sum~combout [1] $end
$var wire 1 e old_sum~combout [0] $end
$var wire 1 f new_card~combout [5] $end
$var wire 1 g new_card~combout [4] $end
$var wire 1 h new_card~combout [3] $end
$var wire 1 i new_card~combout [2] $end
$var wire 1 j new_card~combout [1] $end
$var wire 1 k new_card~combout [0] $end
$upscope $end
$upscope $end
$enddefinitions $end
#0
$dumpvars
b0 !
b101111 "
1#
0)
0(
0'
0&
1%
1$
x*
0+
1,
x-
1.
1/
10
01
02
13
14
05
16
17
08
19
1:
1;
0<
1=
0>
1?
0@
0A
0B
1C
0D
0E
0F
0G
0H
1I
0J
1K
1L
0M
1N
0O
1P
0Q
1R
0S
1T
1U
1V
1W
1X
0Y
0Z
0[
0\
0]
0^
0_
1e
1d
1c
1b
0a
1`
0k
0j
0i
0h
0g
0f
$end
#100000
b1 !
1k
0*
1O
0N
0P
0:
07
0T
0;
1^
0C
0X
1_
1Y
0V
1D
0$
1[
0Y
0U
1T
1)
1$
#200000
b11 !
b10 !
0k
1j
1*
0O
1:
1;
0^
1X
0_
1]
0[
1Y
1U
0)
1(
#300000
b11 !
1k
0*
1O
1N
11
0:
09
0L
18
0;
1^
0X
1B
1<
1X
1_
0]
1\
0B
1]
1[
0D
1)
0(
1'
0[
1D
0]
1Z
0W
0T
1(
0\
1]
0Z
1W
1T
0(
1&
0%
0$
0'
1(
0&
1%
1$
#400000
b111 !
b101 !
b100 !
0k
0j
1i
1*
0O
01
0K
03
1:
1;
0^
0<
0X
0_
1B
0]
1[
0Y
0U
0)
1\
0[
1Y
1U
0(
1'
#500000
b101 !
1k
0*
1O
0N
0:
19
0;
1^
1X
0X
1_
1]
1[
0D
0[
1D
1Z
0W
0T
1)
1(
0]
0Z
1W
1T
1&
0%
0$
0(
0&
1%
1$
#600000
b111 !
b110 !
0k
1j
1*
0O
1:
1;
0^
1X
0_
1]
1[
0D
0)
0]
1Z
0W
0T
1(
0(
1&
0%
0$
#700000
b111 !
1k
0*
1O
1N
11
0:
09
1L
08
06
0;
1^
0X
17
0B
1<
1X
1_
1]
0Y
0U
1D
1C
0=
1B
0[
1U
0D
0\
1W
1T
1)
1(
0C
1[
1V
0]
0Z
0W
0T
0'
1%
1$
1Y
0V
1\
1W
0(
0&
0%
0$
1Z
0W
1'
1%
1&
0%
#800000
b1111 !
b1011 !
b1001 !
b1000 !
0k
0j
0i
1h
1*
0O
01
1E
1K
13
15
1:
1;
0^
0<
0X
0_
1=
0B
1]
0[
1D
0)
1C
0\
1[
0Y
0U
0]
0Z
1W
1T
1(
1Z
1Y
0D
0'
0(
0&
1%
1$
1]
1\
0W
0T
1&
1(
1'
0%
0$
#900000
b1001 !
1k
0*
1O
0N
0:
19
0;
1^
1X
0X
1_
0]
0[
0Y
1U
1]
1[
1Y
0U
0\
0Z
1V
1)
0(
1\
1Z
0V
1W
1(
0'
0&
0W
1'
1&
1%
0%
#1000000
b1011 !
b1010 !
0k
1j
1*
0O
1F
0E
#1100000
b1011 !
1k
0*
1O
1N
11
09
0L
1<
1X
19
0=
1B
0]
0[
0Y
1U
0<
0X
0C
0\
0Z
1V
1=
0B
1]
0(
0V
1D
1W
1C
1[
0U
0'
0&
1(
0]
1Z
1T
1Y
0D
1%
1]
1\
0W
0T
0(
1&
1$
1(
1'
0%
0$
#1200000
b1111 !
b1101 !
b1100 !
0k
0j
1i
1*
0O
1G
01
0F
1E
0K
03
1O
1K
1H
05
12
0G
1L
0I
11
18
16
13
0O
0K
0H
15
02
1P
1:
0L
08
06
1B
1I
01
0[
1T
1;
0^
0P
0:
0B
0Y
1U
03
0\
1X
0_
1[
0T
0;
1^
1Y
0U
0Z
1V
1$
0]
0[
0Y
1U
1\
0X
1_
1Z
0V
1W
0'
0)
0$
0&
0\
0Z
1V
1]
1[
1Y
0U
0W
0(
1'
1)
1&
1%
1W
1\
1Z
0V
0'
0&
1(
0%
0W
1%
1'
1&
0%
#1300000
b1101 !
1k
0*
1O
0N
1G
0O
1K
1H
05
12
1L
1N
18
16
13
1P
1:
1B
08
0[
1T
1;
0^
0Y
1U
0B
0\
1X
0_
0Z
1V
1[
1Y
0U
1$
0]
0[
0Y
1U
1W
1\
1Z
0V
0'
0)
0&
0\
0Z
1V
0W
0(
1%
1'
1&
1W
0'
0&
0%
1%
#1400000
b1111 !
b1110 !
0k
1j
1*
1O
0N
0G
1F
0E
0P
0:
07
0O
0K
0H
15
02
1G
0T
0;
1^
0C
1:
0L
06
03
1O
1K
1H
05
12
0X
1_
1Y
0V
1D
1;
0^
0:
17
18
16
1L
13
0$
1[
0Y
0U
0_
1T
1X
0;
1^
1C
1B
07
08
1)
1\
1Z
1]
1U
0D
0X
1_
0C
0B
0)
1$
0Z
0W
0T
0U
1D
1'
1&
1(
1)
0]
0\
1W
1T
0&
0%
0$
0(
0'
1%
1$
#1500000
b1111 !
1k
0*
0O
1:
1;
0^
1X
0_
1]
0[
1Y
1U
0)
1(
#1600000
b11111 !
b10111 !
b10011 !
b10001 !
b10000 !
0k
0j
0i
0h
1g
1*
1N
0I
0G
11
0F
04
03
15
1M
0H
02
1P
17
1O
0M
0K
1H
12
06
0N
01
1C
0P
0:
1N
11
13
18
16
1Z
0Y
1V
0D
0;
1^
09
07
0L
1B
0Z
1_
0]
0T
1<
0C
1[
1&
0B
1Y
0V
1\
0&
1)
0(
0$
0[
1D
1Z
0W
1'
0\
1]
0Z
1W
1T
1&
0%
0'
1(
0&
1%
1$
#1700000
b10001 !
1k
0*
0O
1I
01
1:
03
08
1;
0^
18
0=
1B
0<
0X
0_
1=
0B
1>
1C
1\
1[
0D
1B
0U
0>
0C
0?
1Z
1V
0W
0T
0)
1'
0[
1U
1D
1?
1S
1&
0%
0$
0V
0]
0Z
1W
1T
0S
0(
0&
1%
1$
#1800000
b10011 !
b10010 !
0k
1j
1*
1O
0N
0:
19
0;
1^
1X
0X
1_
1]
1[
0D
0[
1D
1Z
0W
0T
1)
1(
0]
0Z
1W
1T
1&
0%
0$
0(
0&
1%
1$
#1900000
b10011 !
1k
0*
0O
1:
1;
0^
1X
0_
1]
1[
0D
0)
0]
1Z
0W
0T
1(
0(
1&
0%
0$
#2000000
b10111 !
b10101 !
b10100 !
0k
0j
1i
1*
1O
1N
0I
11
1K
14
13
0:
09
1L
04
03
08
06
0;
1^
0X
17
0B
1<
1X
1_
1]
0Y
0U
1D
1C
0=
1B
0[
1U
0D
0\
1W
1T
1)
1(
0C
1[
1V
0]
0Z
0W
0T
0'
1%
1$
1Y
0V
1\
1W
0(
0&
0%
0$
1Z
0W
1'
1%
1&
0%
#2100000
b10101 !
1k
0*
0O
1I
01
1:
14
13
18
16
1;
0^
08
06
1=
0B
1P
19
0<
0_
0=
1B
0P
09
1C
0[
1D
1T
1=
0B
0C
1[
0Y
0D
0X
1V
1]
1W
0)
1$
1C
0U
1D
0Z
0V
0T
1(
1%
1Z
1Y
0D
0]
0\
1T
0&
0$
1]
1\
0W
0T
1&
0(
0'
1$
1(
1'
0%
0$
#2200000
b10111 !
b10110 !
0k
1j
1*
1O
0N
0:
19
0;
1^
1X
0X
1_
0]
0[
0Y
1U
1]
1[
1Y
0U
0\
0Z
1V
1)
0(
1\
1Z
0V
1W
1(
0'
0&
0W
1'
1&
1%
0%
#2300000
b10111 !
1k
0*
0O
#2400000
b11111 !
b11011 !
b11001 !
b11000 !
0k
0j
0i
1h
1*
1O
1N
0I
11
1F
0K
04
03
05
09
0L
13
16
1<
1X
07
06
0=
1B
0]
0[
0Y
1U
0C
19
17
0\
1[
1Y
0Z
0<
0X
0(
1\
1Z
1=
0B
1]
0[
1D
0'
0&
1C
0\
1[
0Y
0U
0]
0Z
1W
1T
1'
1&
1(
1Z
1Y
0D
0'
0(
0&
1%
1$
1]
1\
0W
0T
1&
1(
1'
0%
0$
#2440000
b1111 "
b1011 "
b1001 "
b1000 "
0e
0d
0c
0`
0*
0^
1<
1X
0=
1B
1Q
0B
1U
0C
1V
0R
1D
1W
0#
0_
0\
0Z
1R
1%
0)
0'
0&
1#
#2500000
b11001 !
1k
1*
0O
1I
01
03
#2600000
b11011 !
b11010 !
0k
1j
0*
1O
0N
1E
1G
0O
1M
1K
0H
02
1N
1L
14
13
1:
09
16
1^
0X
1P
19
1_
0]
0U
1T
0Q
1X
0V
1]
0[
1U
1)
0(
1$
1(
#2700000
b1001 "
b11011 !
1k
1e
1*
1O
0N
1;
0^
0P
0:
07
0<
0X
0_
1[
0T
1Q
0;
1^
1>
1C
1B
0]
0Y
0U
0)
1\
1_
1Y
1V
1<
1X
0?
1Z
0D
1U
0$
0(
0W
0B
1]
1S
1'
1)
1&
0\
0%
1(
0'
#2800000
b11111 !
b11101 !
b11100 !
0k
0j
1i
0*
0O
0I
0E
0K
03
1:
13
18
1;
0^
08
1B
0<
0X
0_
0B
1\
1B
0]
0U
0\
0)
1'
1\
1U
0(
0'
1'
#2900000
b11101 !
1k
1*
1O
1N
11
0:
09
0L
18
0;
1^
1<
1X
1=
0B
0X
1_
0=
1B
1]
0>
0C
0\
0]
1D
1>
1C
1\
1?
0Z
1)
1(
0'
1Z
1W
0?
0D
0S
0(
1'
0&
0W
1S
1]
1&
1%
0]
0%
1(
0(
