Lab4_fix/simulation/qsim/g07_Lab4.msim.vcd
$comment
	File created using the following command:
		vcd file g07_Lab4.msim.vcd -direction
$end
$date
	Thu Nov 16 18:49:35 2017
$end
$version
	ModelSim Version 10.1d
$end
$timescale
	1ps
$end
$scope module g07_testing_vlg_vec_tst $end
$var reg 6 ! old_sum [5:0] $end
$var reg 6 " top_card [5:0] $end
$var wire 1 # legal_play $end
$var wire 1 $ new_sum [5] $end
$var wire 1 % new_sum [4] $end
$var wire 1 & new_sum [3] $end
$var wire 1 ' new_sum [2] $end
$var wire 1 ( new_sum [1] $end
$var wire 1 ) new_sum [0] $end
$var wire 1 * sampler $end
$scope module i1 $end
$var wire 1 + gnd $end
$var wire 1 , vcc $end
$var wire 1 - unknown $end
$var tri1 1 . devclrn $end
$var tri1 1 / devpor $end
$var tri1 1 0 devoe $end
$var wire 1 1 inst|u1|inst4|inst1|inst2~combout $end
$var wire 1 2 inst|u1|inst5|inst2|inst1~0_combout $end
$var wire 1 3 inst|Add0~1_combout $end
$var wire 1 4 inst|u1|inst5|inst2|inst1~combout $end
$var wire 1 5 inst|u1|inst|inst5|inst4~1_combout $end
$var wire 1 6 inst|u1|inst|inst5|inst4~0_combout $end
$var wire 1 7 inst|u1|inst|inst5|inst4~2_combout $end
$var wire 1 8 inst|u1|inst5|inst|inst~combout $end
$var wire 1 9 inst|u1|inst|inst6|inst1~combout $end
$var wire 1 : inst|u1|inst|inst7|inst1~0_combout $end
$var wire 1 ; inst|Add0~2_combout $end
$var wire 1 < inst|u1|inst3|inst2|inst1~0_combout $end
$var wire 1 = inst|u1|inst5|inst1|inst4~0_combout $end
$var wire 1 > inst|u1|inst5|inst2|inst4~0_combout $end
$var wire 1 ? inst|Add0~3_combout $end
$var wire 1 @ inst|Add0~0_combout $end
$var wire 1 A inst|Add0~4_combout $end
$var wire 1 B inst|new_card_value_int[3]~0_combout $end
$var wire 1 C inst|new_card_value_int[2]~1_combout $end
$var wire 1 D inst|new_card_value_int[1]~2_combout $end
$var wire 1 E inst|sum[0]~1 $end
$var wire 1 F inst|test_new_sum_int[1]~1 $end
$var wire 1 G inst|test_new_sum_int[2]~3 $end
$var wire 1 H inst|test_new_sum_int[3]~5 $end
$var wire 1 I inst|test_new_sum_int[4]~7 $end
$var wire 1 J inst|Add1~0_combout $end
$var wire 1 K inst|test_new_sum_int[2]~2_combout $end
$var wire 1 L inst|test_new_sum_int[4]~6_combout $end
$var wire 1 M inst|LessThan1~1_combout $end
$var wire 1 N inst|test_new_sum_int[3]~4_combout $end
$var wire 1 O inst|Equal1~0_combout $end
$var wire 1 P inst|sum[4]~2_combout $end
$var wire 1 Q inst|legal_play~4_combout $end
$var wire 1 R inst|LessThan1~0_combout $end
$var wire 1 S inst|sum[5]~3_combout $end
$var wire 1 T inst|sum[4]~4_combout $end
$var wire 1 U inst|test_new_sum_int[1]~0_combout $end
$var wire 1 V inst|Add2~0_combout $end
$var wire 1 W inst|sum[4]~5_combout $end
$var wire 1 X inst|sum[3]~6_combout $end
$var wire 1 Y inst|sum[2]~7_combout $end
$var wire 1 Z inst|sum[1]~8_combout $end
$var wire 1 [ inst|new_card_value_int[0]~3_combout $end
$var wire 1 \ inst|sum[0]~0_combout $end
$var wire 1 ] top_card~combout [5] $end
$var wire 1 ^ top_card~combout [4] $end
$var wire 1 _ top_card~combout [3] $end
$var wire 1 ` top_card~combout [2] $end
$var wire 1 a top_card~combout [1] $end
$var wire 1 b top_card~combout [0] $end
$var wire 1 c old_sum~combout [5] $end
$var wire 1 d old_sum~combout [4] $end
$var wire 1 e old_sum~combout [3] $end
$var wire 1 f old_sum~combout [2] $end
$var wire 1 g old_sum~combout [1] $end
$var wire 1 h old_sum~combout [0] $end
$upscope $end
$upscope $end
$enddefinitions $end
#0
$dumpvars
b0 !
b0 "
1#
1)
1(
0'
1&
0%
1$
x*
0+
1,
x-
1.
1/
10
01
02
13
14
05
06
07
08
09
0:
1;
0<
1=
1>
0?
0@
1A
1B
0C
1D
0E
1F
0G
1H
0I
0J
0K
0L
0M
1N
1O
0P
1Q
0R
1S
1T
1U
1V
0W
1X
0Y
0Z
1[
1\
0b
0a
0`
0_
0^
0]
0h
0g
0f
0e
0d
0c
$end
#100000
b1 "
1b
0*
1E
0\
0F
0U
0)
1K
1Z
0V
1Y
1V
0(
1'
#200000
b11 "
b10 "
0b
1a
1*
0E
1\
1U
0U
0Z
1)
1Z
1(
0(
#300000
b11 "
1b
0*
1E
0\
1U
0)
0Z
1(
#400000
b111 "
b101 "
b100 "
0b
0a
1`
1*
0E
1\
0U
1G
0K
1F
1U
1Z
0Y
0V
0H
0N
1)
0G
1K
0Z
0X
1V
1L
0'
0(
1H
1N
1Y
1M
1W
0&
1(
0L
1X
1R
1Z
0T
0S
1'
1%
0W
0R
0M
0X
1&
0$
0(
0Z
1T
1S
0%
0&
1X
1$
1(
1&
#500000
b101 "
1b
0*
1E
0\
0F
0U
0)
1G
0K
1Z
0H
0N
0Y
0V
0(
1L
0X
0'
1W
0&
1%
#600000
b111 "
b110 "
0b
1a
1*
0E
1\
1U
0U
0Z
1V
1)
1Z
0V
1(
0(
#700000
b111 "
1b
0*
1E
0\
1U
0)
0Z
1V
1(
#800000
b1111 "
b1011 "
b1001 "
b1000 "
0b
0a
0`
1_
1*
0E
1\
0U
0G
1K
1N
1F
1U
1Z
1Y
1X
0N
1R
1)
0K
0X
1M
0R
0T
0S
1'
1&
0(
0Y
1X
0M
0W
0&
0$
0Z
1T
1S
0'
1&
0%
0X
1W
1$
1(
0&
1%
#900000
b1001 "
1b
0*
1E
0\
0F
0U
0)
1K
1Z
0V
1Y
1V
0(
1'
#1000000
b1011 "
b1010 "
0b
1a
1*
0E
1\
1U
0U
0Z
1M
1)
0M
0T
0S
1(
1Z
1T
1S
0Y
1X
0W
0$
1Y
0X
1W
1$
0'
1&
0%
0(
1'
0&
1%
#1100000
b1011 "
1b
0*
1E
0\
1U
0)
0Z
1M
1Z
0T
0S
1(
1X
0W
0$
0(
1&
0%
#1200000
b1111 "
b1101 "
b1100 "
0b
0a
1`
1*
0E
1\
0U
1G
0K
1F
1U
0Z
0X
0V
0M
1N
1)
0G
1K
0Y
1V
1T
1S
1R
0&
1(
0N
1Y
1X
1M
1W
1Z
0T
0S
0'
1$
0W
0R
1'
1&
1%
0$
0(
0%
#1280000
b1 !
1h
0*
0;
18
0[
0O
0B
0\
1T
1P
1H
1N
1W
0Z
0Q
0L
1R
0)
0W
0R
0M
1%
0#
1(
1Q
0%
1#
#1300000
b1101 "
1b
1*
1\
1)
#1400000
b1111 "
b1110 "
0b
1a
0*
0\
0F
0U
1G
0K
1Z
0)
0H
0N
0Y
0V
0(
1L
0X
0'
1W
0&
1%
#1500000
b1111 "
1b
1*
1\
1)
#1600000
b11111 "
b10111 "
b10011 "
b10001 "
b10000 "
0b
0a
0`
0_
1^
0*
0\
1F
1U
0G
1K
1H
1N
1I
0L
0K
0Z
1Y
1X
1V
0N
0I
1L
0W
1J
0)
0Y
0X
1M
1W
0J
1'
1&
0%
1(
0Q
0M
0'
0&
1%
1Q
0#
1#
#1700000
b10001 "
1b
1*
1\
1)
#1800000
b10011 "
b10010 "
0b
1a
0*
0\
0F
0U
1K
1Z
0V
0)
1Y
1V
0(
1'
#1900000
b10011 "
1b
1*
1\
1)
#2000000
b10111 "
b10101 "
b10100 "
0b
0a
1`
0*
0\
1F
1U
1G
0K
0G
1K
0Z
0Y
1N
0)
0N
1Y
1X
1M
1R
0Q
0'
1(
0X
0R
1'
1&
0#
0&
#2100000
b10101 "
1b
1*
1\
1)
#2200000
b10111 "
b10110 "
0b
1a
0*
0\
0F
0U
1G
0K
1Z
0M
0)
1N
0Y
0V
1Q
0(
1X
1R
0Q
0'
1#
1&
0#
#2300000
b10111 "
1b
1*
1\
1)
#2400000
b0 !
b11111 "
b11011 "
b11001 "
b11000 "
0b
0a
0`
1_
0h
0*
0\
1F
1U
0G
1K
0H
0N
1;
08
0K
0Z
1Y
0X
1V
1M
1H
1N
1I
0L
0R
1Q
1[
1O
1B
0)
0Y
1X
0M
0W
0T
0Q
0I
1L
1J
1\
0P
0H
0N
1'
0&
1#
1(
1T
1S
1Q
0J
1M
1I
0L
0'
1&
0%
0#
1)
0X
0M
1Z
0T
0S
1J
1$
1#
0Z
1T
1S
1X
1W
1M
0&
0$
0(
0X
0W
1Z
0T
0S
1$
1&
1%
1(
1X
1W
0&
0%
0$
0(
1&
1%
#2500000
b11001 "
1b
1*
1E
0\
0F
0U
0)
1K
0Z
1Y
0X
0V
0Y
1X
1V
1'
0&
1(
0'
1&
#2600000
b11011 "
b11010 "
0b
1a
0*
0E
1\
1U
0U
1Z
1Y
1)
0Z
0Y
1'
0(
0'
1(
#2700000
b11011 "
1b
1*
1E
0\
1U
0)
1Z
1Y
1'
0(
#2800000
b11111 "
b11101 "
b11100 "
0b
0a
1`
0*
0E
1\
0U
1G
0K
1F
1U
0Z
0X
0V
1N
1)
0G
1K
1Z
0Y
1V
0&
1(
0N
1Y
0W
0'
0(
1X
1W
1'
0%
1&
1%
#2900000
b11101 "
1b
1*
1E
0\
0F
0U
0)
1G
0K
0Z
0Y
1N
1Y
0X
0V
0'
1(
1X
1'
0&
1&
