Lab4_fix/simulation/qsim/g07_Lab4.msim.vcd
$comment
	File created using the following command:
		vcd file g07_Lab4.msim.vcd -direction
$end
$date
	Thu Nov 16 16:58:17 2017
$end
$version
	ModelSim Version 10.1d
$end
$timescale
	1ps
$end
$scope module g07_testing_vlg_vec_tst $end
$var reg 6 ! old_sum [5:0] $end
$var reg 6 " top_card [5:0] $end
$var wire 1 # legal_play $end
$var wire 1 $ new_sum [5] $end
$var wire 1 % new_sum [4] $end
$var wire 1 & new_sum [3] $end
$var wire 1 ' new_sum [2] $end
$var wire 1 ( new_sum [1] $end
$var wire 1 ) new_sum [0] $end
$var wire 1 * sampler $end
$scope module i1 $end
$var wire 1 + gnd $end
$var wire 1 , vcc $end
$var wire 1 - unknown $end
$var tri1 1 . devclrn $end
$var tri1 1 / devpor $end
$var tri1 1 0 devoe $end
$var wire 1 1 inst|u1|inst|inst5|inst4~0_combout $end
$var wire 1 2 inst|u1|inst|inst5|inst4~1_combout $end
$var wire 1 3 inst|u1|inst|inst5|inst4~2_combout $end
$var wire 1 4 inst|u1|inst|inst7|inst1~0_combout $end
$var wire 1 5 inst|u1|inst|inst6|inst1~combout $end
$var wire 1 6 inst|Add0~2_combout $end
$var wire 1 7 inst|new_card_value_int[1]~10_combout $end
$var wire 1 8 inst|Equal0~0_combout $end
$var wire 1 9 inst|new_card_value_int[0]~11_combout $end
$var wire 1 : inst|u1|inst5|inst1|inst4~0_combout $end
$var wire 1 ; inst|u1|inst5|inst2|inst1~0_combout $end
$var wire 1 < inst|new_card_value_int[3]~5_combout $end
$var wire 1 = inst|new_card_value_int[2]~9_combout $end
$var wire 1 > inst|LessThan0~0_combout $end
$var wire 1 ? inst|new_card_value_int[3]~6_combout $end
$var wire 1 @ inst|Add0~0_combout $end
$var wire 1 A inst|Add0~1_combout $end
$var wire 1 B inst|new_card_value_int[3]~7_combout $end
$var wire 1 C inst|new_card_value_int[3]~8_combout $end
$var wire 1 D inst|new_card_value_int[3]~12_combout $end
$var wire 1 E inst|Equal2~0_combout $end
$var wire 1 F inst|sum[0]~1 $end
$var wire 1 G inst|test_new_sum_int[1]~1 $end
$var wire 1 H inst|test_new_sum_int[2]~3 $end
$var wire 1 I inst|test_new_sum_int[3]~5 $end
$var wire 1 J inst|test_new_sum_int[4]~7 $end
$var wire 1 K inst|Add1~0_combout $end
$var wire 1 L inst|test_new_sum_int[3]~4_combout $end
$var wire 1 M inst|test_new_sum_int[1]~0_combout $end
$var wire 1 N inst|test_new_sum_int[2]~2_combout $end
$var wire 1 O inst|LessThan1~0_combout $end
$var wire 1 P inst|legal_play~2_combout $end
$var wire 1 Q inst|sum[5]~2_combout $end
$var wire 1 R inst|new_sum_int[5]~3_combout $end
$var wire 1 S inst|sum[3]~3_combout $end
$var wire 1 T inst|new_sum_int[5]~2_combout $end
$var wire 1 U inst|sum[1]~4_combout $end
$var wire 1 V inst|sum[5]~5_combout $end
$var wire 1 W inst|sum[2]~6_combout $end
$var wire 1 X inst|sum[5]~7_combout $end
$var wire 1 Y inst|test_new_sum_int[4]~6_combout $end
$var wire 1 Z inst|Add2~0_combout $end
$var wire 1 [ inst|sum[4]~8_combout $end
$var wire 1 \ inst|sum[0]~0_combout $end
$var wire 1 ] top_card~combout [5] $end
$var wire 1 ^ top_card~combout [4] $end
$var wire 1 _ top_card~combout [3] $end
$var wire 1 ` top_card~combout [2] $end
$var wire 1 a top_card~combout [1] $end
$var wire 1 b top_card~combout [0] $end
$var wire 1 c old_sum~combout [5] $end
$var wire 1 d old_sum~combout [4] $end
$var wire 1 e old_sum~combout [3] $end
$var wire 1 f old_sum~combout [2] $end
$var wire 1 g old_sum~combout [1] $end
$var wire 1 h old_sum~combout [0] $end
$upscope $end
$upscope $end
$enddefinitions $end
#0
$dumpvars
b0 !
b0 "
1#
x)
x(
0'
x&
0%
x$
x*
0+
1,
x-
1.
1/
10
01
02
03
04
05
16
x7
x8
x9
1:
0;
x<
1=
x>
0?
1@
0A
0B
1C
xD
xE
0F
1G
0H
1I
0J
0K
xL
xM
0N
0O
1P
0Q
1R
xS
xT
xU
xV
0W
xX
0Y
xZ
0[
x\
0b
0a
0`
0_
0^
0]
0h
0g
0f
0e
0d
0c
$end
#50000
b1 "
1b
0*
xF
xG
xN
xW
x'
#100000
b11 "
b10 "
0b
1a
1*
0F
#150000
b11 "
1b
0*
xF
#200000
b111 "
b1 !
b101 "
b100 "
1h
0b
0a
1`
1*
06
0F
xH
17
1G
xI
1M
08
0H
1N
xY
1Z
1W
0U
xO
19
1I
x[
0X
xU
xR
xP
0\
1E
0>
0Y
1'
x%
1(
0V
1T
1R
0D
1<
0O
0$
x#
0)
x(
0U
0[
0L
1P
0S
0%
1#
1(
0&
#250000
b101 "
1b
0*
1\
1V
1)
#300000
b111 "
b110 "
0b
1a
1*
0\
0G
0M
0V
1H
0N
1U
0)
1L
0Z
0W
0(
1S
0'
1&
#350000
b111 "
1b
0*
1\
1)
#400000
b1111 "
b11 !
b1011 "
b10 !
b1001 "
b1000 "
0h
1g
0b
0a
0`
1_
1*
09
0@
0\
1G
1M
0H
1N
0I
0L
1\
0N
1Z
1W
0U
0S
1I
1L
1Y
0)
1V
0W
1S
1O
1[
0Y
1)
1'
0&
1(
1X
0V
0P
0[
0O
0'
1&
1%
0X
1V
1P
1$
0#
0%
1X
0$
1#
1$
#450000
b1001 "
1b
0*
1F
0\
0G
0M
0V
0)
1N
0Z
1U
0X
1Z
1W
0$
0(
1'
#500000
b1011 "
b1010 "
0b
1a
1*
0F
1\
1M
0M
0U
1)
1U
1V
1(
0V
0(
#550000
b1011 "
1b
0*
1F
0\
1M
0)
0U
1(
#600000
b1111 "
b11 !
b1101 "
b1100 "
1h
0b
0a
1`
1*
1A
19
16
0F
1\
0M
1H
0N
0=
0\
07
1G
1M
1V
0Z
0W
1U
0I
0L
1)
0V
0M
1Z
0U
0S
1X
1Y
0)
0'
0(
0X
0Z
1U
1[
0&
1$
1(
0$
1%
0(
#650000
b1101 "
1b
0*
1\
1)
#700000
b1111 "
b1110 "
0b
1a
1*
0\
1M
1Z
0U
0)
1(
#750000
b1111 "
1b
0*
1\
1V
1)
