Lab1/simulation/qsim/g07_lab1.msim.vcd
$comment
	File created using the following command:
		vcd file g07_lab1.msim.vcd -direction
$end
$date
	Sun Sep 24 15:34:01 2017
$end
$version
	ModelSim Version 10.1d
$end
$timescale
	1ps
$end
$scope module g07_Modulo_13_vlg_vec_tst $end
$var reg 6 ! A [5:0] $end
$var wire 1 " Amod13 [3] $end
$var wire 1 # Amod13 [2] $end
$var wire 1 $ Amod13 [1] $end
$var wire 1 % Amod13 [0] $end
$var wire 1 & floor13 [2] $end
$var wire 1 ' floor13 [1] $end
$var wire 1 ( floor13 [0] $end
$var wire 1 ) sampler $end
$scope module i1 $end
$var wire 1 * gnd $end
$var wire 1 + vcc $end
$var wire 1 , unknown $end
$var tri1 1 - devclrn $end
$var tri1 1 . devpor $end
$var tri1 1 / devoe $end
$var wire 1 0 inst5|inst3|inst1~0_combout $end
$var wire 1 1 inst|inst7|inst1~0_combout $end
$var wire 1 2 inst|inst6|inst1~combout $end
$var wire 1 3 inst5|inst1|inst4~0_combout $end
$var wire 1 4 inst4|inst1|inst2~combout $end
$var wire 1 5 inst5|inst2|inst4~0_combout $end
$var wire 1 6 inst5|inst3|inst1~combout $end
$var wire 1 7 inst3|inst2|inst1~0_combout $end
$var wire 1 8 inst5|inst2|inst1~combout $end
$var wire 1 9 inst5|inst1|inst1~0_combout $end
$var wire 1 : inst|inst5|inst4~1_combout $end
$var wire 1 ; inst|inst5|inst4~0_combout $end
$var wire 1 < inst|inst5|inst4~2_combout $end
$var wire 1 = inst5|inst|inst~0_combout $end
$var wire 1 > inst|inst7|inst2~combout $end
$var wire 1 ? A~combout [5] $end
$var wire 1 @ A~combout [4] $end
$var wire 1 A A~combout [3] $end
$var wire 1 B A~combout [2] $end
$var wire 1 C A~combout [1] $end
$var wire 1 D A~combout [0] $end
$upscope $end
$upscope $end
$enddefinitions $end
#0
$dumpvars
b0 !
0%
0$
0#
0"
0(
0'
0&
x)
0*
1+
x,
1-
1.
1/
00
01
02
13
04
15
16
07
18
19
0:
0;
0<
0=
0>
0D
0C
0B
0A
0@
0?
$end
#10000
b1 !
1D
0)
1=
1%
#20000
b11 !
b10 !
0D
1C
1)
0=
09
0%
1$
#30000
b11 !
1D
0)
1=
1%
#40000
b111 !
b101 !
b100 !
0D
0C
1B
1)
0=
19
08
0%
0$
1#
#50000
b101 !
1D
0)
1=
1%
#60000
b111 !
b110 !
0D
1C
1)
0=
09
0%
1$
#70000
b111 !
1D
0)
1=
1%
#80000
b1111 !
b1011 !
b1001 !
b1000 !
0D
0C
0B
1A
1)
0=
19
1;
18
10
06
0%
0$
0#
1"
#90000
b1001 !
1D
0)
1=
1%
#100000
b1011 !
b1010 !
0D
1C
1)
0=
09
0;
1:
0%
1$
#110000
b1011 !
1D
0)
1=
1%
#120000
b1111 !
b1101 !
b1100 !
0D
0C
1B
1)
0=
1<
19
1;
0:
08
1=
17
12
00
0<
0%
0$
1#
18
09
03
16
0=
07
02
10
1%
1(
19
13
06
0%
0(
0#
1$
0"
08
0$
1"
1#
#130000
b1101 !
1D
0)
1=
1<
0=
17
12
00
1%
18
16
0%
1(
0#
0"
#140000
b1111 !
b1110 !
0D
1C
1)
1=
0<
0;
1:
0=
07
02
10
1<
1%
08
09
06
1=
17
12
00
0%
0(
18
19
16
1%
1(
1#
1$
1"
0#
0$
0"
#150000
b1111 !
1D
0)
0=
09
0%
1$
#160000
b11111 !
b10111 !
b10011 !
b10001 !
b10000 !
0D
0C
0B
0A
1@
1)
0<
03
0:
08
05
10
07
02
11
1=
17
12
01
0(
1'
1#
18
1%
1(
0'
0#
#170000
b10001 !
1D
0)
0=
19
13
08
0%
0$
1#
#180000
b10011 !
b10010 !
0D
1C
1)
1=
1%
#190000
b10011 !
1D
0)
0=
09
0%
1$
#200000
b10111 !
b10101 !
b10100 !
0D
0C
1B
1)
1=
03
18
15
08
05
06
1%
0#
16
1#
1"
0"
#210000
b10101 !
1D
0)
0=
19
13
18
15
0%
0$
06
0#
1"
#220000
b10111 !
b10110 !
0D
1C
1)
1=
1%
#230000
b10111 !
1D
0)
0=
09
0%
1$
#240000
b11111 !
b11011 !
b11001 !
b11000 !
0D
0C
0B
1A
1)
1=
03
1:
08
05
00
18
1%
1#
0#
#250000
b11001 !
1D
0)
0=
19
13
08
0%
0$
1#
#260000
b11011 !
b11010 !
0D
1C
1)
1=
1;
1<
1%
0=
07
02
11
18
15
0%
0(
1'
16
0#
0"
#270000
b11011 !
1D
0)
1=
1%
#280000
b11111 !
b11101 !
b11100 !
0D
0C
1B
1)
0=
09
03
0;
08
18
0%
1$
1#
0#
#290000
b11101 !
1D
0)
1=
1%
#300000
b11111 !
b11110 !
0D
1C
1)
0=
19
13
1;
08
0%
0$
1#
#310000
b11111 !
1D
0)
1=
1%
#320000
b111111 !
b101111 !
b100111 !
b100011 !
b100001 !
b100000 !
0D
0C
0B
0A
0@
1?
1)
09
03
0;
0:
18
14
12
05
0<
19
1(
1$
0#
06
0=
04
02
10
0$
08
09
16
0%
0(
1"
1#
1$
0"
#330000
b100001 !
1D
0)
1=
1%
#340000
b100011 !
b100010 !
0D
1C
1)
0=
19
13
1;
18
15
0%
0$
06
0#
1"
#350000
b100011 !
1D
0)
1=
1%
#360000
b100111 !
b100101 !
b100100 !
0D
0C
1B
1)
0=
09
03
0;
08
18
0%
1$
1#
0#
#370000
b100101 !
1D
0)
1=
1%
#380000
b100111 !
b100110 !
0D
1C
1)
0=
19
13
1;
08
0%
0$
1#
#390000
b100111 !
1D
0)
1=
1<
0=
14
12
00
1%
18
16
0%
1(
0#
0"
#400000
b101111 !
b101011 !
b101001 !
b101000 !
0D
0C
0B
1A
1)
1=
0<
03
1:
08
05
10
0=
04
02
00
18
1<
1%
1#
08
09
06
1=
14
12
10
0%
0(
0#
18
19
16
1%
1(
1#
1$
1"
0#
0$
0"
#410000
b101001 !
1D
0)
0=
09
0%
1$
#420000
b101011 !
b101010 !
0D
1C
1)
1=
1%
#430000
b101011 !
1D
0)
0=
19
13
08
0%
0$
1#
#440000
b101111 !
b101101 !
b101100 !
0D
0C
1B
1)
1=
03
18
15
08
05
06
1%
0#
16
1#
1"
0"
#450000
b101101 !
1D
0)
0=
09
0%
1$
#460000
b101111 !
b101110 !
0D
1C
1)
1=
1%
#470000
b101111 !
1D
0)
0=
19
13
18
15
0%
0$
06
0#
1"
#480000
b111111 !
b110111 !
b110011 !
b110001 !
b110000 !
0D
0C
0B
0A
1@
1)
03
0;
08
05
00
1>
17
04
02
01
18
0<
13
1&
0(
0'
1#
0>
1=
07
14
12
11
08
0#
03
0&
1%
1(
1'
1#
18
0#
#490000
b110001 !
1D
0)
0=
09
0%
1$
#500000
b110011 !
b110010 !
0D
1C
1)
1=
1%
#510000
b110011 !
1D
0)
0=
19
13
08
0%
0$
1#
#520000
b110111 !
b110101 !
b110100 !
0D
0C
1B
1)
1=
1<
03
18
15
1>
0=
17
04
02
01
08
05
16
1%
0#
13
06
1&
0%
0(
0'
1#
0"
18
15
1"
16
0#
0"
#530000
b110101 !
1D
0)
1=
1%
#540000
b110111 !
b110110 !
0D
1C
1)
0=
09
0%
1$
#550000
b110111 !
1D
0)
1=
1%
#560000
b111111 !
b111011 !
b111001 !
b111000 !
0D
0C
0B
1A
1)
0=
0<
19
1;
08
05
10
0>
1=
07
14
12
11
1<
0%
0$
1#
03
1>
0=
17
04
02
01
0&
1%
1(
1'
18
13
1&
0%
0(
0'
08
0#
1#
#570000
b111001 !
1D
0)
1=
1%
#580000
b111011 !
b111010 !
0D
1C
1)
0=
09
0%
1$
#590000
b111011 !
1D
0)
1=
1%
#600000
b111111 !
b111101 !
b111100 !
0D
0C
1B
1)
0=
19
18
15
06
0%
0$
0#
1"
#610000
b111101 !
1D
0)
1=
1%
#620000
b111111 !
b111110 !
0D
1C
1)
0=
09
0%
1$
#630000
b111111 !
1D
0)
1=
1%
#640000
b11111 !
b1111 !
b111 !
b11 !
b1 !
b0 !
0D
0C
0B
0A
0@
0?
1)
19
0;
0:
08
05
0>
12
0<
16
09
03
0&
1(
0$
1#
0=
07
02
00
18
0"
1$
08
19
13
06
0%
0(
0#
18
15
1#
0$
1"
16
0#
0"
#650000
b1 !
1D
0)
1=
1%
#660000
b11 !
b10 !
0D
1C
1)
0=
09
0%
1$
#670000
b11 !
1D
0)
1=
1%
#680000
b111 !
b101 !
b100 !
0D
0C
1B
1)
0=
19
08
0%
0$
1#
#690000
b101 !
1D
0)
1=
1%
#700000
b111 !
b110 !
0D
1C
1)
0=
09
0%
1$
#710000
b111 !
1D
0)
1=
1%
#720000
b1111 !
b1011 !
b1001 !
b1000 !
0D
0C
0B
1A
1)
0=
19
1;
18
10
06
0%
0$
0#
1"
#730000
b1001 !
1D
0)
1=
1%
#740000
b1011 !
b1010 !
0D
1C
1)
0=
09
0;
1:
0%
1$
#750000
b1011 !
1D
0)
1=
1%
#760000
b1111 !
b1101 !
b1100 !
0D
0C
1B
1)
0=
1<
19
1;
0:
08
1=
17
12
00
0<
0%
0$
1#
18
09
03
16
0=
07
02
10
1%
1(
19
13
06
0%
0(
0#
1$
0"
08
0$
1"
1#
#770000
b1101 !
1D
0)
1=
1<
0=
17
12
00
1%
18
16
0%
1(
0#
0"
#780000
b1111 !
b1110 !
0D
1C
1)
1=
0<
0;
1:
0=
07
02
10
1<
1%
08
09
06
1=
17
12
00
0%
0(
18
19
16
1%
1(
1#
1$
1"
0#
0$
0"
#790000
b1111 !
1D
0)
0=
09
0%
1$
#800000
b11111 !
b10111 !
b10011 !
b10001 !
b10000 !
0D
0C
0B
0A
1@
1)
0<
03
0:
08
05
10
07
02
11
1=
17
12
01
0(
1'
1#
18
1%
1(
0'
0#
#810000
b10001 !
1D
0)
0=
19
13
08
0%
0$
1#
#820000
b10011 !
b10010 !
0D
1C
1)
1=
1%
#830000
b10011 !
1D
0)
0=
09
0%
1$
#840000
b10111 !
b10101 !
b10100 !
0D
0C
1B
1)
1=
03
18
15
08
05
06
1%
0#
16
1#
1"
0"
#850000
b10101 !
1D
0)
0=
19
13
18
15
0%
0$
06
0#
1"
#860000
b10111 !
b10110 !
0D
1C
1)
1=
1%
#870000
b10111 !
1D
0)
0=
09
0%
1$
#880000
b11111 !
b11011 !
b11001 !
b11000 !
0D
0C
0B
1A
1)
1=
03
1:
08
05
00
18
1%
1#
0#
#890000
b11001 !
1D
0)
0=
19
13
08
0%
0$
1#
#900000
b11011 !
b11010 !
0D
1C
1)
1=
1;
1<
1%
0=
07
02
11
18
15
0%
0(
1'
16
0#
0"
#910000
b11011 !
1D
0)
1=
1%
#920000
b11111 !
b11101 !
b11100 !
0D
0C
1B
1)
0=
09
03
0;
08
18
0%
1$
1#
0#
#930000
b11101 !
1D
0)
1=
1%
#940000
b11111 !
b11110 !
0D
1C
1)
0=
19
13
1;
08
0%
0$
1#
#950000
b11111 !
1D
0)
1=
1%
#960000
b111111 !
b101111 !
b100111 !
b100011 !
b100001 !
b100000 !
0D
0C
0B
0A
0@
1?
1)
09
03
0;
0:
18
14
12
05
0<
19
1(
1$
0#
06
0=
04
02
10
0$
08
09
16
0%
0(
1"
1#
1$
0"
#970000
b100001 !
1D
0)
1=
1%
#980000
b100011 !
b100010 !
0D
1C
1)
0=
19
13
1;
18
15
0%
0$
06
0#
1"
#990000
b100011 !
1D
0)
1=
1%
#1000000
b100111 !
b100101 !
b100100 !
0D
0C
1B
1)
0=
09
03
0;
08
18
0%
1$
1#
0#
#1010000
b100101 !
1D
0)
1=
1%
#1020000
b100111 !
b100110 !
0D
1C
1)
0=
19
13
1;
08
0%
0$
1#
#1030000
b100111 !
1D
0)
1=
1<
0=
14
12
00
1%
18
16
0%
1(
0#
0"
#1040000
b101111 !
b101011 !
b101001 !
b101000 !
0D
0C
0B
1A
1)
1=
0<
03
1:
08
05
10
0=
04
02
00
18
1<
1%
1#
08
09
06
1=
14
12
10
0%
0(
0#
18
19
16
1%
1(
1#
1$
1"
0#
0$
0"
#1050000
b101001 !
1D
0)
0=
09
0%
1$
#1060000
b101011 !
b101010 !
0D
1C
1)
1=
1%
#1070000
b101011 !
1D
0)
0=
19
13
08
0%
0$
1#
#1080000
b101111 !
b101101 !
b101100 !
0D
0C
1B
1)
1=
03
18
15
08
05
06
1%
0#
16
1#
1"
0"
#1090000
b101101 !
1D
0)
0=
09
0%
1$
#1100000
b101111 !
b101110 !
0D
1C
1)
1=
1%
#1110000
b101111 !
1D
0)
0=
19
13
18
15
0%
0$
06
0#
1"
#1120000
b111111 !
b110111 !
b110011 !
b110001 !
b110000 !
0D
0C
0B
0A
1@
1)
03
0;
08
05
00
1>
17
04
02
01
18
0<
13
1&
0(
0'
1#
0>
1=
07
14
12
11
08
0#
03
0&
1%
1(
1'
1#
18
0#
#1130000
b110001 !
1D
0)
0=
09
0%
1$
#1140000
b110011 !
b110010 !
0D
1C
1)
1=
1%
#1150000
b110011 !
1D
0)
0=
19
13
08
0%
0$
1#
#1160000
b110111 !
b110101 !
b110100 !
0D
0C
1B
1)
1=
1<
03
18
15
1>
0=
17
04
02
01
08
05
16
1%
0#
13
06
1&
0%
0(
0'
1#
0"
18
15
1"
16
0#
0"
#1170000
b110101 !
1D
0)
1=
1%
#1180000
b110111 !
b110110 !
0D
1C
1)
0=
09
0%
1$
#1190000
b110111 !
1D
0)
1=
1%
#1200000
b111111 !
b111011 !
b111001 !
b111000 !
0D
0C
0B
1A
1)
0=
0<
19
1;
08
05
10
0>
1=
07
14
12
11
1<
0%
0$
1#
03
1>
0=
17
04
02
01
0&
1%
1(
1'
18
13
1&
0%
0(
0'
08
0#
1#
#1210000
b111001 !
1D
0)
1=
1%
#1220000
b111011 !
b111010 !
0D
1C
1)
0=
09
0%
1$
#1230000
b111011 !
1D
0)
1=
1%
#1240000
b111111 !
b111101 !
b111100 !
0D
0C
1B
1)
0=
19
18
15
06
0%
0$
0#
1"
#1250000
b111101 !
1D
0)
1=
1%
#1260000
b111111 !
b111110 !
0D
1C
1)
0=
09
0%
1$
#1270000
b111111 !
1D
0)
1=
1%
#1280000
b11111 !
b1111 !
b111 !
b11 !
b1 !
b0 !
0D
0C
0B
0A
0@
0?
1)
19
0;
0:
08
05
0>
12
0<
16
09
03
0&
1(
0$
1#
0=
07
02
00
18
0"
1$
08
19
13
06
0%
0(
0#
18
15
1#
0$
1"
16
0#
0"
#1290000
b1 !
1D
0)
1=
1%
#1300000
b11 !
b10 !
0D
1C
1)
0=
09
0%
1$
#1310000
b11 !
1D
0)
1=
1%
#1320000
b111 !
b101 !
b100 !
0D
0C
1B
1)
0=
19
08
0%
0$
1#
#1330000
b101 !
1D
0)
1=
1%
#1340000
b111 !
b110 !
0D
1C
1)
0=
09
0%
1$
#1350000
b111 !
1D
0)
1=
1%
#1360000
b1111 !
b1011 !
b1001 !
b1000 !
0D
0C
0B
1A
1)
0=
19
1;
18
10
06
0%
0$
0#
1"
#1370000
b1001 !
1D
0)
1=
1%
#1380000
b1011 !
b1010 !
0D
1C
1)
0=
09
0;
1:
0%
1$
#1390000
b1011 !
1D
0)
1=
1%
#1400000
b1111 !
b1101 !
b1100 !
0D
0C
1B
1)
0=
1<
19
1;
0:
08
1=
17
12
00
0<
0%
0$
1#
18
09
03
16
0=
07
02
10
1%
1(
19
13
06
0%
0(
0#
1$
0"
08
0$
1"
1#
#1410000
b1101 !
1D
0)
1=
1<
0=
17
12
00
1%
18
16
0%
1(
0#
0"
#1420000
b1111 !
b1110 !
0D
1C
1)
1=
0<
0;
1:
0=
07
02
10
1<
1%
08
09
06
1=
17
12
00
0%
0(
18
19
16
1%
1(
1#
1$
1"
0#
0$
0"
#1430000
b1111 !
1D
0)
0=
09
0%
1$
#1440000
b11111 !
b10111 !
b10011 !
b10001 !
b10000 !
0D
0C
0B
0A
1@
1)
0<
03
0:
08
05
10
07
02
11
1=
17
12
01
0(
1'
1#
18
1%
1(
0'
0#
#1450000
b10001 !
1D
0)
0=
19
13
08
0%
0$
1#
#1460000
b10011 !
b10010 !
0D
1C
1)
1=
1%
#1470000
b10011 !
1D
0)
0=
09
0%
1$
#1480000
b10111 !
b10101 !
b10100 !
0D
0C
1B
1)
1=
03
18
15
08
05
06
1%
0#
16
1#
1"
0"
#1490000
b10101 !
1D
0)
0=
19
13
18
15
0%
0$
06
0#
1"
#1500000
b10111 !
b10110 !
0D
1C
1)
1=
1%
#1510000
b10111 !
1D
0)
0=
09
0%
1$
#1520000
b11111 !
b11011 !
b11001 !
b11000 !
0D
0C
0B
1A
1)
1=
03
1:
08
05
00
18
1%
1#
0#
#1530000
b11001 !
1D
0)
0=
19
13
08
0%
0$
1#
#1540000
b11011 !
b11010 !
0D
1C
1)
1=
1;
1<
1%
0=
07
02
11
18
15
0%
0(
1'
16
0#
0"
#1550000
b11011 !
1D
0)
1=
1%
#1560000
b11111 !
b11101 !
b11100 !
0D
0C
1B
1)
0=
09
03
0;
08
18
0%
1$
1#
0#
#1570000
b11101 !
1D
0)
1=
1%
#1580000
b11111 !
b11110 !
0D
1C
1)
0=
19
13
1;
08
0%
0$
1#
#1590000
b11111 !
1D
0)
1=
1%
#1600000
b111111 !
b101111 !
b100111 !
b100011 !
b100001 !
b100000 !
0D
0C
0B
0A
0@
1?
1)
09
03
0;
0:
18
14
12
05
0<
19
1(
1$
0#
06
0=
04
02
10
0$
08
09
16
0%
0(
1"
1#
1$
0"
#1610000
b100001 !
1D
0)
1=
1%
#1620000
b100011 !
b100010 !
0D
1C
1)
0=
19
13
1;
18
15
0%
0$
06
0#
1"
#1630000
b100011 !
1D
0)
1=
1%
#1640000
b100111 !
b100101 !
b100100 !
0D
0C
1B
1)
0=
09
03
0;
08
18
0%
1$
1#
0#
#1650000
b100101 !
1D
0)
1=
1%
#1660000
b100111 !
b100110 !
0D
1C
1)
0=
19
13
1;
08
0%
0$
1#
#1670000
b100111 !
1D
0)
1=
1<
0=
14
12
00
1%
18
16
0%
1(
0#
0"
#1680000
b101111 !
b101011 !
b101001 !
b101000 !
0D
0C
0B
1A
1)
1=
0<
03
1:
08
05
10
0=
04
02
00
18
1<
1%
1#
08
09
06
1=
14
12
10
0%
0(
0#
18
19
16
1%
1(
1#
1$
1"
0#
0$
0"
#1690000
b101001 !
1D
0)
0=
09
0%
1$
#1700000
b101011 !
b101010 !
0D
1C
1)
1=
1%
#1710000
b101011 !
1D
0)
0=
19
13
08
0%
0$
1#
#1720000
b101111 !
b101101 !
b101100 !
0D
0C
1B
1)
1=
03
18
15
08
05
06
1%
0#
16
1#
1"
0"
#1730000
b101101 !
1D
0)
0=
09
0%
1$
#1740000
b101111 !
b101110 !
0D
1C
1)
1=
1%
#1750000
b101111 !
1D
0)
0=
19
13
18
15
0%
0$
06
0#
1"
#1760000
b111111 !
b110111 !
b110011 !
b110001 !
b110000 !
0D
0C
0B
0A
1@
1)
03
0;
08
05
00
1>
17
04
02
01
18
0<
13
1&
0(
0'
1#
0>
1=
07
14
12
11
08
0#
03
0&
1%
1(
1'
1#
18
0#
#1770000
b110001 !
1D
0)
0=
09
0%
1$
#1780000
b110011 !
b110010 !
0D
1C
1)
1=
1%
#1790000
b110011 !
1D
0)
0=
19
13
08
0%
0$
1#
#1800000
b110111 !
b110101 !
b110100 !
0D
0C
1B
1)
1=
1<
03
18
15
1>
0=
17
04
02
01
08
05
16
1%
0#
13
06
1&
0%
0(
0'
1#
0"
18
15
1"
16
0#
0"
#1810000
b110101 !
1D
0)
1=
1%
#1820000
b110111 !
b110110 !
0D
1C
1)
0=
09
0%
1$
#1830000
b110111 !
1D
0)
1=
1%
#1840000
b111111 !
b111011 !
b111001 !
b111000 !
0D
0C
0B
1A
1)
0=
0<
19
1;
08
05
10
0>
1=
07
14
12
11
1<
0%
0$
1#
03
1>
0=
17
04
02
01
0&
1%
1(
1'
18
13
1&
0%
0(
0'
08
0#
1#
#1850000
b111001 !
1D
0)
1=
1%
#1860000
b111011 !
b111010 !
0D
1C
1)
0=
09
0%
1$
#1870000
b111011 !
1D
0)
1=
1%
#1880000
b111111 !
b111101 !
b111100 !
0D
0C
1B
1)
0=
19
18
15
06
0%
0$
0#
1"
#1890000
b111101 !
1D
0)
1=
1%
#1900000
b111111 !
b111110 !
0D
1C
1)
0=
09
0%
1$
#1910000
b111111 !
1D
0)
1=
1%
#1920000
b11111 !
b1111 !
b111 !
b11 !
b1 !
b0 !
0D
0C
0B
0A
0@
0?
1)
19
0;
0:
08
05
0>
12
0<
16
09
03
0&
1(
0$
1#
0=
07
02
00
18
0"
1$
08
19
13
06
0%
0(
0#
18
15
1#
0$
1"
16
0#
0"
#1930000
b1 !
1D
0)
1=
1%
#1940000
b11 !
b10 !
0D
1C
1)
0=
09
0%
1$
#1950000
b11 !
1D
0)
1=
1%
#1960000
b111 !
b101 !
b100 !
0D
0C
1B
1)
0=
19
08
0%
0$
1#
#1970000
b101 !
1D
0)
1=
1%
#1980000
b111 !
b110 !
0D
1C
1)
0=
09
0%
1$
#1990000
b111 !
1D
0)
1=
1%
#2000000
b1111 !
b1011 !
b1001 !
b1000 !
0D
0C
0B
1A
1)
0=
19
1;
18
10
06
0%
0$
0#
1"
#2010000
b1001 !
1D
0)
1=
1%
#2020000
b1011 !
b1010 !
0D
1C
1)
0=
09
0;
1:
0%
1$
#2030000
b1011 !
1D
0)
1=
1%
#2040000
b1111 !
b1101 !
b1100 !
0D
0C
1B
1)
0=
1<
19
1;
0:
08
1=
17
12
00
0<
0%
0$
1#
18
09
03
16
0=
07
02
10
1%
1(
19
13
06
0%
0(
0#
1$
0"
08
0$
1"
1#
#2050000
b1101 !
1D
0)
1=
1<
0=
17
12
00
1%
18
16
0%
1(
0#
0"
#2060000
b1111 !
b1110 !
0D
1C
1)
1=
0<
0;
1:
0=
07
02
10
1<
1%
08
09
06
1=
17
12
00
0%
0(
18
19
16
1%
1(
1#
1$
1"
0#
0$
0"
#2070000
b1111 !
1D
0)
0=
09
0%
1$
#2080000
b11111 !
b10111 !
b10011 !
b10001 !
b10000 !
0D
0C
0B
0A
1@
1)
0<
03
0:
08
05
10
07
02
11
1=
17
12
01
0(
1'
1#
18
1%
1(
0'
0#
#2090000
b10001 !
1D
0)
0=
19
13
08
0%
0$
1#
#2100000
b10011 !
b10010 !
0D
1C
1)
1=
1%
#2110000
b10011 !
1D
0)
0=
09
0%
1$
#2120000
b10111 !
b10101 !
b10100 !
0D
0C
1B
1)
1=
03
18
15
08
05
06
1%
0#
16
1#
1"
0"
#2130000
b10101 !
1D
0)
0=
19
13
18
15
0%
0$
06
0#
1"
#2140000
b10111 !
b10110 !
0D
1C
1)
1=
1%
#2150000
b10111 !
1D
0)
0=
09
0%
1$
#2160000
b11111 !
b11011 !
b11001 !
b11000 !
0D
0C
0B
1A
1)
1=
03
1:
08
05
00
18
1%
1#
0#
#2170000
b11001 !
1D
0)
0=
19
13
08
0%
0$
1#
#2180000
b11011 !
b11010 !
0D
1C
1)
1=
1;
1<
1%
0=
07
02
11
18
15
0%
0(
1'
16
0#
0"
#2190000
b11011 !
1D
0)
1=
1%
#2200000
b11111 !
b11101 !
b11100 !
0D
0C
1B
1)
0=
09
03
0;
08
18
0%
1$
1#
0#
#2210000
b11101 !
1D
0)
1=
1%
#2220000
b11111 !
b11110 !
0D
1C
1)
0=
19
13
1;
08
0%
0$
1#
#2230000
b11111 !
1D
0)
1=
1%
#2240000
b111111 !
b101111 !
b100111 !
b100011 !
b100001 !
b100000 !
0D
0C
0B
0A
0@
1?
1)
09
03
0;
0:
18
14
12
05
0<
19
1(
1$
0#
06
0=
04
02
10
0$
08
09
16
0%
0(
1"
1#
1$
0"
#2250000
b100001 !
1D
0)
1=
1%
#2260000
b100011 !
b100010 !
0D
1C
1)
0=
19
13
1;
18
15
0%
0$
06
0#
1"
#2270000
b100011 !
1D
0)
1=
1%
#2280000
b100111 !
b100101 !
b100100 !
0D
0C
1B
1)
0=
09
03
0;
08
18
0%
1$
1#
0#
#2290000
b100101 !
1D
0)
1=
1%
#2300000
b100111 !
b100110 !
0D
1C
1)
0=
19
13
1;
08
0%
0$
1#
#2310000
b100111 !
1D
0)
1=
1<
0=
14
12
00
1%
18
16
0%
1(
0#
0"
#2320000
b101111 !
b101011 !
b101001 !
b101000 !
0D
0C
0B
1A
1)
1=
0<
03
1:
08
05
10
0=
04
02
00
18
1<
1%
1#
08
09
06
1=
14
12
10
0%
0(
0#
18
19
16
1%
1(
1#
1$
1"
0#
0$
0"
#2330000
b101001 !
1D
0)
0=
09
0%
1$
#2340000
b101011 !
b101010 !
0D
1C
1)
1=
1%
#2350000
b101011 !
1D
0)
0=
19
13
08
0%
0$
1#
#2360000
b101111 !
b101101 !
b101100 !
0D
0C
1B
1)
1=
03
18
15
08
05
06
1%
0#
16
1#
1"
0"
#2370000
b101101 !
1D
0)
0=
09
0%
1$
#2380000
b101111 !
b101110 !
0D
1C
1)
1=
1%
#2390000
b101111 !
1D
0)
0=
19
13
18
15
0%
0$
06
0#
1"
#2400000
b111111 !
b110111 !
b110011 !
b110001 !
b110000 !
0D
0C
0B
0A
1@
1)
03
0;
08
05
00
1>
17
04
02
01
18
0<
13
1&
0(
0'
1#
0>
1=
07
14
12
11
08
0#
03
0&
1%
1(
1'
1#
18
0#
#2410000
b110001 !
1D
0)
0=
09
0%
1$
#2420000
b110011 !
b110010 !
0D
1C
1)
1=
1%
#2430000
b110011 !
1D
0)
0=
19
13
08
0%
0$
1#
#2440000
b110111 !
b110101 !
b110100 !
0D
0C
1B
1)
1=
1<
03
18
15
1>
0=
17
04
02
01
08
05
16
1%
0#
13
06
1&
0%
0(
0'
1#
0"
18
15
1"
16
0#
0"
#2450000
b110101 !
1D
0)
1=
1%
#2460000
b110111 !
b110110 !
0D
1C
1)
0=
09
0%
1$
#2470000
b110111 !
1D
0)
1=
1%
#2480000
b111111 !
b111011 !
b111001 !
b111000 !
0D
0C
0B
1A
1)
0=
0<
19
1;
08
05
10
0>
1=
07
14
12
11
1<
0%
0$
1#
03
1>
0=
17
04
02
01
0&
1%
1(
1'
18
13
1&
0%
0(
0'
08
0#
1#
#2490000
b111001 !
1D
0)
1=
1%
#2500000
b111011 !
b111010 !
0D
1C
1)
0=
09
0%
1$
#2510000
b111011 !
1D
0)
1=
1%
#2520000
b111111 !
b111101 !
b111100 !
0D
0C
1B
1)
0=
19
18
15
06
0%
0$
0#
1"
#2530000
b111101 !
1D
0)
1=
1%
#2540000
b111111 !
b111110 !
0D
1C
1)
0=
09
0%
1$
#2550000
b111111 !
1D
0)
1=
1%
#2560000
b11111 !
b1111 !
b111 !
b11 !
b1 !
b0 !
0D
0C
0B
0A
0@
0?
1)
19
0;
0:
08
05
0>
12
0<
16
09
03
0&
1(
0$
1#
0=
07
02
00
18
0"
1$
08
19
13
06
0%
0(
0#
18
15
1#
0$
1"
16
0#
0"
#2570000
b1 !
1D
0)
1=
1%
#2580000
b11 !
b10 !
0D
1C
1)
0=
09
0%
1$
#2590000
b11 !
1D
0)
1=
1%
#2600000
b111 !
b101 !
b100 !
0D
0C
1B
1)
0=
19
08
0%
0$
1#
#2610000
b101 !
1D
0)
1=
1%
#2620000
b111 !
b110 !
0D
1C
1)
0=
09
0%
1$
#2630000
b111 !
1D
0)
1=
1%
#2640000
b1111 !
b1011 !
b1001 !
b1000 !
0D
0C
0B
1A
1)
0=
19
1;
18
10
06
0%
0$
0#
1"
#2650000
b1001 !
1D
0)
1=
1%
#2660000
b1011 !
b1010 !
0D
1C
1)
0=
09
0;
1:
0%
1$
#2670000
b1011 !
1D
0)
1=
1%
#2680000
b1111 !
b1101 !
b1100 !
0D
0C
1B
1)
0=
1<
19
1;
0:
08
1=
17
12
00
0<
0%
0$
1#
18
09
03
16
0=
07
02
10
1%
1(
19
13
06
0%
0(
0#
1$
0"
08
0$
1"
1#
#2690000
b1101 !
1D
0)
1=
1<
0=
17
12
00
1%
18
16
0%
1(
0#
0"
#2700000
b1111 !
b1110 !
0D
1C
1)
1=
0<
0;
1:
0=
07
02
10
1<
1%
08
09
06
1=
17
12
00
0%
0(
18
19
16
1%
1(
1#
1$
1"
0#
0$
0"
#2710000
b1111 !
1D
0)
0=
09
0%
1$
#2720000
b11111 !
b10111 !
b10011 !
b10001 !
b10000 !
0D
0C
0B
0A
1@
1)
0<
03
0:
08
05
10
07
02
11
1=
17
12
01
0(
1'
1#
18
1%
1(
0'
0#
#2730000
b10001 !
1D
0)
0=
19
13
08
0%
0$
1#
#2740000
b10011 !
b10010 !
0D
1C
1)
1=
1%
#2750000
b10011 !
1D
0)
0=
09
0%
1$
#2760000
b10111 !
b10101 !
b10100 !
0D
0C
1B
1)
1=
03
18
15
08
05
06
1%
0#
16
1#
1"
0"
#2770000
b10101 !
1D
0)
0=
19
13
18
15
0%
0$
06
0#
1"
#2780000
b10111 !
b10110 !
0D
1C
1)
1=
1%
#2790000
b10111 !
1D
0)
0=
09
0%
1$
#2800000
b11111 !
b11011 !
b11001 !
b11000 !
0D
0C
0B
1A
1)
1=
03
1:
08
05
00
18
1%
1#
0#
#2810000
b11001 !
1D
0)
0=
19
13
08
0%
0$
1#
#2820000
b11011 !
b11010 !
0D
1C
1)
1=
1;
1<
1%
0=
07
02
11
18
15
0%
0(
1'
16
0#
0"
#2830000
b11011 !
1D
0)
1=
1%
#2840000
b11111 !
b11101 !
b11100 !
0D
0C
1B
1)
0=
09
03
0;
08
18
0%
1$
1#
0#
#2850000
b11101 !
1D
0)
1=
1%
#2860000
b11111 !
b11110 !
0D
1C
1)
0=
19
13
1;
08
0%
0$
1#
#2870000
b11111 !
1D
0)
1=
1%
