Lab1/simulation/qsim/g07_lab1.msim.vcd
$comment
	File created using the following command:
		vcd file g07_lab1.msim.vcd -direction
$end
$date
	Thu Sep 21 16:11:53 2017
$end
$version
	ModelSim Version 10.1d
$end
$timescale
	1ps
$end
$scope module g07_lab1_vlg_vec_tst $end
$var reg 7 ! A [6:0] $end
$var reg 7 " B [6:0] $end
$var wire 1 # AeqB $end
$var wire 1 $ sampler $end
$scope module i1 $end
$var wire 1 % gnd $end
$var wire 1 & vcc $end
$var wire 1 ' unknown $end
$var tri1 1 ( devclrn $end
$var tri1 1 ) devpor $end
$var tri1 1 * devoe $end
$var wire 1 + inst|inst9~0_combout $end
$var wire 1 , inst|inst9~1_combout $end
$var wire 1 - inst|inst9~2_combout $end
$var wire 1 . inst|inst9~3_combout $end
$var wire 1 / A~combout [6] $end
$var wire 1 0 A~combout [5] $end
$var wire 1 1 A~combout [4] $end
$var wire 1 2 A~combout [3] $end
$var wire 1 3 A~combout [2] $end
$var wire 1 4 A~combout [1] $end
$var wire 1 5 A~combout [0] $end
$var wire 1 6 B~combout [6] $end
$var wire 1 7 B~combout [5] $end
$var wire 1 8 B~combout [4] $end
$var wire 1 9 B~combout [3] $end
$var wire 1 : B~combout [2] $end
$var wire 1 ; B~combout [1] $end
$var wire 1 < B~combout [0] $end
$upscope $end
$upscope $end
$enddefinitions $end
#0
$dumpvars
b0 !
b0 "
1#
x$
0%
1&
x'
1(
1)
1*
1+
0,
1-
1.
05
04
03
02
01
00
0/
0<
0;
0:
09
z8
07
06
$end
#5000
b1 !
15
0$
1,
0-
0.
0#
#10000
b11 !
b10 !
05
14
1$
0,
0+
#15000
b11 !
15
0$
1,
#20000
b111 !
b101 !
b100 !
05
04
13
1$
0,
#25000
b101 !
15
0$
1,
#30000
b111 !
b110 !
05
14
1$
0,
#35000
b111 !
15
0$
1,
#40000
b1111 !
b1011 !
b1001 !
b1000 !
05
04
03
12
1$
0,
1+
#45000
b1001 !
15
0$
1,
#50000
b1011 !
b1010 !
05
14
1$
0,
0+
#55000
b1011 !
15
0$
1,
#60000
b1111 !
b1101 !
b1100 !
05
04
13
1$
0,
#65000
b1101 !
15
0$
1,
#70000
b1111 !
b1110 !
05
14
1$
0,
#75000
b1111 !
15
0$
1,
#80000
b11111 !
b10111 !
b10011 !
b10001 !
b10000 !
05
04
03
02
11
1$
0,
1+
1-
#85000
b10001 !
15
0$
1,
0-
#90000
b10011 !
b10010 !
05
14
1$
0,
0+
#95000
b10011 !
15
0$
1,
#100000
b10111 !
b10101 !
b10100 !
05
04
13
1$
0,
#105000
b10101 !
15
0$
1,
#110000
b10111 !
b10110 !
05
14
1$
0,
#115000
b10111 !
15
0$
1,
#120000
b11111 !
b11011 !
b11001 !
b11000 !
05
04
03
12
1$
0,
1+
#125000
b11001 !
15
0$
1,
#130000
b11011 !
b11010 !
05
14
1$
0,
0+
#135000
b11011 !
15
0$
1,
#140000
b11111 !
b11101 !
b11100 !
05
04
13
1$
0,
#145000
b11101 !
15
0$
1,
#150000
b11111 !
b11110 !
05
14
1$
0,
#155000
b11111 !
15
0$
1,
#160000
b111111 !
b101111 !
b100111 !
b100011 !
b100001 !
b100000 !
05
04
03
02
01
10
1$
0,
1+
1-
#165000
b100001 !
15
0$
1,
0-
#170000
b100011 !
b100010 !
05
14
1$
0,
0+
#175000
b100011 !
15
0$
1,
#180000
b100111 !
b100101 !
b100100 !
05
04
13
1$
0,
#185000
b100101 !
15
0$
1,
#190000
b100111 !
b100110 !
05
14
1$
0,
#195000
b100111 !
15
0$
1,
#200000
b101111 !
b101011 !
b101001 !
b101000 !
05
04
03
12
1$
0,
1+
#205000
b101001 !
15
0$
1,
#210000
b101011 !
b101010 !
05
14
1$
0,
0+
#215000
b101011 !
15
0$
1,
#220000
b101111 !
b101101 !
b101100 !
05
04
13
1$
0,
#225000
b101101 !
15
0$
1,
#230000
b101111 !
b101110 !
05
14
1$
0,
#235000
b101111 !
15
0$
1,
#240000
b111111 !
b110111 !
b110011 !
b110001 !
b110000 !
05
04
03
02
11
1$
0,
1+
1-
#245000
b110001 !
15
0$
1,
0-
#250000
b110011 !
b110010 !
05
14
1$
0,
0+
#255000
b110011 !
15
0$
1,
#260000
b110111 !
b110101 !
b110100 !
05
04
13
1$
0,
#265000
b110101 !
15
0$
1,
#270000
b110111 !
b110110 !
05
14
1$
0,
#275000
b110111 !
15
0$
1,
#280000
b111111 !
b111011 !
b111001 !
b111000 !
05
04
03
12
1$
0,
1+
#285000
b111001 !
15
0$
1,
#290000
b111011 !
b111010 !
05
14
1$
0,
0+
#295000
b111011 !
15
0$
1,
#300000
b111111 !
b111101 !
b111100 !
05
04
13
1$
0,
#305000
b111101 !
15
0$
1,
#310000
b111111 !
b111110 !
05
14
1$
0,
#315000
b111111 !
15
0$
1,
#320000
b1111111 !
b1011111 !
b1001111 !
b1000111 !
b1000011 !
b1000001 !
b1000000 !
05
04
03
02
01
00
1/
1$
1+
#325000
b1000001 !
15
0$
#330000
b1000011 !
b1000010 !
05
14
1$
0+
#335000
b1000011 !
15
0$
#340000
b1000111 !
b1000101 !
b1000100 !
05
04
13
1$
#345000
b1000101 !
15
0$
#350000
b1000111 !
b1000110 !
05
14
1$
#355000
b1000111 !
15
0$
#360000
b1001111 !
b1001011 !
b1001001 !
b1001000 !
05
04
03
12
1$
1+
#365000
b1001001 !
15
0$
#370000
b1001011 !
b1001010 !
05
14
1$
0+
#375000
b1001011 !
15
0$
#380000
b1001111 !
b1001101 !
b1001100 !
05
04
13
1$
#385000
b1001101 !
15
0$
#390000
b1001111 !
b1001110 !
05
14
1$
#395000
b1001111 !
15
0$
#400000
b1011111 !
b1010111 !
b1010011 !
b1010001 !
b1010000 !
05
04
03
02
11
1$
1+
#405000
b1010001 !
15
0$
#410000
b1010011 !
b1010010 !
05
14
1$
0+
#415000
b1010011 !
15
0$
#420000
b1010111 !
b1010101 !
b1010100 !
05
04
13
1$
#425000
b1010101 !
15
0$
#430000
b1010111 !
b1010110 !
05
14
1$
#435000
b1010111 !
15
0$
#440000
b1011111 !
b1011011 !
b1011001 !
b1011000 !
05
04
03
12
1$
1+
#445000
b1011001 !
15
0$
#450000
b1011011 !
b1011010 !
05
14
1$
0+
#455000
b1011011 !
15
0$
#460000
b1011111 !
b1011101 !
b1011100 !
05
04
13
1$
#465000
b1011101 !
15
0$
#470000
b1011111 !
b1011110 !
05
14
1$
#475000
b1011111 !
15
0$
#480000
b1111111 !
b1101111 !
b1100111 !
b1100011 !
b1100001 !
b1100000 !
05
04
03
02
01
10
1$
1+
#485000
b1100001 !
15
0$
#490000
b1100011 !
b1100010 !
05
14
1$
0+
#495000
b1100011 !
15
0$
#500000
b1100111 !
b1100101 !
b1100100 !
05
04
13
1$
#505000
b1100101 !
15
0$
#510000
b1100111 !
b1100110 !
05
14
1$
#515000
b1100111 !
15
0$
#520000
b1101111 !
b1101011 !
b1101001 !
b1101000 !
05
04
03
12
1$
1+
#525000
b1101001 !
15
0$
#530000
b1101011 !
b1101010 !
05
14
1$
0+
#535000
b1101011 !
15
0$
#540000
b1101111 !
b1101101 !
b1101100 !
05
04
13
1$
#545000
b1101101 !
15
0$
#550000
b1101111 !
b1101110 !
05
14
1$
#555000
b1101111 !
15
0$
#560000
b1111111 !
b1110111 !
b1110011 !
b1110001 !
b1110000 !
05
04
03
02
11
1$
1+
#565000
b1110001 !
15
0$
#570000
b1110011 !
b1110010 !
05
14
1$
0+
#575000
b1110011 !
15
0$
#580000
b1110111 !
b1110101 !
b1110100 !
05
04
13
1$
#585000
b1110101 !
15
0$
#590000
b1110111 !
b1110110 !
05
14
1$
#595000
b1110111 !
15
0$
#600000
b1111111 !
b1111011 !
b1111001 !
b1111000 !
05
04
03
12
1$
1+
#605000
b1111001 !
15
0$
#610000
b1111011 !
b1111010 !
05
14
1$
0+
#615000
b1111011 !
15
0$
#620000
b1111111 !
b1111101 !
b1111100 !
05
04
13
1$
#625000
b1111101 !
15
0$
#630000
b1111111 !
b1111110 !
05
14
1$
#635000
b1111111 !
15
0$
#640000
b1 "
b111111 !
b11111 !
b1111 !
b111 !
b11 !
b1 !
b0 !
05
04
03
02
01
00
0/
1<
1$
1+
#645000
b1 !
15
0$
0,
1-
1.
1#
#650000
b11 !
b10 !
05
14
1$
1,
0+
0-
0.
0#
#655000
b11 !
15
0$
0,
#660000
b111 !
b101 !
b100 !
05
04
13
1$
1,
#665000
b101 !
15
0$
0,
#670000
b111 !
b110 !
05
14
1$
1,
#675000
b111 !
15
0$
0,
#680000
b1111 !
b1011 !
b1001 !
b1000 !
05
04
03
12
1$
1,
1+
#685000
b1001 !
15
0$
0,
#690000
b1011 !
b1010 !
05
14
1$
1,
0+
#695000
b1011 !
15
0$
0,
#700000
b1111 !
b1101 !
b1100 !
05
04
13
1$
1,
#705000
b1101 !
15
0$
0,
#710000
b1111 !
b1110 !
05
14
1$
1,
#715000
b1111 !
15
0$
0,
#720000
b11111 !
b10111 !
b10011 !
b10001 !
b10000 !
05
04
03
02
11
1$
1,
1+
#725000
b10001 !
15
0$
0,
1-
#730000
b10011 !
b10010 !
05
14
1$
1,
0+
0-
#735000
b10011 !
15
0$
0,
#740000
b10111 !
b10101 !
b10100 !
05
04
13
1$
1,
#745000
b10101 !
15
0$
0,
#750000
b10111 !
b10110 !
05
14
1$
1,
#755000
b10111 !
15
0$
0,
#760000
b11111 !
b11011 !
b11001 !
b11000 !
05
04
03
12
1$
1,
1+
#765000
b11001 !
15
0$
0,
#770000
b11011 !
b11010 !
05
14
1$
1,
0+
#775000
b11011 !
15
0$
0,
#780000
b11111 !
b11101 !
b11100 !
05
04
13
1$
1,
#785000
b11101 !
15
0$
0,
#790000
b11111 !
b11110 !
05
14
1$
1,
#795000
b11111 !
15
0$
0,
#800000
b111111 !
b101111 !
b100111 !
b100011 !
b100001 !
b100000 !
05
04
03
02
01
10
1$
1,
1+
#805000
b100001 !
15
0$
0,
1-
#810000
b100011 !
b100010 !
05
14
1$
1,
0+
0-
#815000
b100011 !
15
0$
0,
#820000
b100111 !
b100101 !
b100100 !
05
04
13
1$
1,
#825000
b100101 !
15
0$
0,
#830000
b100111 !
b100110 !
05
14
1$
1,
#835000
b100111 !
15
0$
0,
#840000
b101111 !
b101011 !
b101001 !
b101000 !
05
04
03
12
1$
1,
1+
#845000
b101001 !
15
0$
0,
#850000
b101011 !
b101010 !
05
14
1$
1,
0+
#855000
b101011 !
15
0$
0,
#860000
b101111 !
b101101 !
b101100 !
05
04
13
1$
1,
#865000
b101101 !
15
0$
0,
#870000
b101111 !
b101110 !
05
14
1$
1,
#875000
b101111 !
15
0$
0,
#880000
b111111 !
b110111 !
b110011 !
b110001 !
b110000 !
05
04
03
02
11
1$
1,
1+
#885000
b110001 !
15
0$
0,
1-
#890000
b110011 !
b110010 !
05
14
1$
1,
0+
0-
#895000
b110011 !
15
0$
0,
#900000
b110111 !
b110101 !
b110100 !
05
04
13
1$
1,
#905000
b110101 !
15
0$
0,
#910000
b110111 !
b110110 !
05
14
1$
1,
#915000
b110111 !
15
0$
0,
#920000
b111111 !
b111011 !
b111001 !
b111000 !
05
04
03
12
1$
1,
1+
#925000
b111001 !
15
0$
0,
#930000
b111011 !
b111010 !
05
14
1$
1,
0+
#935000
b111011 !
15
0$
0,
#940000
b111111 !
b111101 !
b111100 !
05
04
13
1$
1,
#945000
b111101 !
15
0$
0,
#950000
b111111 !
b111110 !
05
14
1$
1,
#955000
b111111 !
15
0$
0,
#960000
b1111111 !
b1011111 !
b1001111 !
b1000111 !
b1000011 !
b1000001 !
b1000000 !
05
04
03
02
01
00
1/
1$
1,
1+
#965000
b1000001 !
15
0$
#970000
b1000011 !
b1000010 !
05
14
1$
0+
#975000
b1000011 !
15
0$
#980000
b1000111 !
b1000101 !
b1000100 !
05
04
13
1$
#985000
b1000101 !
15
0$
#990000
b1000111 !
b1000110 !
05
14
1$
#995000
b1000111 !
15
0$
#1000000
b1001111 !
b1001011 !
b1001001 !
b1001000 !
05
04
03
12
1$
1+
#1005000
b1001001 !
15
0$
#1010000
b1001011 !
b1001010 !
05
14
1$
0+
#1015000
b1001011 !
15
0$
#1020000
b1001111 !
b1001101 !
b1001100 !
05
04
13
1$
#1025000
b1001101 !
15
0$
#1030000
b1001111 !
b1001110 !
05
14
1$
#1035000
b1001111 !
15
0$
#1040000
b1011111 !
b1010111 !
b1010011 !
b1010001 !
b1010000 !
05
04
03
02
11
1$
1+
#1045000
b1010001 !
15
0$
#1050000
b1010011 !
b1010010 !
05
14
1$
0+
#1055000
b1010011 !
15
0$
#1060000
b1010111 !
b1010101 !
b1010100 !
05
04
13
1$
#1065000
b1010101 !
15
0$
#1070000
b1010111 !
b1010110 !
05
14
1$
#1075000
b1010111 !
15
0$
#1080000
b1011111 !
b1011011 !
b1011001 !
b1011000 !
05
04
03
12
1$
1+
#1085000
b1011001 !
15
0$
#1090000
b1011011 !
b1011010 !
05
14
1$
0+
#1095000
b1011011 !
15
0$
#1100000
b1011111 !
b1011101 !
b1011100 !
05
04
13
1$
#1105000
b1011101 !
15
0$
#1110000
b1011111 !
b1011110 !
05
14
1$
#1115000
b1011111 !
15
0$
#1120000
b1111111 !
b1101111 !
b1100111 !
b1100011 !
b1100001 !
b1100000 !
05
04
03
02
01
10
1$
1+
#1125000
b1100001 !
15
0$
#1130000
b1100011 !
b1100010 !
05
14
1$
0+
#1135000
b1100011 !
15
0$
#1140000
b1100111 !
b1100101 !
b1100100 !
05
04
13
1$
#1145000
b1100101 !
15
0$
#1150000
b1100111 !
b1100110 !
05
14
1$
#1155000
b1100111 !
15
0$
#1160000
b1101111 !
b1101011 !
b1101001 !
b1101000 !
05
04
03
12
1$
1+
#1165000
b1101001 !
15
0$
#1170000
b1101011 !
b1101010 !
05
14
1$
0+
#1175000
b1101011 !
15
0$
#1180000
b1101111 !
b1101101 !
b1101100 !
05
04
13
1$
#1185000
b1101101 !
15
0$
#1190000
b1101111 !
b1101110 !
05
14
1$
#1195000
b1101111 !
15
0$
#1200000
b1111111 !
b1110111 !
b1110011 !
b1110001 !
b1110000 !
05
04
03
02
11
1$
1+
#1205000
b1110001 !
15
0$
#1210000
b1110011 !
b1110010 !
05
14
1$
0+
#1215000
b1110011 !
15
0$
#1220000
b1110111 !
b1110101 !
b1110100 !
05
04
13
1$
#1225000
b1110101 !
15
0$
#1230000
b1110111 !
b1110110 !
05
14
1$
#1235000
b1110111 !
15
0$
#1240000
b1111111 !
b1111011 !
b1111001 !
b1111000 !
05
04
03
12
1$
1+
#1245000
b1111001 !
15
0$
#1250000
b1111011 !
b1111010 !
05
14
1$
0+
#1255000
b1111011 !
15
0$
#1260000
b1111111 !
b1111101 !
b1111100 !
05
04
13
1$
#1265000
b1111101 !
15
0$
#1270000
b1111111 !
b1111110 !
05
14
1$
#1275000
b1111111 !
15
0$
#1280000
b11 "
b10 "
b111111 !
b11111 !
b1111 !
b111 !
b11 !
b1 !
b0 !
05
04
03
02
01
00
0/
0<
1;
1$
0,
#1285000
b1 !
15
0$
1,
#1290000
b11 !
b10 !
05
14
1$
0,
1+
1-
1.
1#
#1295000
b11 !
15
0$
1,
0-
0.
0#
#1300000
b111 !
b101 !
b100 !
05
04
13
1$
0,
0+
#1305000
b101 !
15
0$
1,
#1310000
b111 !
b110 !
05
14
1$
0,
#1315000
b111 !
15
0$
1,
#1320000
b1111 !
b1011 !
b1001 !
b1000 !
05
04
03
12
1$
0,
#1325000
b1001 !
15
0$
1,
#1330000
b1011 !
b1010 !
05
14
1$
0,
1+
#1335000
b1011 !
15
0$
1,
#1340000
b1111 !
b1101 !
b1100 !
05
04
13
1$
0,
0+
#1345000
b1101 !
15
0$
1,
#1350000
b1111 !
b1110 !
05
14
1$
0,
#1355000
b1111 !
15
0$
1,
#1360000
b11111 !
b10111 !
b10011 !
b10001 !
b10000 !
05
04
03
02
11
1$
0,
#1365000
b10001 !
15
0$
1,
#1370000
b10011 !
b10010 !
05
14
1$
0,
1+
1-
#1375000
b10011 !
15
0$
1,
0-
#1380000
b10111 !
b10101 !
b10100 !
05
04
13
1$
0,
0+
#1385000
b10101 !
15
0$
1,
#1390000
b10111 !
b10110 !
05
14
1$
0,
#1395000
b10111 !
15
0$
1,
#1400000
b11111 !
b11011 !
b11001 !
b11000 !
05
04
03
12
1$
0,
#1405000
b11001 !
15
0$
1,
#1410000
b11011 !
b11010 !
05
14
1$
0,
1+
#1415000
b11011 !
15
0$
1,
#1420000
b11111 !
b11101 !
b11100 !
05
04
13
1$
0,
0+
#1425000
b11101 !
15
0$
1,
#1430000
b11111 !
b11110 !
05
14
1$
0,
#1435000
b11111 !
15
0$
1,
#1440000
b111111 !
b101111 !
b100111 !
b100011 !
b100001 !
b100000 !
05
04
03
02
01
10
1$
0,
#1445000
b100001 !
15
0$
1,
#1450000
b100011 !
b100010 !
05
14
1$
0,
1+
1-
#1455000
b100011 !
15
0$
1,
0-
#1460000
b100111 !
b100101 !
b100100 !
05
04
13
1$
0,
0+
#1465000
b100101 !
15
0$
1,
#1470000
b100111 !
b100110 !
05
14
1$
0,
#1475000
b100111 !
15
0$
1,
#1480000
b101111 !
b101011 !
b101001 !
b101000 !
05
04
03
12
1$
0,
#1485000
b101001 !
15
0$
1,
#1490000
b101011 !
b101010 !
05
14
1$
0,
1+
#1495000
b101011 !
15
0$
1,
#1500000
b101111 !
b101101 !
b101100 !
05
04
13
1$
0,
0+
#1505000
b101101 !
15
0$
1,
#1510000
b101111 !
b101110 !
05
14
1$
0,
#1515000
b101111 !
15
0$
1,
#1520000
b111111 !
b110111 !
b110011 !
b110001 !
b110000 !
05
04
03
02
11
1$
0,
#1525000
b110001 !
15
0$
1,
#1530000
b110011 !
b110010 !
05
14
1$
0,
1+
1-
#1535000
b110011 !
15
0$
1,
0-
#1540000
b110111 !
b110101 !
b110100 !
05
04
13
1$
0,
0+
#1545000
b110101 !
15
0$
1,
#1550000
b110111 !
b110110 !
05
14
1$
0,
#1555000
b110111 !
15
0$
1,
#1560000
b111111 !
b111011 !
b111001 !
b111000 !
05
04
03
12
1$
0,
#1565000
b111001 !
15
0$
1,
#1570000
b111011 !
b111010 !
05
14
1$
0,
1+
#1575000
b111011 !
15
0$
1,
#1580000
b111111 !
b111101 !
b111100 !
05
04
13
1$
0,
0+
#1585000
b111101 !
15
0$
1,
#1590000
b111111 !
b111110 !
05
14
1$
0,
#1595000
b111111 !
15
0$
1,
#1600000
b1111111 !
b1011111 !
b1001111 !
b1000111 !
b1000011 !
b1000001 !
b1000000 !
05
04
03
02
01
00
1/
1$
#1605000
b1000001 !
15
0$
#1610000
b1000011 !
b1000010 !
05
14
1$
1+
#1615000
b1000011 !
15
0$
#1620000
b1000111 !
b1000101 !
b1000100 !
05
04
13
1$
0+
#1625000
b1000101 !
15
0$
#1630000
b1000111 !
b1000110 !
05
14
1$
#1635000
b1000111 !
15
0$
#1640000
b1001111 !
b1001011 !
b1001001 !
b1001000 !
05
04
03
12
1$
#1645000
b1001001 !
15
0$
#1650000
b1001011 !
b1001010 !
05
14
1$
1+
#1655000
b1001011 !
15
0$
#1660000
b1001111 !
b1001101 !
b1001100 !
05
04
13
1$
0+
#1665000
b1001101 !
15
0$
#1670000
b1001111 !
b1001110 !
05
14
1$
#1675000
b1001111 !
15
0$
#1680000
b1011111 !
b1010111 !
b1010011 !
b1010001 !
b1010000 !
05
04
03
02
11
1$
#1685000
b1010001 !
15
0$
#1690000
b1010011 !
b1010010 !
05
14
1$
1+
#1695000
b1010011 !
15
0$
#1700000
b1010111 !
b1010101 !
b1010100 !
05
04
13
1$
0+
#1705000
b1010101 !
15
0$
#1710000
b1010111 !
b1010110 !
05
14
1$
#1715000
b1010111 !
15
0$
#1720000
b1011111 !
b1011011 !
b1011001 !
b1011000 !
05
04
03
12
1$
#1725000
b1011001 !
15
0$
#1730000
b1011011 !
b1011010 !
05
14
1$
1+
#1735000
b1011011 !
15
0$
#1740000
b1011111 !
b1011101 !
b1011100 !
05
04
13
1$
0+
#1745000
b1011101 !
15
0$
#1750000
b1011111 !
b1011110 !
05
14
1$
#1755000
b1011111 !
15
0$
#1760000
b1111111 !
b1101111 !
b1100111 !
b1100011 !
b1100001 !
b1100000 !
05
04
03
02
01
10
1$
#1765000
b1100001 !
15
0$
#1770000
b1100011 !
b1100010 !
05
14
1$
1+
#1775000
b1100011 !
15
0$
#1780000
b1100111 !
b1100101 !
b1100100 !
05
04
13
1$
0+
#1785000
b1100101 !
15
0$
#1790000
b1100111 !
b1100110 !
05
14
1$
#1795000
b1100111 !
15
0$
#1800000
b1101111 !
b1101011 !
b1101001 !
b1101000 !
05
04
03
12
1$
#1805000
b1101001 !
15
0$
#1810000
b1101011 !
b1101010 !
05
14
1$
1+
#1815000
b1101011 !
15
0$
#1820000
b1101111 !
b1101101 !
b1101100 !
05
04
13
1$
0+
#1825000
b1101101 !
15
0$
#1830000
b1101111 !
b1101110 !
05
14
1$
#1835000
b1101111 !
15
0$
#1840000
b1111111 !
b1110111 !
b1110011 !
b1110001 !
b1110000 !
05
04
03
02
11
1$
#1845000
b1110001 !
15
0$
#1850000
b1110011 !
b1110010 !
05
14
1$
1+
#1855000
b1110011 !
15
0$
#1860000
b1110111 !
b1110101 !
b1110100 !
05
04
13
1$
0+
#1865000
b1110101 !
15
0$
#1870000
b1110111 !
b1110110 !
05
14
1$
#1875000
b1110111 !
15
0$
#1880000
b1111111 !
b1111011 !
b1111001 !
b1111000 !
05
04
03
12
1$
#1885000
b1111001 !
15
0$
#1890000
b1111011 !
b1111010 !
05
14
1$
1+
#1895000
b1111011 !
15
0$
#1900000
b1111111 !
b1111101 !
b1111100 !
05
04
13
1$
0+
#1905000
b1111101 !
15
0$
#1910000
b1111111 !
b1111110 !
05
14
1$
#1915000
b1111111 !
15
0$
#1920000
b11 "
b111111 !
b11111 !
b1111 !
b111 !
b11 !
b1 !
b0 !
05
04
03
02
01
00
0/
1<
1$
#1925000
b1 !
15
0$
0,
#1930000
b11 !
b10 !
05
14
1$
1,
1+
#1935000
b11 !
15
0$
0,
1-
1.
1#
#1940000
b111 !
b101 !
b100 !
05
04
13
1$
1,
0+
0-
0.
0#
#1945000
b101 !
15
0$
0,
#1950000
b111 !
b110 !
05
14
1$
1,
#1955000
b111 !
15
0$
0,
#1960000
b1111 !
b1011 !
b1001 !
b1000 !
05
04
03
12
1$
1,
#1965000
b1001 !
15
0$
0,
#1970000
b1011 !
b1010 !
05
14
1$
1,
1+
#1975000
b1011 !
15
0$
0,
#1980000
b1111 !
b1101 !
b1100 !
05
04
13
1$
1,
0+
#1985000
b1101 !
15
0$
0,
#1990000
b1111 !
b1110 !
05
14
1$
1,
#1995000
b1111 !
15
0$
0,
#2000000
b11111 !
b10111 !
b10011 !
b10001 !
b10000 !
05
04
03
02
11
1$
1,
#2005000
b10001 !
15
0$
0,
#2010000
b10011 !
b10010 !
05
14
1$
1,
1+
#2015000
b10011 !
15
0$
0,
1-
#2020000
b10111 !
b10101 !
b10100 !
05
04
13
1$
1,
0+
0-
#2025000
b10101 !
15
0$
0,
#2030000
b10111 !
b10110 !
05
14
1$
1,
#2035000
b10111 !
15
0$
0,
#2040000
b11111 !
b11011 !
b11001 !
b11000 !
05
04
03
12
1$
1,
#2045000
b11001 !
15
0$
0,
#2050000
b11011 !
b11010 !
05
14
1$
1,
1+
#2055000
b11011 !
15
0$
0,
#2060000
b11111 !
b11101 !
b11100 !
05
04
13
1$
1,
0+
#2065000
b11101 !
15
0$
0,
#2070000
b11111 !
b11110 !
05
14
1$
1,
#2075000
b11111 !
15
0$
0,
#2080000
b111111 !
b101111 !
b100111 !
b100011 !
b100001 !
b100000 !
05
04
03
02
01
10
1$
1,
#2085000
b100001 !
15
0$
0,
#2090000
b100011 !
b100010 !
05
14
1$
1,
1+
#2095000
b100011 !
15
0$
0,
1-
#2100000
b100111 !
b100101 !
b100100 !
05
04
13
1$
1,
0+
0-
#2105000
b100101 !
15
0$
0,
#2110000
b100111 !
b100110 !
05
14
1$
1,
#2115000
b100111 !
15
0$
0,
#2120000
b101111 !
b101011 !
b101001 !
b101000 !
05
04
03
12
1$
1,
#2125000
b101001 !
15
0$
0,
#2130000
b101011 !
b101010 !
05
14
1$
1,
1+
#2135000
b101011 !
15
0$
0,
#2140000
b101111 !
b101101 !
b101100 !
05
04
13
1$
1,
0+
#2145000
b101101 !
15
0$
0,
#2150000
b101111 !
b101110 !
05
14
1$
1,
#2155000
b101111 !
15
0$
0,
#2160000
b111111 !
b110111 !
b110011 !
b110001 !
b110000 !
05
04
03
02
11
1$
1,
#2165000
b110001 !
15
0$
0,
#2170000
b110011 !
b110010 !
05
14
1$
1,
1+
#2175000
b110011 !
15
0$
0,
1-
#2180000
b110111 !
b110101 !
b110100 !
05
04
13
1$
1,
0+
0-
#2185000
b110101 !
15
0$
0,
#2190000
b110111 !
b110110 !
05
14
1$
1,
#2195000
b110111 !
15
0$
0,
#2200000
b111111 !
b111011 !
b111001 !
b111000 !
05
04
03
12
1$
1,
#2205000
b111001 !
15
0$
0,
#2210000
b111011 !
b111010 !
05
14
1$
1,
1+
#2215000
b111011 !
15
0$
0,
#2220000
b111111 !
b111101 !
b111100 !
05
04
13
1$
1,
0+
#2225000
b111101 !
15
0$
0,
#2230000
b111111 !
b111110 !
05
14
1$
1,
#2235000
b111111 !
15
0$
0,
#2240000
b1111111 !
b1011111 !
b1001111 !
b1000111 !
b1000011 !
b1000001 !
b1000000 !
05
04
03
02
01
00
1/
1$
1,
#2245000
b1000001 !
15
0$
#2250000
b1000011 !
b1000010 !
05
14
1$
1+
#2255000
b1000011 !
15
0$
#2260000
b1000111 !
b1000101 !
b1000100 !
05
04
13
1$
0+
#2265000
b1000101 !
15
0$
#2270000
b1000111 !
b1000110 !
05
14
1$
#2275000
b1000111 !
15
0$
#2280000
b1001111 !
b1001011 !
b1001001 !
b1001000 !
05
04
03
12
1$
#2285000
b1001001 !
15
0$
#2290000
b1001011 !
b1001010 !
05
14
1$
1+
#2295000
b1001011 !
15
0$
#2300000
b1001111 !
b1001101 !
b1001100 !
05
04
13
1$
0+
#2305000
b1001101 !
15
0$
#2310000
b1001111 !
b1001110 !
05
14
1$
#2315000
b1001111 !
15
0$
#2320000
b1011111 !
b1010111 !
b1010011 !
b1010001 !
b1010000 !
05
04
03
02
11
1$
#2325000
b1010001 !
15
0$
#2330000
b1010011 !
b1010010 !
05
14
1$
1+
#2335000
b1010011 !
15
0$
#2340000
b1010111 !
b1010101 !
b1010100 !
05
04
13
1$
0+
#2345000
b1010101 !
15
0$
#2350000
b1010111 !
b1010110 !
05
14
1$
#2355000
b1010111 !
15
0$
#2360000
b1011111 !
b1011011 !
b1011001 !
b1011000 !
05
04
03
12
1$
#2365000
b1011001 !
15
0$
#2370000
b1011011 !
b1011010 !
05
14
1$
1+
#2375000
b1011011 !
15
0$
#2380000
b1011111 !
b1011101 !
b1011100 !
05
04
13
1$
0+
#2385000
b1011101 !
15
0$
#2390000
b1011111 !
b1011110 !
05
14
1$
#2395000
b1011111 !
15
0$
#2400000
b1111111 !
b1101111 !
b1100111 !
b1100011 !
b1100001 !
b1100000 !
05
04
03
02
01
10
1$
#2405000
b1100001 !
15
0$
#2410000
b1100011 !
b1100010 !
05
14
1$
1+
#2415000
b1100011 !
15
0$
#2420000
b1100111 !
b1100101 !
b1100100 !
05
04
13
1$
0+
#2425000
b1100101 !
15
0$
#2430000
b1100111 !
b1100110 !
05
14
1$
#2435000
b1100111 !
15
0$
#2440000
b1101111 !
b1101011 !
b1101001 !
b1101000 !
05
04
03
12
1$
#2445000
b1101001 !
15
0$
#2450000
b1101011 !
b1101010 !
05
14
1$
1+
#2455000
b1101011 !
15
0$
#2460000
b1101111 !
b1101101 !
b1101100 !
05
04
13
1$
0+
#2465000
b1101101 !
15
0$
#2470000
b1101111 !
b1101110 !
05
14
1$
#2475000
b1101111 !
15
0$
#2480000
b1111111 !
b1110111 !
b1110011 !
b1110001 !
b1110000 !
05
04
03
02
11
1$
#2485000
b1110001 !
15
0$
#2490000
b1110011 !
b1110010 !
05
14
1$
1+
#2495000
b1110011 !
15
0$
#2500000
b1110111 !
b1110101 !
b1110100 !
05
04
13
1$
0+
#2505000
b1110101 !
15
0$
#2510000
b1110111 !
b1110110 !
05
14
1$
#2515000
b1110111 !
15
0$
#2520000
b1111111 !
b1111011 !
b1111001 !
b1111000 !
05
04
03
12
1$
#2525000
b1111001 !
15
0$
#2530000
b1111011 !
b1111010 !
05
14
1$
1+
#2535000
b1111011 !
15
0$
#2540000
b1111111 !
b1111101 !
b1111100 !
05
04
13
1$
0+
#2545000
b1111101 !
15
0$
#2550000
b1111111 !
b1111110 !
05
14
1$
#2555000
b1111111 !
15
0$
#2560000
b111 "
b101 "
b100 "
b111111 !
b11111 !
b1111 !
b111 !
b11 !
b1 !
b0 !
05
04
03
02
01
00
0/
0<
0;
1:
1$
0,
#2565000
b1 !
15
0$
1,
#2570000
b11 !
b10 !
05
14
1$
0,
#2575000
b11 !
15
0$
1,
#2580000
b111 !
b101 !
b100 !
05
04
13
1$
0,
1+
1-
1.
1#
#2585000
b101 !
15
0$
1,
0-
0.
0#
#2590000
b111 !
b110 !
05
14
1$
0,
0+
#2595000
b111 !
15
0$
1,
#2600000
b1111 !
b1011 !
b1001 !
b1000 !
05
04
03
12
1$
0,
#2605000
b1001 !
15
0$
1,
#2610000
b1011 !
b1010 !
05
14
1$
0,
#2615000
b1011 !
15
0$
1,
#2620000
b1111 !
b1101 !
b1100 !
05
04
13
1$
0,
1+
#2625000
b1101 !
15
0$
1,
#2630000
b1111 !
b1110 !
05
14
1$
0,
0+
#2635000
b1111 !
15
0$
1,
