Lab1/simulation/qsim/g07_lab1.msim.vcd
$comment
	File created using the following command:
		vcd file g07_lab1.msim.vcd -direction
$end
$date
	Thu Sep 28 14:41:53 2017
$end
$version
	ModelSim Version 10.1d
$end
$timescale
	1ps
$end
$scope module g07_adder_vlg_vec_tst $end
$var reg 8 ! A [7:0] $end
$var reg 8 " B [7:0] $end
$var reg 1 # Cin $end
$var wire 1 $ Cout $end
$var wire 1 % S [7] $end
$var wire 1 & S [6] $end
$var wire 1 ' S [5] $end
$var wire 1 ( S [4] $end
$var wire 1 ) S [3] $end
$var wire 1 * S [2] $end
$var wire 1 + S [1] $end
$var wire 1 , S [0] $end
$var wire 1 - sampler $end
$scope module i1 $end
$var wire 1 . gnd $end
$var wire 1 / vcc $end
$var wire 1 0 unknown $end
$var tri1 1 1 devclrn $end
$var tri1 1 2 devpor $end
$var tri1 1 3 devoe $end
$var wire 1 4 inst6|inst4~0_combout $end
$var wire 1 5 inst6|inst4~1_combout $end
$var wire 1 6 inst7|inst4~0_combout $end
$var wire 1 7 inst7|inst1~combout $end
$var wire 1 8 inst4|inst4~1_combout $end
$var wire 1 9 inst5|inst4~0_combout $end
$var wire 1 : inst6|inst1~0_combout $end
$var wire 1 ; inst4|inst4~0_combout $end
$var wire 1 < inst5|inst1~combout $end
$var wire 1 = inst|inst4~0_combout $end
$var wire 1 > inst|inst4~1_combout $end
$var wire 1 ? inst2|inst4~1_combout $end
$var wire 1 @ inst2|inst4~2_combout $end
$var wire 1 A inst3|inst4~0_combout $end
$var wire 1 B inst4|inst1~0_combout $end
$var wire 1 C inst2|inst4~0_combout $end
$var wire 1 D inst3|inst1~combout $end
$var wire 1 E inst1|inst4~0_combout $end
$var wire 1 F inst2|inst1~0_combout $end
$var wire 1 G inst1|inst1~combout $end
$var wire 1 H Cin~combout $end
$var wire 1 I inst|inst1~0_combout $end
$var wire 1 J A~combout [7] $end
$var wire 1 K A~combout [6] $end
$var wire 1 L A~combout [5] $end
$var wire 1 M A~combout [4] $end
$var wire 1 N A~combout [3] $end
$var wire 1 O A~combout [2] $end
$var wire 1 P A~combout [1] $end
$var wire 1 Q A~combout [0] $end
$var wire 1 R B~combout [7] $end
$var wire 1 S B~combout [6] $end
$var wire 1 T B~combout [5] $end
$var wire 1 U B~combout [4] $end
$var wire 1 V B~combout [3] $end
$var wire 1 W B~combout [2] $end
$var wire 1 X B~combout [1] $end
$var wire 1 Y B~combout [0] $end
$upscope $end
$upscope $end
$enddefinitions $end
#0
$dumpvars
b0 !
b0 "
0#
0?
0@
0A
0B
0C
0D
0E
0F
0G
0H
0I
0Q
0P
0O
0N
0M
0L
0K
0J
0Y
0X
0W
0V
0U
0T
0S
0R
0$
0,
0+
0*
0)
0(
0'
0&
0%
x-
0.
1/
x0
11
12
13
04
05
06
07
08
09
0:
0;
0<
0=
0>
$end
#10000
b1 !
1Q
0-
1I
1,
#20000
b11 !
b10 !
0Q
1P
1-
0I
1G
0,
1+
#30000
b11 !
1Q
0-
1I
1,
#40000
b111 !
b101 !
b100 !
0Q
0P
1O
1-
0I
0G
1F
0,
0+
1*
#50000
b101 !
1Q
0-
1I
1,
#60000
b111 !
b110 !
0Q
1P
1-
0I
1G
0,
1+
#70000
b111 !
1Q
0-
1I
1,
#80000
b1111 !
b1011 !
b1001 !
b1000 !
0Q
0P
0O
1N
1-
0I
0G
0F
1D
0,
0+
0*
1)
#90000
b1001 !
1Q
0-
1I
1,
#100000
b1 "
b1011 !
b1010 !
0Q
1P
1Y
1-
1G
1+
#110000
b1011 !
1Q
0-
0I
1=
0G
1E
1?
0,
1F
0+
1*
#120000
b1111 !
b1101 !
b1100 !
0Q
0P
1O
1-
1I
0=
1G
0E
0?
0F
1@
0G
1F
0@
0D
1A
1,
1+
0*
1D
0A
1B
0+
1*
0)
0B
1)
1(
0(
#130000
b1101 !
1Q
0-
0I
1=
1G
0,
1+
#140000
b1111 !
b1110 !
0Q
1P
1-
1I
0=
0G
1E
1?
1G
0E
0?
0F
1@
1,
0+
1F
0@
0D
1A
1+
0*
1D
0A
1B
1*
0)
0B
1)
1(
0(
#150000
b1111 !
1Q
0-
0I
1=
0G
1E
1?
0,
0F
1@
0+
0D
1A
0*
1B
0)
1(
#160000
b11111 !
b10111 !
b10011 !
b10001 !
b10000 !
0Q
0P
0O
0N
1M
1-
1I
0=
1G
0E
0?
1F
0@
1D
0A
0B
18
0G
0F
0D
1B
08
1<
1,
1+
1*
1)
0(
0<
0+
0*
0)
1(
1'
0'
#170000
b10001 !
1Q
0-
0I
1=
1G
0,
1+
#180000
b10011 !
b10010 !
0Q
1P
1-
1I
0=
0G
1E
1?
1G
0E
0?
1F
1,
0+
0F
1+
1*
0*
#190000
b10011 !
1Q
0-
0I
1=
0G
1E
1?
0,
1F
0+
1*
#200000
b11 "
b10 "
b10111 !
b10101 !
b10100 !
0Q
0P
1O
0Y
1X
1-
0=
0F
1@
1G
0E
0?
1D
0*
1F
0@
1+
1)
0D
1*
0)
#210000
b10101 !
1Q
0-
1I
1,
#220000
b10111 !
b10110 !
0Q
1P
1-
0I
0G
1E
1?
0F
1@
0,
0+
1D
0*
1)
#230000
b10111 !
1Q
0-
1I
1,
#240000
b11111 !
b11011 !
b11001 !
b11000 !
0Q
0P
0O
1N
1-
0I
1G
0E
0?
1F
0@
0D
1A
0F
1D
0A
0B
18
0,
1+
1*
0)
1B
08
1<
0*
1)
0(
0<
1(
1'
0'
#250000
b11001 !
1Q
0-
1I
1,
#260000
b11011 !
b11010 !
0Q
1P
1-
0I
0G
1E
1?
1F
0,
0+
1*
#270000
b11011 !
1Q
0-
1I
1,
#280000
b11111 !
b11101 !
b11100 !
0Q
0P
1O
1-
0I
1G
0E
0?
0F
1@
1F
0@
0D
1A
0,
1+
0*
1D
0A
0B
18
1*
0)
1B
08
1<
1)
0(
0<
1(
1'
0'
#290000
b11101 !
1Q
0-
1I
1,
#300000
b11 "
b11111 !
b11110 !
0Q
1P
1Y
1-
0G
1E
1?
0F
1@
0+
0D
1A
0*
0B
18
0)
1<
0(
1'
#310000
b11111 !
1Q
0-
0I
1=
1G
0,
1+
#320000
b111111 !
b101111 !
b100111 !
b100011 !
b100001 !
b100000 !
0Q
0P
0O
0N
0M
1L
1-
1I
0=
0G
1F
0@
1D
0A
1B
08
0<
19
1G
0E
0?
0D
0B
1<
09
1:
1,
0+
1*
1)
1(
0'
0F
0:
1+
0)
0(
1'
1&
0*
0&
#330000
b100001 !
1Q
0-
0I
1=
0G
1E
1?
0,
1F
0+
1*
#340000
b100011 !
b100010 !
0Q
1P
1-
1I
0=
1G
0G
1,
1+
0+
#350000
b100011 !
1Q
0-
0I
1=
1G
0,
1+
#360000
b100111 !
b100101 !
b100100 !
0Q
0P
1O
1-
1I
0=
0G
0F
1@
1G
0E
0?
1D
1,
0+
0*
1F
0@
1+
1)
0D
1*
0)
#370000
b100101 !
1Q
0-
0I
1=
0G
1E
1?
0,
0F
1@
0+
1D
0*
1)
#380000
b100111 !
b100110 !
0Q
1P
1-
1I
0=
1G
0G
1,
1+
0+
#390000
b100111 !
1Q
0-
0I
1=
1G
0,
1+
#400000
b111 "
b101 "
b100 "
b101111 !
b101011 !
b101001 !
b101000 !
0Q
0P
0O
1N
0Y
0X
1W
1-
0=
0E
0?
0D
1A
0G
1F
0@
1B
0)
1D
0A
0+
1*
1(
0B
1)
0(
#410000
b101001 !
1Q
0-
1I
1,
#420000
b101011 !
b101010 !
0Q
1P
1-
0I
1G
0,
1+
#430000
b101011 !
1Q
0-
1I
1,
#440000
b101111 !
b101101 !
b101100 !
0Q
0P
1O
1-
0I
0G
0F
1C
0D
1A
0,
0+
0*
1B
0)
1(
#450000
b101101 !
1Q
0-
1I
1,
#460000
b101111 !
b101110 !
0Q
1P
1-
0I
1G
0,
1+
#470000
b101111 !
1Q
0-
1I
1,
#480000
b111111 !
b110111 !
b110011 !
b110001 !
b110000 !
0Q
0P
0O
0N
1M
1-
0I
0G
1F
0C
1D
0A
0B
18
0D
1B
08
0<
19
0,
0+
1*
1)
0(
1<
09
1:
0)
1(
0'
0:
1'
1&
0&
#490000
b110001 !
1Q
0-
1I
1,
#500000
b101 "
b110011 !
b110010 !
0Q
1P
1Y
1-
1G
1+
#510000
b110011 !
1Q
0-
0I
1=
0G
1E
1?
0,
0F
1@
0+
1D
0*
1)
#520000
b110111 !
b110101 !
b110100 !
0Q
0P
1O
1-
1I
0=
1G
0E
0?
1F
1C
0G
0F
0@
1,
1+
1*
0+
0*
#530000
b110101 !
1Q
0-
0I
1=
1G
0,
1+
#540000
b110111 !
b110110 !
0Q
1P
1-
1I
0=
0G
1E
1?
1G
0E
0?
1F
1@
1,
0+
0F
0@
1+
1*
0*
#550000
b110111 !
1Q
0-
0I
1=
0G
1E
1?
0,
1F
1@
0+
1*
#560000
b111111 !
b111011 !
b111001 !
b111000 !
0Q
0P
0O
1N
1-
1I
0=
1G
0E
0?
0F
0C
0D
1A
0G
1F
0@
0B
18
1,
1+
0*
0)
1D
0A
0<
19
0+
1*
0(
1B
08
1:
1)
0'
1<
09
1(
1&
0:
1'
0&
#570000
b111001 !
1Q
0-
0I
1=
1G
0,
1+
#580000
b111011 !
b111010 !
0Q
1P
1-
1I
0=
0G
1E
1?
1G
0E
0?
0F
1@
1,
0+
1F
0@
0D
1A
1+
0*
1D
0A
0B
18
1*
0)
1B
08
0<
19
1)
0(
1<
09
1:
1(
0'
0:
1'
1&
0&
#590000
b111011 !
1Q
0-
0I
1=
0G
1E
1?
0,
0F
1@
0+
0D
1A
0*
0B
18
0)
0<
19
0(
1:
0'
1&
#600000
b111 "
b110 "
b111111 !
b111101 !
b111100 !
0Q
0P
1O
0Y
1X
1-
0=
1F
1C
1G
0E
0?
1*
0F
0@
1+
0*
#610000
b111101 !
1Q
0-
1I
1,
#620000
b111111 !
b111110 !
0Q
1P
1-
0I
0G
1E
1?
1F
1@
0,
0+
1*
#630000
b111111 !
1Q
0-
1I
1,
#640000
b1111111 !
b1011111 !
b1001111 !
b1000111 !
b1000011 !
b1000001 !
b1000000 !
0Q
0P
0O
0N
0M
0L
1K
1-
0I
1G
0E
0?
0F
0C
1D
0A
1B
08
1<
09
0:
15
1F
0@
0B
0<
1:
05
17
0,
1+
0*
1)
1(
1'
0&
0D
07
1*
0(
0'
1&
1%
0)
0%
#650000
b1000001 !
1Q
0-
1I
1,
#660000
b1000011 !
b1000010 !
0Q
1P
1-
0I
0G
1E
1?
0F
1@
0,
0+
1D
0*
1)
#670000
b1000011 !
1Q
0-
1I
1,
#680000
b1000111 !
b1000101 !
b1000100 !
0Q
0P
1O
1-
0I
1G
0E
0?
1F
1C
0F
0@
0,
1+
1*
0*
#690000
b1000101 !
1Q
0-
1I
1,
#700000
b111 "
b1000111 !
b1000110 !
0Q
1P
1Y
1-
0G
1E
1?
1F
1@
0+
1*
#710000
b1000111 !
1Q
0-
0I
1=
1G
0,
1+
#720000
b1001111 !
b1001011 !
b1001001 !
b1001000 !
0Q
0P
0O
1N
1-
1I
0=
0G
0F
0C
0D
1A
1G
0E
0?
1B
1,
0+
0*
0)
1F
0@
1+
1(
1D
0A
1*
0B
1)
0(
#730000
b1001001 !
1Q
0-
0I
1=
0G
1E
1?
0,
0F
1@
0+
0D
1A
0*
1B
0)
1(
#740000
b1001011 !
b1001010 !
0Q
1P
1-
1I
0=
1G
0G
1,
1+
0+
#750000
b1001011 !
1Q
0-
0I
1=
1G
0,
1+
#760000
b1001111 !
b1001101 !
b1001100 !
0Q
0P
1O
1-
1I
0=
0G
1F
1C
1G
0E
0?
1,
0+
1*
0F
0@
1+
0*
#770000
b1001101 !
1Q
0-
0I
1=
0G
1E
1?
0,
1F
1@
0+
1*
#780000
b1001111 !
b1001110 !
0Q
1P
1-
1I
0=
1G
0G
1,
1+
0+
#790000
b1001111 !
1Q
0-
0I
1=
1G
0,
1+
#800000
b1111 "
b1011 "
b1001 "
b1011111 !
b1000 "
b1010111 !
b1010011 !
b1010001 !
b1010000 !
0Q
0P
0O
0N
1M
0Y
0X
0W
1V
1-
0=
0E
0?
0C
0@
0B
18
0G
0F
1D
0A
1<
0(
1B
08
0+
0*
1)
1'
0<
1(
0'
#810000
b1010001 !
1Q
0-
1I
1,
#820000
b1010011 !
b1010010 !
0Q
1P
1-
0I
1G
0,
1+
#830000
b1010011 !
1Q
0-
1I
1,
#840000
b1010111 !
b1010101 !
b1010100 !
0Q
0P
1O
1-
0I
0G
1F
0,
0+
1*
#850000
b1010101 !
1Q
0-
1I
1,
#860000
b1010111 !
b1010110 !
0Q
1P
1-
0I
1G
0,
1+
#870000
b1010111 !
1Q
0-
1I
1,
#880000
b1011111 !
b1011011 !
b1011001 !
b1011000 !
0Q
0P
0O
1N
1-
0I
0G
0F
0D
1A
0B
18
0,
0+
0*
0)
1<
0(
1'
#890000
b1011001 !
1Q
0-
1I
1,
#900000
b1001 "
b1011011 !
b1011010 !
0Q
1P
1Y
1-
1G
1+
#910000
b1011011 !
1Q
0-
0I
1=
0G
1E
1?
0,
1F
0+
1*
#920000
b1011111 !
b1011101 !
b1011100 !
0Q
0P
1O
1-
1I
0=
1G
0E
0?
0F
1@
0G
1F
0@
1D
1,
1+
0*
0D
0+
1*
1)
0)
#930000
b1011101 !
1Q
0-
0I
1=
1G
0,
1+
#940000
b1011111 !
b1011110 !
0Q
1P
1-
1I
0=
0G
1E
1?
1G
0E
0?
0F
1@
1,
0+
1F
0@
1D
1+
0*
0D
1*
1)
0)
#950000
b1011111 !
1Q
0-
0I
1=
0G
1E
1?
0,
0F
1@
0+
1D
0*
1)
#960000
b1111111 !
b1101111 !
b1100111 !
b1100011 !
b1100001 !
b1100000 !
0Q
0P
0O
0N
0M
1L
1-
1I
0=
1G
0E
0?
1F
0@
0D
1B
08
0<
19
0G
0F
1D
0A
1<
09
0:
15
1,
1+
1*
0)
1(
0'
0B
1:
05
17
0+
0*
1)
1'
0&
07
0(
1&
1%
0%
#970000
b1100001 !
1Q
0-
0I
1=
1G
0,
1+
#980000
b1100011 !
b1100010 !
0Q
1P
1-
1I
0=
0G
1E
1?
1G
0E
0?
1F
1,
0+
0F
1+
1*
0*
#990000
b1100011 !
1Q
0-
0I
1=
0G
1E
1?
0,
1F
0+
1*
