Lab4/simulation/qsim/Lab4.msim.vcd
$comment
	File created using the following command:
		vcd file Lab4.msim.vcd -direction
$end
$date
	Thu Nov 16 15:57:47 2017
$end
$version
	ModelSim Version 10.1d
$end
$timescale
	1ps
$end
$scope module g07_dealer_FSM_vlg_vec_tst $end
$var reg 1 ! clock $end
$var reg 1 " request_deal $end
$var reg 1 # reset $end
$var wire 1 $ stack_enable $end
$var wire 1 % sampler $end
$scope module i1 $end
$var wire 1 & gnd $end
$var wire 1 ' vcc $end
$var wire 1 ( unknown $end
$var tri1 1 ) devclrn $end
$var tri1 1 * devpor $end
$var tri1 1 + devoe $end
$var wire 1 , request_deal~combout $end
$var wire 1 - clock~combout $end
$var wire 1 . clock~clkctrl_outclk $end
$var wire 1 / Selector0~0_combout $end
$var wire 1 0 reset~combout $end
$var wire 1 1 reset~clkctrl_outclk $end
$var wire 1 2 state.WAIT_LOW~regout $end
$var wire 1 3 Selector1~0_combout $end
$var wire 1 4 state.WAIT_HIGH~regout $end
$var wire 1 5 Selector2~0_combout $end
$var wire 1 6 state.ENABLE_STACK~regout $end
$upscope $end
$upscope $end
$enddefinitions $end
#0
$dumpvars
0!
1"
0#
x$
x%
0&
1'
x(
1)
1*
1+
1,
0-
x.
x/
00
x1
x2
x3
x4
x5
x6
$end
#232
01
#238
0.
#243
02
04
06
#771
05
#3653
0$
#5282
03
#5370
0/
#10000
1!
0%
#11026
1-
#11264
1.
#20000
0!
1%
#21026
0-
#21264
0.
#30000
1!
0%
#31026
1-
#31264
1.
#40000
0!
1%
#41026
0-
#41264
0.
#50000
1!
0%
#51026
1-
#51264
1.
#60000
0"
0!
1%
#60864
0,
#61026
0-
#61264
0.
#66146
13
#66234
1/
#70000
1!
0%
#71026
1-
#71264
1.
#73127
12
14
#80000
0!
1%
#81026
0-
#81264
0.
#90000
1!
0%
#91026
1-
#91264
1.
#100000
0!
1%
#101026
0-
#101264
0.
#110000
1!
0%
#111026
1-
#111264
1.
#120000
0!
1%
#121026
0-
#121264
0.
#130000
1!
0%
#131026
1-
#131264
1.
#140000
0!
1%
#141026
0-
#141264
0.
#150000
1!
0%
#151026
1-
#151264
1.
#160000
1#
0!
1%
#161026
0-
10
#161258
11
#161264
0.
#163091
02
04
#170000
1!
0%
#171026
1-
#171264
1.
#180000
0!
1%
#181026
0-
#181264
0.
#190000
1!
0%
#191026
1-
#191264
1.
#200000
1"
0!
1%
#200864
1,
#201026
0-
#201264
0.
#206146
03
#206234
0/
#210000
1!
0%
#211026
1-
#211264
1.
#220000
0!
1%
#221026
0-
#221264
0.
#230000
1!
0%
#231026
1-
#231264
1.
#240000
0!
1%
#241026
0-
#241264
0.
#250000
1!
0%
#251026
1-
#251264
1.
#260000
0!
1%
#261026
0-
#261264
0.
#270000
1!
0%
#271026
1-
#271264
1.
#280000
0!
1%
#281026
0-
#281264
0.
#290000
1!
0%
#291026
1-
#291264
1.
#300000
0#
0!
1%
#301026
0-
00
#301258
01
#301264
0.
#310000
0"
1!
0%
#310864
0,
#311026
1-
#311264
1.
#316146
13
#316234
1/
#320000
0!
1%
#321026
0-
#321264
0.
#330000
1!
0%
#331026
1-
#331264
1.
#333127
12
14
#340000
0!
1%
#341026
0-
#341264
0.
#350000
1!
0%
#351026
1-
#351264
1.
#360000
0!
1%
#361026
0-
#361264
0.
#370000
1!
0%
#371026
1-
#371264
1.
#380000
0!
1%
#381026
0-
#381264
0.
#390000
1!
0%
#391026
1-
#391264
1.
#400000
0!
1%
#401026
0-
#401264
0.
#410000
1"
1!
0%
#410864
1,
#411026
1-
#411264
1.
#416146
03
#416202
15
#420000
0!
1%
#421026
0-
#421264
0.
#430000
1!
0%
#431026
1-
#431264
1.
#433127
04
16
#433655
05
#433661
0/
#436537
1$
#440000
0!
1%
#441026
0-
#441264
0.
#450000
1!
0%
#451026
1-
#451264
1.
#453127
02
06
#456537
0$
#460000
0!
1%
#461026
0-
#461264
0.
#470000
1!
0%
#471026
1-
#471264
1.
#480000
0!
1%
#481026
0-
#481264
0.
#490000
1!
0%
#491026
1-
#491264
1.
#500000
0!
1%
#501026
0-
#501264
0.
#510000
1!
0%
#511026
1-
#511264
1.
#520000
0!
1%
#521026
0-
#521264
0.
#530000
1!
0%
#531026
1-
#531264
1.
#540000
0!
1%
#541026
0-
#541264
0.
#550000
1!
0%
#551026
1-
#551264
1.
#560000
0!
1%
#561026
0-
#561264
0.
#570000
1!
0%
#571026
1-
#571264
1.
#580000
0!
1%
#581026
0-
#581264
0.
#590000
1!
0%
#591026
1-
#591264
1.
#600000
0!
1%
#601026
0-
#601264
0.
#610000
1!
0%
#611026
1-
#611264
1.
#620000
0!
1%
#621026
0-
#621264
0.
#630000
1!
0%
#631026
1-
#631264
1.
#640000
0!
1%
#641026
0-
#641264
0.
#650000
1!
0%
#651026
1-
#651264
1.
#660000
0!
1%
#661026
0-
#661264
0.
#670000
1!
0%
#671026
1-
#671264
1.
#680000
0!
1%
#681026
0-
#681264
0.
#690000
1!
0%
#691026
1-
#691264
1.
#700000
0!
1%
#701026
0-
#701264
0.
#710000
1!
0%
#711026
1-
#711264
1.
#720000
0!
1%
#721026
0-
#721264
0.
#730000
1!
0%
#731026
1-
#731264
1.
#740000
0!
1%
#741026
0-
#741264
0.
#750000
1!
0%
#751026
1-
#751264
1.
#760000
0!
1%
#761026
0-
#761264
0.
#770000
1!
0%
#771026
1-
#771264
1.
#780000
0!
1%
#781026
0-
#781264
0.
#790000
1!
0%
#791026
1-
#791264
1.
#800000
0!
1%
#801026
0-
#801264
0.
#810000
1!
0%
#811026
1-
#811264
1.
#820000
0!
1%
#821026
0-
#821264
0.
#830000
1!
0%
#831026
1-
#831264
1.
#840000
0!
1%
#841026
0-
#841264
0.
#850000
1!
0%
#851026
1-
#851264
1.
#860000
0!
1%
#861026
0-
#861264
0.
#870000
1!
0%
#871026
1-
#871264
1.
#880000
0!
1%
#881026
0-
#881264
0.
#890000
1!
0%
#891026
1-
#891264
1.
#900000
0!
1%
#901026
0-
#901264
0.
#910000
1!
0%
#911026
1-
#911264
1.
#920000
0!
1%
#921026
0-
#921264
0.
#930000
1!
0%
#931026
1-
#931264
1.
#940000
0!
1%
#941026
0-
#941264
0.
#950000
1!
0%
#951026
1-
#951264
1.
#960000
0!
1%
#961026
0-
#961264
0.
#970000
1!
0%
#971026
1-
#971264
1.
#980000
0!
1%
#981026
0-
#981264
0.
#990000
1!
0%
#991026
1-
